ipy_notebooks/20161108_noon/ALL0068/F0068CH1.CSV

Record Length,2.500000e+03,,   0.000000000000,   0.09680,
Sample Interval,1.000000e-02,,   0.010000000000,   0.10720,
Trigger Point,-0.000000000000e+00,,   0.020000000000,   0.11200,
,,,   0.030000000000,   0.11040,
,,,   0.040000000000,   0.10880,
,,,   0.050000000000,   0.10800,
Source,CH1,,   0.060000000000,   0.10000,
Vertical Units,V,,   0.070000000000,   0.09440,
Vertical Scale,2.000000e-02,,   0.080000000000,   0.10080,
Vertical Offset,-1.704000e-01,,   0.090000000000,   0.11280,
Horizontal Units,s,,   0.100000000000,   0.09680,
Horizontal Scale,2.500000e+00,,   0.110000000000,   0.09680,
Pt Fmt,Y,,   0.120000000000,   0.10000,
Yzero,0.000000e+00,,   0.130000000000,   0.10640,
Probe Atten,1.000000e+00,,   0.140000000000,   0.10880,
Model Number,TBS1072B-EDU,,   0.150000000000,   0.09760,
Serial Number,C010859,,   0.160000000000,   0.10320,
Firmware Version,FV:v4.06,,   0.170000000000,   0.10480,
,,,0.180000000000,   0.10960,
,,,0.190000000000,   0.11280,
,,,0.200000000000,   0.10080,
,,,0.210000000000,   0.09520,
,,,0.220000000000,   0.10560,
,,,0.230000000000,   0.10000,
,,,0.240000000000,   0.10640,
,,,0.250000000000,   0.09920,
,,,0.260000000000,   0.09280,
,,,0.270000000000,   0.10160,
,,,0.280000000000,   0.10960,
,,,0.290000000000,   0.11040,
,,,0.300000000000,   0.09840,
,,,0.310000000000,   0.11360,
,,,0.320000000000,   0.10320,
,,,0.330000000000,   0.10080,
,,,0.340000000000,   0.11440,
,,,0.350000000000,   0.09440,
,,,0.360000000000,   0.09520,
,,,0.370000000000,   0.11200,
,,,0.380000000000,   0.09760,
,,,0.390000000000,   0.09600,
,,,0.400000000000,   0.11280,
,,,0.410000000000,   0.09680,
,,,0.420000000000,   0.10640,
,,,0.430000000000,   0.10080,
,,,0.440000000000,   0.10080,
,,,0.450000000000,   0.11440,
,,,0.460000000000,   0.11040,
,,,0.470000000000,   0.11440,
,,,0.480000000000,   0.09680,
,,,0.490000000000,   0.11520,
,,,0.500000000000,   0.10240,
,,,0.510000000000,   0.11680,
,,,0.520000000000,   0.09920,
,,,0.530000000000,   0.09840,
,,,0.540000000000,   0.10560,
,,,0.550000000000,   0.11280,
,,,0.560000000000,   0.10080,
,,,0.570000000000,   0.10960,
,,,0.580000000000,   0.10240,
,,,0.590000000000,   0.10880,
,,,0.600000000000,   0.11120,
,,,0.610000000000,   0.10640,
,,,0.620000000000,   0.10480,
,,,0.630000000000,   0.11440,
,,,0.640000000000,   0.09520,
,,,0.650000000000,   0.10960,
,,,0.660000000000,   0.10080,
,,,0.670000000000,   0.11360,
,,,0.680000000000,   0.10800,
,,,0.690000000000,   0.10320,
,,,0.700000000000,   0.10080,
,,,0.710000000000,   0.10720,
,,,0.720000000000,   0.10640,
,,,0.730000000000,   0.11120,
,,,0.740000000000,   0.10800,
,,,0.750000000000,   0.10240,
,,,0.760000000000,   0.11280,
,,,0.770000000000,   0.09760,
,,,0.780000000000,   0.10560,
,,,0.790000000000,   0.09920,
,,,0.800000000000,   0.10880,
,,,0.810000000000,   0.10800,
,,,0.820000000000,   0.10400,
,,,0.830000000000,   0.10320,
,,,0.840000000000,   0.10400,
,,,0.850000000000,   0.11120,
,,,0.860000000000,   0.11280,
,,,0.870000000000,   0.09840,
,,,0.880000000000,   0.09840,
,,,0.890000000000,   0.11120,
,,,0.900000000000,   0.10080,
,,,0.910000000000,   0.10800,
,,,0.920000000000,   0.10400,
,,,0.930000000000,   0.10080,
,,,0.940000000000,   0.10640,
,,,0.950000000000,   0.11360,
,,,0.960000000000,   0.10480,
,,,0.970000000000,   0.10880,
,,,0.980000000000,   0.10880,
,,,0.990000000000,   0.09280,
,,,1.000000000000,   0.11040,
,,,1.010000000000,   0.10720,
,,,1.020000000000,   0.10320,
,,,1.030000000000,   0.09760,
,,,1.040000000000,   0.11360,
,,,1.050000000000,   0.09920,
,,,1.060000000000,   0.09760,
,,,1.070000000000,   0.10560,
,,,1.080000000000,   0.10960,
,,,1.090000000000,   0.09920,
,,,1.100000000000,   0.10080,
,,,1.110000000000,   0.10080,
,,,1.120000000000,   0.09680,
,,,1.130000000000,   0.09760,
,,,1.140000000000,   0.10400,
,,,1.150000000000,   0.11040,
,,,1.160000000000,   0.11360,
,,,1.170000000000,   0.09680,
,,,1.180000000000,   0.09840,
,,,1.190000000000,   0.11600,
,,,1.200000000000,   0.09520,
,,,1.210000000000,   0.10320,
,,,1.220000000000,   0.11200,
,,,1.230000000000,   0.11360,
,,,1.240000000000,   0.11200,
,,,1.250000000000,   0.11120,
,,,1.260000000000,   0.10880,
,,,1.270000000000,   0.10080,
,,,1.280000000000,   0.10800,
,,,1.290000000000,   0.09680,
,,,1.300000000000,   0.10800,
,,,1.310000000000,   0.10720,
,,,1.320000000000,   0.10960,
,,,1.330000000000,   0.09680,
,,,1.340000000000,   0.10640,
,,,1.350000000000,   0.10560,
,,,1.360000000000,   0.09680,
,,,1.370000000000,   0.09440,
,,,1.380000000000,   0.10480,
,,,1.390000000000,   0.09280,
,,,1.400000000000,   0.10800,
,,,1.410000000000,   0.11760,
,,,1.420000000000,   0.10000,
,,,1.430000000000,   0.11280,
,,,1.440000000000,   0.09920,
,,,1.450000000000,   0.10160,
,,,1.460000000000,   0.11680,
,,,1.470000000000,   0.11280,
,,,1.480000000000,   0.11200,
,,,1.490000000000,   0.09680,
,,,1.500000000000,   0.10720,
,,,1.510000000000,   0.09760,
,,,1.520000000000,   0.10320,
,,,1.530000000000,   0.10080,
,,,1.540000000000,   0.10960,
,,,1.550000000000,   0.10400,
,,,1.560000000000,   0.10000,
,,,1.570000000000,   0.10000,
,,,1.580000000000,   0.11360,
,,,1.590000000000,   0.09840,
,,,1.600000000000,   0.10960,
,,,1.610000000000,   0.10800,
,,,1.620000000000,   0.10480,
,,,1.630000000000,   0.11120,
,,,1.640000000000,   0.11280,
,,,1.650000000000,   0.10400,
,,,1.660000000000,   0.10240,
,,,1.670000000000,   0.10800,
,,,1.680000000000,   0.09840,
,,,1.690000000000,   0.10640,
,,,1.700000000000,   0.11600,
,,,1.710000000000,   0.10800,
,,,1.720000000000,   0.11280,
,,,1.730000000000,   0.10000,
,,,1.740000000000,   0.09760,
,,,1.750000000000,   0.10080,
,,,1.760000000000,   0.09920,
,,,1.770000000000,   0.10240,
,,,1.780000000000,   0.11040,
,,,1.790000000000,   0.11600,
,,,1.800000000000,   0.10160,
,,,1.810000000000,   0.09600,
,,,1.820000000000,   0.11200,
,,,1.830000000000,   0.09920,
,,,1.840000000000,   0.11120,
,,,1.850000000000,   0.11520,
,,,1.860000000000,   0.10480,
,,,1.870000000000,   0.10720,
,,,1.880000000000,   0.10320,
,,,1.890000000000,   0.10960,
,,,1.900000000000,   0.11040,
,,,1.910000000000,   0.09760,
,,,1.920000000000,   0.11280,
,,,1.930000000000,   0.10800,
,,,1.940000000000,   0.09520,
,,,1.950000000000,   0.10320,
,,,1.960000000000,   0.10560,
,,,1.970000000000,   0.10880,
,,,1.980000000000,   0.11280,
,,,1.990000000000,   0.12080,
,,,2.000000000000,   0.10320,
,,,2.010000000000,   0.11680,
,,,2.020000000000,   0.10560,
,,,2.030000000000,   0.11280,
,,,2.040000000000,   0.10480,
,,,2.050000000000,   0.09760,
,,,2.060000000000,   0.11520,
,,,2.070000000000,   0.10960,
,,,2.080000000000,   0.10000,
,,,2.090000000000,   0.10640,
,,,2.100000000000,   0.10960,
,,,2.110000000000,   0.11360,
,,,2.120000000000,   0.11040,
,,,2.130000000000,   0.11200,
,,,2.140000000000,   0.11200,
,,,2.150000000000,   0.10800,
,,,2.160000000000,   0.10240,
,,,2.170000000000,   0.10480,
,,,2.180000000000,   0.10400,
,,,2.190000000000,   0.09840,
,,,2.200000000000,   0.10000,
,,,2.210000000000,   0.09520,
,,,2.220000000000,   0.09680,
,,,2.230000000000,   0.10880,
,,,2.240000000000,   0.11040,
,,,2.250000000000,   0.11280,
,,,2.260000000000,   0.10400,
,,,2.270000000000,   0.11040,
,,,2.280000000000,   0.10560,
,,,2.290000000000,   0.11360,
,,,2.300000000000,   0.11040,
,,,2.310000000000,   0.11200,
,,,2.320000000000,   0.10800,
,,,2.330000000000,   0.10160,
,,,2.340000000000,   0.11120,
,,,2.350000000000,   0.11360,
,,,2.360000000000,   0.11360,
,,,2.370000000000,   0.10160,
,,,2.380000000000,   0.10400,
,,,2.390000000000,   0.11040,
,,,2.400000000000,   0.11440,
,,,2.410000000000,   0.11120,
,,,2.420000000000,   0.10800,
,,,2.430000000000,   0.10560,
,,,2.440000000000,   0.11120,
,,,2.450000000000,   0.10320,
,,,2.460000000000,   0.11200,
,,,2.470000000000,   0.10400,
,,,2.480000000000,   0.10560,
,,,2.490000000000,   0.10560,
,,,2.500000000000,   0.11280,
,,,2.510000000000,   0.10480,
,,,2.520000000000,   0.10800,
,,,2.530000000000,   0.10880,
,,,2.540000000000,   0.11200,
,,,2.550000000000,   0.10800,
,,,2.560000000000,   0.09920,
,,,2.570000000000,   0.09680,
,,,2.580000000000,   0.10640,
,,,2.590000000000,   0.10720,
,,,2.600000000000,   0.10880,
,,,2.610000000000,   0.09440,
,,,2.620000000000,   0.10640,
,,,2.630000000000,   0.10160,
,,,2.640000000000,   0.10400,
,,,2.650000000000,   0.11600,
,,,2.660000000000,   0.10320,
,,,2.670000000000,   0.10720,
,,,2.680000000000,   0.10480,
,,,2.690000000000,   0.10880,
,,,2.700000000000,   0.10320,
,,,2.710000000000,   0.09440,
,,,2.720000000000,   0.10320,
,,,2.730000000000,   0.10160,
,,,2.740000000000,   0.10000,
,,,2.750000000000,   0.11040,
,,,2.760000000000,   0.10240,
,,,2.770000000000,   0.10240,
,,,2.780000000000,   0.10240,
,,,2.790000000000,   0.11680,
,,,2.800000000000,   0.09920,
,,,2.810000000000,   0.10800,
,,,2.820000000000,   0.10000,
,,,2.830000000000,   0.09520,
,,,2.840000000000,   0.10480,
,,,2.850000000000,   0.10400,
,,,2.860000000000,   0.10080,
,,,2.870000000000,   0.10480,
,,,2.880000000000,   0.10160,
,,,2.890000000000,   0.09680,
,,,2.900000000000,   0.11280,
,,,2.910000000000,   0.10240,
,,,2.920000000000,   0.10640,
,,,2.930000000000,   0.10560,
,,,2.940000000000,   0.11280,
,,,2.950000000000,   0.10640,
,,,2.960000000000,   0.11120,
,,,2.970000000000,   0.11680,
,,,2.980000000000,   0.10640,
,,,2.990000000000,   0.10320,
,,,3.000000000000,   0.10560,
,,,3.010000000000,   0.09760,
,,,3.020000000000,   0.09680,
,,,3.030000000000,   0.11200,
,,,3.040000000000,   0.10080,
,,,3.050000000000,   0.10080,
,,,3.060000000000,   0.09840,
,,,3.070000000000,   0.11040,
,,,3.080000000000,   0.09600,
,,,3.090000000000,   0.10160,
,,,3.100000000000,   0.10000,
,,,3.110000000000,   0.09920,
,,,3.120000000000,   0.10480,
,,,3.130000000000,   0.09600,
,,,3.140000000000,   0.09600,
,,,3.150000000000,   0.10960,
,,,3.160000000000,   0.09920,
,,,3.170000000000,   0.11680,
,,,3.180000000000,   0.09840,
,,,3.190000000000,   0.10960,
,,,3.200000000000,   0.11120,
,,,3.210000000000,   0.09680,
,,,3.220000000000,   0.10480,
,,,3.230000000000,   0.10720,
,,,3.240000000000,   0.10720,
,,,3.250000000000,   0.10560,
,,,3.260000000000,   0.11280,
,,,3.270000000000,   0.11280,
,,,3.280000000000,   0.09760,
,,,3.290000000000,   0.10080,
,,,3.300000000000,   0.11360,
,,,3.310000000000,   0.11040,
,,,3.320000000000,   0.11360,
,,,3.330000000000,   0.10400,
,,,3.340000000000,   0.10240,
,,,3.350000000000,   0.11280,
,,,3.360000000000,   0.11520,
,,,3.370000000000,   0.11360,
,,,3.380000000000,   0.11680,
,,,3.390000000000,   0.10960,
,,,3.400000000000,   0.10640,
,,,3.410000000000,   0.11760,
,,,3.420000000000,   0.11280,
,,,3.430000000000,   0.11440,
,,,3.440000000000,   0.10960,
,,,3.450000000000,   0.10080,
,,,3.460000000000,   0.10880,
,,,3.470000000000,   0.10800,
,,,3.480000000000,   0.11600,
,,,3.490000000000,   0.12080,
,,,3.500000000000,   0.10960,
,,,3.510000000000,   0.11360,
,,,3.520000000000,   0.11600,
,,,3.530000000000,   0.11360,
,,,3.540000000000,   0.11360,
,,,3.550000000000,   0.12400,
,,,3.560000000000,   0.12880,
,,,3.570000000000,   0.12480,
,,,3.580000000000,   0.11840,
,,,3.590000000000,   0.11920,
,,,3.600000000000,   0.12080,
,,,3.610000000000,   0.11760,
,,,3.620000000000,   0.13680,
,,,3.630000000000,   0.13040,
,,,3.640000000000,   0.12960,
,,,3.650000000000,   0.12400,
,,,3.660000000000,   0.13520,
,,,3.670000000000,   0.13200,
,,,3.680000000000,   0.13040,
,,,3.690000000000,   0.14240,
,,,3.700000000000,   0.13920,
,,,3.710000000000,   0.14080,
,,,3.720000000000,   0.13680,
,,,3.730000000000,   0.13520,
,,,3.740000000000,   0.14480,
,,,3.750000000000,   0.13440,
,,,3.760000000000,   0.14400,
,,,3.770000000000,   0.13600,
,,,3.780000000000,   0.14000,
,,,3.790000000000,   0.13760,
,,,3.800000000000,   0.14080,
,,,3.810000000000,   0.13520,
,,,3.820000000000,   0.14560,
,,,3.830000000000,   0.14400,
,,,3.840000000000,   0.14000,
,,,3.850000000000,   0.14160,
,,,3.860000000000,   0.13680,
,,,3.870000000000,   0.14640,
,,,3.880000000000,   0.14080,
,,,3.890000000000,   0.14000,
,,,3.900000000000,   0.14000,
,,,3.910000000000,   0.15120,
,,,3.920000000000,   0.13600,
,,,3.930000000000,   0.14880,
,,,3.940000000000,   0.14240,
,,,3.950000000000,   0.14000,
,,,3.960000000000,   0.14080,
,,,3.970000000000,   0.14400,
,,,3.980000000000,   0.13840,
,,,3.990000000000,   0.14720,
,,,4.000000000000,   0.14240,
,,,4.010000000000,   0.15280,
,,,4.020000000000,   0.14880,
,,,4.030000000000,   0.13840,
,,,4.040000000000,   0.13760,
,,,4.050000000000,   0.13120,
,,,4.060000000000,   0.14640,
,,,4.070000000000,   0.14560,
,,,4.080000000000,   0.14720,
,,,4.090000000000,   0.13840,
,,,4.100000000000,   0.14880,
,,,4.110000000000,   0.13760,
,,,4.120000000000,   0.12720,
,,,4.130000000000,   0.13040,
,,,4.140000000000,   0.13280,
,,,4.150000000000,   0.14080,
,,,4.160000000000,   0.14480,
,,,4.170000000000,   0.13920,
,,,4.180000000000,   0.13280,
,,,4.190000000000,   0.14240,
,,,4.200000000000,   0.13920,
,,,4.210000000000,   0.12720,
,,,4.220000000000,   0.13440,
,,,4.230000000000,   0.13280,
,,,4.240000000000,   0.13040,
,,,4.250000000000,   0.13120,
,,,4.260000000000,   0.14160,
,,,4.270000000000,   0.12320,
,,,4.280000000000,   0.12640,
,,,4.290000000000,   0.12960,
,,,4.300000000000,   0.14320,
,,,4.310000000000,   0.12640,
,,,4.320000000000,   0.14240,
,,,4.330000000000,   0.13920,
,,,4.340000000000,   0.13760,
,,,4.350000000000,   0.13680,
,,,4.360000000000,   0.13600,
,,,4.370000000000,   0.12320,
,,,4.380000000000,   0.14000,
,,,4.390000000000,   0.14000,
,,,4.400000000000,   0.12400,
,,,4.410000000000,   0.12960,
,,,4.420000000000,   0.12960,
,,,4.430000000000,   0.13440,
,,,4.440000000000,   0.11920,
,,,4.450000000000,   0.11600,
,,,4.460000000000,   0.13200,
,,,4.470000000000,   0.13680,
,,,4.480000000000,   0.12560,
,,,4.490000000000,   0.13440,
,,,4.500000000000,   0.12720,
,,,4.510000000000,   0.12640,
,,,4.520000000000,   0.12240,
,,,4.530000000000,   0.13440,
,,,4.540000000000,   0.12800,
,,,4.550000000000,   0.12400,
,,,4.560000000000,   0.11840,
,,,4.570000000000,   0.12320,
,,,4.580000000000,   0.11200,
,,,4.590000000000,   0.12960,
,,,4.600000000000,   0.12960,
,,,4.610000000000,   0.12000,
,,,4.620000000000,   0.11120,
,,,4.630000000000,   0.12880,
,,,4.640000000000,   0.12560,
,,,4.650000000000,   0.13200,
,,,4.660000000000,   0.12880,
,,,4.670000000000,   0.12160,
,,,4.680000000000,   0.12320,
,,,4.690000000000,   0.12320,
,,,4.700000000000,   0.12160,
,,,4.710000000000,   0.11600,
,,,4.720000000000,   0.12400,
,,,4.730000000000,   0.11280,
,,,4.740000000000,   0.11440,
,,,4.750000000000,   0.12720,
,,,4.760000000000,   0.12160,
,,,4.770000000000,   0.12720,
,,,4.780000000000,   0.13280,
,,,4.790000000000,   0.12960,
,,,4.800000000000,   0.12960,
,,,4.810000000000,   0.12480,
,,,4.820000000000,   0.12480,
,,,4.830000000000,   0.12960,
,,,4.840000000000,   0.12640,
,,,4.850000000000,   0.12240,
,,,4.860000000000,   0.11200,
,,,4.870000000000,   0.12400,
,,,4.880000000000,   0.12400,
,,,4.890000000000,   0.11440,
,,,4.900000000000,   0.11760,
,,,4.910000000000,   0.11600,
,,,4.920000000000,   0.11440,
,,,4.930000000000,   0.10720,
,,,4.940000000000,   0.11520,
,,,4.950000000000,   0.12080,
,,,4.960000000000,   0.12640,
,,,4.970000000000,   0.11200,
,,,4.980000000000,   0.12560,
,,,4.990000000000,   0.11920,
,,,5.000000000000,   0.11920,
,,,5.010000000000,   0.12400,
,,,5.020000000000,   0.11120,
,,,5.030000000000,   0.12160,
,,,5.040000000000,   0.12320,
,,,5.050000000000,   0.11840,
,,,5.060000000000,   0.11120,
,,,5.070000000000,   0.11280,
,,,5.080000000000,   0.11360,
,,,5.090000000000,   0.11920,
,,,5.100000000000,   0.11360,
,,,5.110000000000,   0.12480,
,,,5.120000000000,   0.10960,
,,,5.130000000000,   0.11760,
,,,5.140000000000,   0.10560,
,,,5.150000000000,   0.10240,
,,,5.160000000000,   0.11600,
,,,5.170000000000,   0.10880,
,,,5.180000000000,   0.11760,
,,,5.190000000000,   0.11360,
,,,5.200000000000,   0.12000,
,,,5.210000000000,   0.12160,
,,,5.220000000000,   0.10800,
,,,5.230000000000,   0.11680,
,,,5.240000000000,   0.10800,
,,,5.250000000000,   0.11280,
,,,5.260000000000,   0.11200,
,,,5.270000000000,   0.11680,
,,,5.280000000000,   0.11920,
,,,5.290000000000,   0.11760,
,,,5.300000000000,   0.11600,
,,,5.310000000000,   0.11120,
,,,5.320000000000,   0.11600,
,,,5.330000000000,   0.12080,
,,,5.340000000000,   0.11680,
,,,5.350000000000,   0.12240,
,,,5.360000000000,   0.11680,
,,,5.370000000000,   0.11280,
,,,5.380000000000,   0.11200,
,,,5.390000000000,   0.11920,
,,,5.400000000000,   0.10560,
,,,5.410000000000,   0.11600,
,,,5.420000000000,   0.11520,
,,,5.430000000000,   0.11200,
,,,5.440000000000,   0.10640,
,,,5.450000000000,   0.11200,
,,,5.460000000000,   0.11600,
,,,5.470000000000,   0.11520,
,,,5.480000000000,   0.10640,
,,,5.490000000000,   0.11040,
,,,5.500000000000,   0.10320,
,,,5.510000000000,   0.11600,
,,,5.520000000000,   0.09840,
,,,5.530000000000,   0.10960,
,,,5.540000000000,   0.11680,
,,,5.550000000000,   0.11440,
,,,5.560000000000,   0.10800,
,,,5.570000000000,   0.11360,
,,,5.580000000000,   0.11760,
,,,5.590000000000,   0.10480,
,,,5.600000000000,   0.12000,
,,,5.610000000000,   0.11440,
,,,5.620000000000,   0.11280,
,,,5.630000000000,   0.10560,
,,,5.640000000000,   0.11040,
,,,5.650000000000,   0.10320,
,,,5.660000000000,   0.11440,
,,,5.670000000000,   0.11680,
,,,5.680000000000,   0.10240,
,,,5.690000000000,   0.10240,
,,,5.700000000000,   0.10640,
,,,5.710000000000,   0.10800,
,,,5.720000000000,   0.10800,
,,,5.730000000000,   0.11360,
,,,5.740000000000,   0.10560,
,,,5.750000000000,   0.11040,
,,,5.760000000000,   0.10320,
,,,5.770000000000,   0.10480,
,,,5.780000000000,   0.11360,
,,,5.790000000000,   0.11200,
,,,5.800000000000,   0.11440,
,,,5.810000000000,   0.11120,
,,,5.820000000000,   0.10080,
,,,5.830000000000,   0.10480,
,,,5.840000000000,   0.10240,
,,,5.850000000000,   0.09680,
,,,5.860000000000,   0.11360,
,,,5.870000000000,   0.10400,
,,,5.880000000000,   0.11040,
,,,5.890000000000,   0.11600,
,,,5.900000000000,   0.10400,
,,,5.910000000000,   0.10640,
,,,5.920000000000,   0.10960,
,,,5.930000000000,   0.10240,
,,,5.940000000000,   0.11200,
,,,5.950000000000,   0.11520,
,,,5.960000000000,   0.11440,
,,,5.970000000000,   0.11360,
,,,5.980000000000,   0.10480,
,,,5.990000000000,   0.11360,
,,,6.000000000000,   0.10960,
,,,6.010000000000,   0.11280,
,,,6.020000000000,   0.10960,
,,,6.030000000000,   0.10800,
,,,6.040000000000,   0.10000,
,,,6.050000000000,   0.11280,
,,,6.060000000000,   0.10080,
,,,6.070000000000,   0.10160,
,,,6.080000000000,   0.09920,
,,,6.090000000000,   0.09840,
,,,6.100000000000,   0.10800,
,,,6.110000000000,   0.10560,
,,,6.120000000000,   0.11120,
,,,6.130000000000,   0.09680,
,,,6.140000000000,   0.10000,
,,,6.150000000000,   0.10960,
,,,6.160000000000,   0.09520,
,,,6.170000000000,   0.10800,
,,,6.180000000000,   0.11280,
,,,6.190000000000,   0.11520,
,,,6.200000000000,   0.10720,
,,,6.210000000000,   0.10400,
,,,6.220000000000,   0.10480,
,,,6.230000000000,   0.10640,
,,,6.240000000000,   0.09680,
,,,6.250000000000,   0.10080,
,,,6.260000000000,   0.09600,
,,,6.270000000000,   0.10400,
,,,6.280000000000,   0.09840,
,,,6.290000000000,   0.11040,
,,,6.300000000000,   0.09760,
,,,6.310000000000,   0.09520,
,,,6.320000000000,   0.11040,
,,,6.330000000000,   0.11360,
,,,6.340000000000,   0.09920,
,,,6.350000000000,   0.10960,
,,,6.360000000000,   0.10000,
,,,6.370000000000,   0.09760,
,,,6.380000000000,   0.10080,
,,,6.390000000000,   0.10400,
,,,6.400000000000,   0.10160,
,,,6.410000000000,   0.10400,
,,,6.420000000000,   0.10000,
,,,6.430000000000,   0.10000,
,,,6.440000000000,   0.10400,
,,,6.450000000000,   0.09840,
,,,6.460000000000,   0.09440,
,,,6.470000000000,   0.11040,
,,,6.480000000000,   0.10880,
,,,6.490000000000,   0.11680,
,,,6.500000000000,   0.11200,
,,,6.510000000000,   0.10880,
,,,6.520000000000,   0.10240,
,,,6.530000000000,   0.10320,
