ipy_notebooks/GC/20161117/ALL0013/F0013CH1.CSV

Record Length,2.500000e+03,,   0.000000000000,   1.31200,
Sample Interval,1.000000e-02,,   0.010000000000,   1.29600,
Trigger Point,-0.000000000000e+00,,   0.020000000000,   1.28800,
,,,   0.030000000000,   1.30400,
,,,   0.040000000000,   1.32800,
,,,   0.050000000000,   1.29600,
Source,CH1,,   0.060000000000,   1.28800,
Vertical Units,V,,   0.070000000000,   1.32000,
Vertical Scale,2.000000e-01,,   0.080000000000,   1.32800,
Vertical Offset,-1.328000e+00,,   0.090000000000,   1.28800,
Horizontal Units,s,,   0.100000000000,   1.29600,
Horizontal Scale,2.500000e+00,,   0.110000000000,   1.30400,
Pt Fmt,Y,,   0.120000000000,   1.32800,
Yzero,0.000000e+00,,   0.130000000000,   1.30400,
Probe Atten,1.000000e+00,,   0.140000000000,   1.29600,
Model Number,TBS1072B-EDU,,   0.150000000000,   1.32800,
Serial Number,C010859,,   0.160000000000,   1.32800,
Firmware Version,FV:v4.06,,   0.170000000000,   1.31200,
,,,0.180000000000,   1.29600,
,,,0.190000000000,   1.33600,
,,,0.200000000000,   1.36000,
,,,0.210000000000,   1.33600,
,,,0.220000000000,   1.30400,
,,,0.230000000000,   1.32800,
,,,0.240000000000,   1.36000,
,,,0.250000000000,   1.32000,
,,,0.260000000000,   1.32800,
,,,0.270000000000,   1.32000,
,,,0.280000000000,   1.33600,
,,,0.290000000000,   1.32000,
,,,0.300000000000,   1.32000,
,,,0.310000000000,   1.32000,
,,,0.320000000000,   1.35200,
,,,0.330000000000,   1.33600,
,,,0.340000000000,   1.32000,
,,,0.350000000000,   1.33600,
,,,0.360000000000,   1.35200,
,,,0.370000000000,   1.33600,
,,,0.380000000000,   1.33600,
,,,0.390000000000,   1.32000,
,,,0.400000000000,   1.33600,
,,,0.410000000000,   1.32800,
,,,0.420000000000,   1.32800,
,,,0.430000000000,   1.33600,
,,,0.440000000000,   1.30400,
,,,0.450000000000,   1.34400,
,,,0.460000000000,   1.32800,
,,,0.470000000000,   1.28800,
,,,0.480000000000,   1.32000,
,,,0.490000000000,   1.32000,
,,,0.500000000000,   1.32000,
,,,0.510000000000,   1.29600,
,,,0.520000000000,   1.29600,
,,,0.530000000000,   1.32000,
,,,0.540000000000,   1.29600,
,,,0.550000000000,   1.28000,
,,,0.560000000000,   1.29600,
,,,0.570000000000,   1.31200,
,,,0.580000000000,   1.25600,
,,,0.590000000000,   1.28000,
,,,0.600000000000,   1.27200,
,,,0.610000000000,   1.28800,
,,,0.620000000000,   1.25600,
,,,0.630000000000,   1.25600,
,,,0.640000000000,   1.24000,
,,,0.650000000000,   1.24800,
,,,0.660000000000,   1.24000,
,,,0.670000000000,   1.25600,
,,,0.680000000000,   1.20800,
,,,0.690000000000,   1.24000,
,,,0.700000000000,   1.24000,
,,,0.710000000000,   1.20800,
,,,0.720000000000,   1.20000,
,,,0.730000000000,   1.24000,
,,,0.740000000000,   1.21600,
,,,0.750000000000,   1.17600,
,,,0.760000000000,   1.18400,
,,,0.770000000000,   1.19200,
,,,0.780000000000,   1.19200,
,,,0.790000000000,   1.17600,
,,,0.800000000000,   1.16000,
,,,0.810000000000,   1.18400,
,,,0.820000000000,   1.19200,
,,,0.830000000000,   1.16800,
,,,0.840000000000,   1.16000,
,,,0.850000000000,   1.17600,
,,,0.860000000000,   1.19200,
,,,0.870000000000,   1.16000,
,,,0.880000000000,   1.16000,
,,,0.890000000000,   1.18400,
,,,0.900000000000,   1.18400,
,,,0.910000000000,   1.15200,
,,,0.920000000000,   1.16000,
,,,0.930000000000,   1.17600,
,,,0.940000000000,   1.16800,
,,,0.950000000000,   1.16000,
,,,0.960000000000,   1.16000,
,,,0.970000000000,   1.17600,
,,,0.980000000000,   1.16800,
,,,0.990000000000,   1.15200,
,,,1.000000000000,   1.14400,
,,,1.010000000000,   1.16000,
,,,1.020000000000,   1.16000,
,,,1.030000000000,   1.16000,
,,,1.040000000000,   1.14400,
,,,1.050000000000,   1.16000,
,,,1.060000000000,   1.16000,
,,,1.070000000000,   1.16000,
,,,1.080000000000,   1.14400,
,,,1.090000000000,   1.15200,
,,,1.100000000000,   1.16800,
,,,1.110000000000,   1.15200,
,,,1.120000000000,   1.13600,
,,,1.130000000000,   1.14400,
,,,1.140000000000,   1.15200,
,,,1.150000000000,   1.15200,
,,,1.160000000000,   1.12800,
,,,1.170000000000,   1.14400,
,,,1.180000000000,   1.16000,
,,,1.190000000000,   1.15200,
,,,1.200000000000,   1.13600,
,,,1.210000000000,   1.13600,
,,,1.220000000000,   1.15200,
,,,1.230000000000,   1.15200,
,,,1.240000000000,   1.12800,
,,,1.250000000000,   1.12800,
,,,1.260000000000,   1.16800,
,,,1.270000000000,   1.14400,
,,,1.280000000000,   1.16800,
,,,1.290000000000,   1.15200,
,,,1.300000000000,   1.16800,
,,,1.310000000000,   1.16000,
,,,1.320000000000,   1.16000,
,,,1.330000000000,   1.14400,
,,,1.340000000000,   1.17600,
,,,1.350000000000,   1.18400,
,,,1.360000000000,   1.18400,
,,,1.370000000000,   1.16000,
,,,1.380000000000,   1.20000,
,,,1.390000000000,   1.20800,
,,,1.400000000000,   1.20800,
,,,1.410000000000,   1.18400,
,,,1.420000000000,   1.22400,
,,,1.430000000000,   1.22400,
,,,1.440000000000,   1.22400,
,,,1.450000000000,   1.22400,
,,,1.460000000000,   1.23200,
,,,1.470000000000,   1.25600,
,,,1.480000000000,   1.24000,
,,,1.490000000000,   1.24800,
,,,1.500000000000,   1.24800,
,,,1.510000000000,   1.27200,
,,,1.520000000000,   1.27200,
,,,1.530000000000,   1.25600,
,,,1.540000000000,   1.26400,
,,,1.550000000000,   1.28000,
,,,1.560000000000,   1.29600,
,,,1.570000000000,   1.28000,
,,,1.580000000000,   1.29600,
,,,1.590000000000,   1.30400,
,,,1.600000000000,   1.32000,
,,,1.610000000000,   1.30400,
,,,1.620000000000,   1.32000,
,,,1.630000000000,   1.35200,
,,,1.640000000000,   1.32000,
,,,1.650000000000,   1.32000,
,,,1.660000000000,   1.33600,
,,,1.670000000000,   1.33600,
,,,1.680000000000,   1.35200,
,,,1.690000000000,   1.36000,
,,,1.700000000000,   1.34400,
,,,1.710000000000,   1.35200,
,,,1.720000000000,   1.35200,
,,,1.730000000000,   1.36800,
,,,1.740000000000,   1.36000,
,,,1.750000000000,   1.37600,
,,,1.760000000000,   1.39200,
,,,1.770000000000,   1.37600,
,,,1.780000000000,   1.38400,
,,,1.790000000000,   1.39200,
,,,1.800000000000,   1.40800,
,,,1.810000000000,   1.40800,
,,,1.820000000000,   1.40000,
,,,1.830000000000,   1.40800,
,,,1.840000000000,   1.43200,
,,,1.850000000000,   1.43200,
,,,1.860000000000,   1.42400,
,,,1.870000000000,   1.40800,
,,,1.880000000000,   1.44000,
,,,1.890000000000,   1.43200,
,,,1.900000000000,   1.44000,
,,,1.910000000000,   1.42400,
,,,1.920000000000,   1.45600,
,,,1.930000000000,   1.44000,
,,,1.940000000000,   1.43200,
,,,1.950000000000,   1.44000,
,,,1.960000000000,   1.44000,
,,,1.970000000000,   1.44000,
,,,1.980000000000,   1.44000,
,,,1.990000000000,   1.44000,
,,,2.000000000000,   1.44000,
,,,2.010000000000,   1.44800,
,,,2.020000000000,   1.44000,
,,,2.030000000000,   1.42400,
,,,2.040000000000,   1.44800,
,,,2.050000000000,   1.43200,
,,,2.060000000000,   1.42400,
,,,2.070000000000,   1.41600,
,,,2.080000000000,   1.41600,
,,,2.090000000000,   1.42400,
,,,2.100000000000,   1.40800,
,,,2.110000000000,   1.41600,
,,,2.120000000000,   1.40800,
,,,2.130000000000,   1.41600,
,,,2.140000000000,   1.38400,
,,,2.150000000000,   1.38400,
,,,2.160000000000,   1.38400,
,,,2.170000000000,   1.40800,
,,,2.180000000000,   1.36800,
,,,2.190000000000,   1.36800,
,,,2.200000000000,   1.36800,
,,,2.210000000000,   1.37600,
,,,2.220000000000,   1.33600,
,,,2.230000000000,   1.36800,
,,,2.240000000000,   1.36000,
,,,2.250000000000,   1.35200,
,,,2.260000000000,   1.34400,
,,,2.270000000000,   1.35200,
,,,2.280000000000,   1.34400,
,,,2.290000000000,   1.32000,
,,,2.300000000000,   1.34400,
,,,2.310000000000,   1.32000,
,,,2.320000000000,   1.31200,
,,,2.330000000000,   1.33600,
,,,2.340000000000,   1.32800,
,,,2.350000000000,   1.29600,
,,,2.360000000000,   1.31200,
,,,2.370000000000,   1.32000,
,,,2.380000000000,   1.29600,
,,,2.390000000000,   1.28000,
,,,2.400000000000,   1.29600,
,,,2.410000000000,   1.29600,
,,,2.420000000000,   1.28800,
,,,2.430000000000,   1.27200,
,,,2.440000000000,   1.28000,
,,,2.450000000000,   1.27200,
,,,2.460000000000,   1.25600,
,,,2.470000000000,   1.24800,
,,,2.480000000000,   1.24800,
,,,2.490000000000,   1.24000,
,,,2.500000000000,   1.23200,
,,,2.510000000000,   1.21600,
,,,2.520000000000,   1.22400,
,,,2.530000000000,   1.23200,
,,,2.540000000000,   1.21600,
,,,2.550000000000,   1.21600,
,,,2.560000000000,   1.22400,
,,,2.570000000000,   1.23200,
,,,2.580000000000,   1.18400,
,,,2.590000000000,   1.20000,
,,,2.600000000000,   1.20800,
,,,2.610000000000,   1.20800,
,,,2.620000000000,   1.19200,
,,,2.630000000000,   1.18400,
,,,2.640000000000,   1.19200,
,,,2.650000000000,   1.18400,
,,,2.660000000000,   1.19200,
,,,2.670000000000,   1.18400,
,,,2.680000000000,   1.16000,
,,,2.690000000000,   1.17600,
,,,2.700000000000,   1.18400,
,,,2.710000000000,   1.17600,
,,,2.720000000000,   1.15200,
,,,2.730000000000,   1.17600,
,,,2.740000000000,   1.17600,
,,,2.750000000000,   1.14400,
,,,2.760000000000,   1.15200,
,,,2.770000000000,   1.17600,
,,,2.780000000000,   1.16000,
,,,2.790000000000,   1.14400,
,,,2.800000000000,   1.14400,
,,,2.810000000000,   1.16000,
,,,2.820000000000,   1.13600,
,,,2.830000000000,   1.15200,
,,,2.840000000000,   1.14400,
,,,2.850000000000,   1.12000,
,,,2.860000000000,   1.15200,
,,,2.870000000000,   1.14400,
,,,2.880000000000,   1.13600,
,,,2.890000000000,   1.12800,
,,,2.900000000000,   1.15200,
,,,2.910000000000,   1.12800,
,,,2.920000000000,   1.14400,
,,,2.930000000000,   1.12800,
,,,2.940000000000,   1.12800,
,,,2.950000000000,   1.12800,
,,,2.960000000000,   1.11200,
,,,2.970000000000,   1.12000,
,,,2.980000000000,   1.12000,
,,,2.990000000000,   1.12000,
,,,3.000000000000,   1.12800,
,,,3.010000000000,   1.12000,
,,,3.020000000000,   1.12800,
,,,3.030000000000,   1.12800,
,,,3.040000000000,   1.12000,
,,,3.050000000000,   1.13600,
,,,3.060000000000,   1.13600,
,,,3.070000000000,   1.12000,
,,,3.080000000000,   1.10400,
,,,3.090000000000,   1.12000,
,,,3.100000000000,   1.11200,
,,,3.110000000000,   1.10400,
,,,3.120000000000,   1.10400,
,,,3.130000000000,   1.09600,
,,,3.140000000000,   1.09600,
,,,3.150000000000,   1.09600,
,,,3.160000000000,   1.09600,
,,,3.170000000000,   1.08000,
,,,3.180000000000,   1.07200,
,,,3.190000000000,   1.08000,
,,,3.200000000000,   1.07200,
,,,3.210000000000,   1.04800,
,,,3.220000000000,   1.06400,
,,,3.230000000000,   1.05600,
,,,3.240000000000,   1.05600,
,,,3.250000000000,   1.04000,
,,,3.260000000000,   1.03200,
,,,3.270000000000,   1.06400,
,,,3.280000000000,   1.03200,
,,,3.290000000000,   1.04000,
,,,3.300000000000,   1.04800,
,,,3.310000000000,   1.04000,
,,,3.320000000000,   1.04000,
,,,3.330000000000,   1.04800,
,,,3.340000000000,   1.02400,
,,,3.350000000000,   1.03200,
,,,3.360000000000,   1.06400,
,,,3.370000000000,   1.04000,
,,,3.380000000000,   1.04000,
,,,3.390000000000,   1.04000,
,,,3.400000000000,   1.08000,
,,,3.410000000000,   1.04800,
,,,3.420000000000,   1.06400,
,,,3.430000000000,   1.05600,
,,,3.440000000000,   1.09600,
,,,3.450000000000,   1.07200,
,,,3.460000000000,   1.10400,
,,,3.470000000000,   1.08800,
,,,3.480000000000,   1.08800,
,,,3.490000000000,   1.09600,
,,,3.500000000000,   1.10400,
,,,3.510000000000,   1.08000,
,,,3.520000000000,   1.10400,
,,,3.530000000000,   1.12000,
,,,3.540000000000,   1.09600,
,,,3.550000000000,   1.12800,
,,,3.560000000000,   1.13600,
,,,3.570000000000,   1.12800,
,,,3.580000000000,   1.12800,
,,,3.590000000000,   1.13600,
,,,3.600000000000,   1.12000,
,,,3.610000000000,   1.15200,
,,,3.620000000000,   1.13600,
,,,3.630000000000,   1.16000,
,,,3.640000000000,   1.12000,
,,,3.650000000000,   1.14400,
,,,3.660000000000,   1.16000,
,,,3.670000000000,   1.12800,
,,,3.680000000000,   1.12000,
,,,3.690000000000,   1.13600,
,,,3.700000000000,   1.12000,
,,,3.710000000000,   1.10400,
,,,3.720000000000,   1.12000,
,,,3.730000000000,   1.10400,
,,,3.740000000000,   1.09600,
,,,3.750000000000,   1.08000,
,,,3.760000000000,   1.10400,
,,,3.770000000000,   1.09600,
,,,3.780000000000,   1.08800,
,,,3.790000000000,   1.07200,
,,,3.800000000000,   1.09600,
,,,3.810000000000,   1.06400,
,,,3.820000000000,   1.06400,
,,,3.830000000000,   1.07200,
,,,3.840000000000,   1.06400,
,,,3.850000000000,   1.07200,
,,,3.860000000000,   1.05600,
,,,3.870000000000,   1.06400,
,,,3.880000000000,   1.05600,
,,,3.890000000000,   1.05600,
,,,3.900000000000,   1.04000,
,,,3.910000000000,   1.02400,
,,,3.920000000000,   1.04800,
,,,3.930000000000,   1.01600,
,,,3.940000000000,   1.02400,
,,,3.950000000000,   1.01600,
,,,3.960000000000,   1.03200,
,,,3.970000000000,   0.99200,
,,,3.980000000000,   1.03200,
,,,3.990000000000,   1.01600,
,,,4.000000000000,   1.00000,
,,,4.010000000000,   1.01600,
,,,4.020000000000,   1.00800,
,,,4.030000000000,   1.01600,
,,,4.040000000000,   1.00800,
,,,4.050000000000,   1.03200,
,,,4.060000000000,   1.01600,
,,,4.070000000000,   1.02400,
,,,4.080000000000,   1.03200,
,,,4.090000000000,   1.04800,
,,,4.100000000000,   1.03200,
,,,4.110000000000,   1.04800,
,,,4.120000000000,   1.04800,
,,,4.130000000000,   1.04800,
,,,4.140000000000,   1.04800,
,,,4.150000000000,   1.05600,
,,,4.160000000000,   1.04800,
,,,4.170000000000,   1.06400,
,,,4.180000000000,   1.06400,
,,,4.190000000000,   1.06400,
,,,4.200000000000,   1.04800,
,,,4.210000000000,   1.06400,
,,,4.220000000000,   1.08000,
,,,4.230000000000,   1.07200,
,,,4.240000000000,   1.05600,
,,,4.250000000000,   1.06400,
,,,4.260000000000,   1.07200,
,,,4.270000000000,   1.04000,
,,,4.280000000000,   1.06400,
,,,4.290000000000,   1.04800,
,,,4.300000000000,   1.04800,
,,,4.310000000000,   1.05600,
,,,4.320000000000,   1.05600,
,,,4.330000000000,   1.03200,
,,,4.340000000000,   1.06400,
,,,4.350000000000,   1.02400,
,,,4.360000000000,   1.03200,
,,,4.370000000000,   1.03200,
,,,4.380000000000,   1.03200,
,,,4.390000000000,   1.02400,
,,,4.400000000000,   1.02400,
,,,4.410000000000,   1.00800,
,,,4.420000000000,   1.02400,
,,,4.430000000000,   1.00800,
,,,4.440000000000,   1.00800,
,,,4.450000000000,   1.03200,
,,,4.460000000000,   0.99200,
,,,4.470000000000,   1.00800,
,,,4.480000000000,   1.00000,
,,,4.490000000000,   0.97600,
,,,4.500000000000,   0.96800,
,,,4.510000000000,   0.99200,
,,,4.520000000000,   0.96000,
,,,4.530000000000,   0.96000,
,,,4.540000000000,   0.97600,
,,,4.550000000000,   0.99200,
,,,4.560000000000,   0.93600,
,,,4.570000000000,   0.96000,
,,,4.580000000000,   0.97600,
,,,4.590000000000,   0.94400,
,,,4.600000000000,   0.93600,
,,,4.610000000000,   0.94400,
,,,4.620000000000,   0.95200,
,,,4.630000000000,   0.91200,
,,,4.640000000000,   0.93600,
,,,4.650000000000,   0.92800,
,,,4.660000000000,   0.90400,
,,,4.670000000000,   0.93600,
,,,4.680000000000,   0.94400,
,,,4.690000000000,   0.91200,
,,,4.700000000000,   0.91200,
,,,4.710000000000,   0.95200,
,,,4.720000000000,   0.91200,
,,,4.730000000000,   0.92000,
,,,4.740000000000,   0.92800,
,,,4.750000000000,   0.95200,
,,,4.760000000000,   0.92800,
,,,4.770000000000,   0.92000,
,,,4.780000000000,   0.95200,
,,,4.790000000000,   0.92800,
,,,4.800000000000,   0.95200,
,,,4.810000000000,   0.95200,
,,,4.820000000000,   0.96000,
,,,4.830000000000,   0.94400,
,,,4.840000000000,   1.00000,
,,,4.850000000000,   0.96000,
,,,4.860000000000,   0.96800,
,,,4.870000000000,   0.96000,
,,,4.880000000000,   1.00800,
,,,4.890000000000,   0.97600,
,,,4.900000000000,   1.01600,
,,,4.910000000000,   1.00000,
,,,4.920000000000,   1.01600,
,,,4.930000000000,   1.02400,
,,,4.940000000000,   1.03200,
,,,4.950000000000,   1.04800,
,,,4.960000000000,   1.04800,
,,,4.970000000000,   1.06400,
,,,4.980000000000,   1.05600,
,,,4.990000000000,   1.07200,
,,,5.000000000000,   1.08800,
,,,5.010000000000,   1.09600,
,,,5.020000000000,   1.06400,
,,,5.030000000000,   1.08800,
,,,5.040000000000,   1.08000,
,,,5.050000000000,   1.10400,
,,,5.060000000000,   1.08000,
,,,5.070000000000,   1.12000,
,,,5.080000000000,   1.11200,
,,,5.090000000000,   1.10400,
,,,5.100000000000,   1.10400,
,,,5.110000000000,   1.12000,
,,,5.120000000000,   1.14400,
,,,5.130000000000,   1.13600,
,,,5.140000000000,   1.12000,
,,,5.150000000000,   1.14400,
,,,5.160000000000,   1.14400,
,,,5.170000000000,   1.16000,
,,,5.180000000000,   1.14400,
,,,5.190000000000,   1.15200,
,,,5.200000000000,   1.16000,
,,,5.210000000000,   1.18400,
,,,5.220000000000,   1.16000,
,,,5.230000000000,   1.16800,
,,,5.240000000000,   1.17600,
,,,5.250000000000,   1.20800,
,,,5.260000000000,   1.19200,
,,,5.270000000000,   1.19200,
,,,5.280000000000,   1.20800,
,,,5.290000000000,   1.20800,
,,,5.300000000000,   1.23200,
,,,5.310000000000,   1.21600,
,,,5.320000000000,   1.23200,
,,,5.330000000000,   1.22400,
,,,5.340000000000,   1.24000,
,,,5.350000000000,   1.23200,
,,,5.360000000000,   1.24800,
,,,5.370000000000,   1.28000,
,,,5.380000000000,   1.26400,
,,,5.390000000000,   1.24800,
,,,5.400000000000,   1.27200,
,,,5.410000000000,   1.28000,
,,,5.420000000000,   1.27200,
,,,5.430000000000,   1.28000,
,,,5.440000000000,   1.28800,
,,,5.450000000000,   1.28000,
,,,5.460000000000,   1.29600,
,,,5.470000000000,   1.30400,
,,,5.480000000000,   1.30400,
,,,5.490000000000,   1.29600,
,,,5.500000000000,   1.32800,
,,,5.510000000000,   1.32000,
,,,5.520000000000,   1.30400,
,,,5.530000000000,   1.31200,
,,,5.540000000000,   1.33600,
,,,5.550000000000,   1.32000,
,,,5.560000000000,   1.31200,
,,,5.570000000000,   1.33600,
,,,5.580000000000,   1.32800,
,,,5.590000000000,   1.33600,
,,,5.600000000000,   1.32800,
,,,5.610000000000,   1.30400,
,,,5.620000000000,   1.33600,
,,,5.630000000000,   1.32800,
,,,5.640000000000,   1.32800,
,,,5.650000000000,   1.32000,
,,,5.660000000000,   1.32000,
,,,5.670000000000,   1.30400,
,,,5.680000000000,   1.32000,
,,,5.690000000000,   1.30400,
,,,5.700000000000,   1.33600,
,,,5.710000000000,   1.30400,
,,,5.720000000000,   1.29600,
,,,5.730000000000,   1.30400,
,,,5.740000000000,   1.32800,
,,,5.750000000000,   1.30400,
,,,5.760000000000,   1.30400,
,,,5.770000000000,   1.32000,
,,,5.780000000000,   1.30400,
,,,5.790000000000,   1.33600,
,,,5.800000000000,   1.32800,
,,,5.810000000000,   1.32800,
,,,5.820000000000,   1.32800,
,,,5.830000000000,   1.36000,
,,,5.840000000000,   1.32800,
,,,5.850000000000,   1.34400,
,,,5.860000000000,   1.35200,
,,,5.870000000000,   1.36000,
,,,5.880000000000,   1.35200,
,,,5.890000000000,   1.36800,
,,,5.900000000000,   1.37600,
,,,5.910000000000,   1.36800,
,,,5.920000000000,   1.38400,
,,,5.930000000000,   1.36800,
,,,5.940000000000,   1.38400,
,,,5.950000000000,   1.40000,
,,,5.960000000000,   1.40800,
,,,5.970000000000,   1.37600,
,,,5.980000000000,   1.40800,
,,,5.990000000000,   1.40800,
,,,6.000000000000,   1.41600,
,,,6.010000000000,   1.40800,
,,,6.020000000000,   1.42400,
,,,6.030000000000,   1.44000,
,,,6.040000000000,   1.40800,
,,,6.050000000000,   1.43200,
,,,6.060000000000,   1.43200,
,,,6.070000000000,   1.45600,
,,,6.080000000000,   1.42400,
,,,6.090000000000,   1.44000,
,,,6.100000000000,   1.44000,
,,,6.110000000000,   1.44800,
,,,6.120000000000,   1.44800,
,,,6.130000000000,   1.45600,
,,,6.140000000000,   1.44800,
,,,6.150000000000,   1.47200,
,,,6.160000000000,   1.46400,
,,,6.170000000000,   1.45600,
,,,6.180000000000,   1.44800,
,,,6.190000000000,   1.46400,
,,,6.200000000000,   1.46400,
,,,6.210000000000,   1.45600,
,,,6.220000000000,   1.46400,
,,,6.230000000000,   1.47200,
,,,6.240000000000,   1.45600,
,,,6.250000000000,   1.45600,
,,,6.260000000000,   1.47200,
,,,6.270000000000,   1.45600,
,,,6.280000000000,   1.44800,
,,,6.290000000000,   1.44000,
,,,6.300000000000,   1.43200,
,,,6.310000000000,   1.43200,
,,,6.320000000000,   1.46400,
,,,6.330000000000,   1.44800,
,,,6.340000000000,   1.41600,
,,,6.350000000000,   1.44000,
,,,6.360000000000,   1.44000,
,,,6.370000000000,   1.43200,
,,,6.380000000000,   1.42400,
,,,6.390000000000,   1.43200,
,,,6.400000000000,   1.43200,
,,,6.410000000000,   1.40800,
,,,6.420000000000,   1.42400,
,,,6.430000000000,   1.42400,
,,,6.440000000000,   1.41600,
,,,6.450000000000,   1.40800,
,,,6.460000000000,   1.40800,
,,,6.470000000000,   1.40800,
,,,6.480000000000,   1.41600,
,,,6.490000000000,   1.43200,
,,,6.500000000000,   1.39200,
,,,6.510000000000,   1.38400,
,,,6.520000000000,   1.40000,
,,,6.530000000000,   1.39200,
