ipy_notebooks/20161108_noon/ALL0072/F0072CH1.CSV

Record Length,2.500000e+03,,   0.000000000000,   0.14320,
Sample Interval,1.000000e-02,,   0.010000000000,   0.14560,
Trigger Point,-0.000000000000e+00,,   0.020000000000,   0.14000,
,,,   0.030000000000,   0.14960,
,,,   0.040000000000,   0.14640,
,,,   0.050000000000,   0.15280,
Source,CH1,,   0.060000000000,   0.15440,
Vertical Units,V,,   0.070000000000,   0.15280,
Vertical Scale,2.000000e-02,,   0.080000000000,   0.14880,
Vertical Offset,-2.040000e-01,,   0.090000000000,   0.14560,
Horizontal Units,s,,   0.100000000000,   0.14640,
Horizontal Scale,2.500000e+00,,   0.110000000000,   0.15840,
Pt Fmt,Y,,   0.120000000000,   0.16000,
Yzero,0.000000e+00,,   0.130000000000,   0.14800,
Probe Atten,1.000000e+00,,   0.140000000000,   0.14240,
Model Number,TBS1072B-EDU,,   0.150000000000,   0.14960,
Serial Number,C010859,,   0.160000000000,   0.16000,
Firmware Version,FV:v4.06,,   0.170000000000,   0.14240,
,,,0.180000000000,   0.14960,
,,,0.190000000000,   0.13920,
,,,0.200000000000,   0.15520,
,,,0.210000000000,   0.13920,
,,,0.220000000000,   0.14160,
,,,0.230000000000,   0.15840,
,,,0.240000000000,   0.14880,
,,,0.250000000000,   0.14880,
,,,0.260000000000,   0.14000,
,,,0.270000000000,   0.15200,
,,,0.280000000000,   0.14880,
,,,0.290000000000,   0.14320,
,,,0.300000000000,   0.14000,
,,,0.310000000000,   0.15680,
,,,0.320000000000,   0.14800,
,,,0.330000000000,   0.14560,
,,,0.340000000000,   0.14240,
,,,0.350000000000,   0.15200,
,,,0.360000000000,   0.15600,
,,,0.370000000000,   0.14240,
,,,0.380000000000,   0.14640,
,,,0.390000000000,   0.14800,
,,,0.400000000000,   0.15360,
,,,0.410000000000,   0.15520,
,,,0.420000000000,   0.14400,
,,,0.430000000000,   0.15440,
,,,0.440000000000,   0.15120,
,,,0.450000000000,   0.14400,
,,,0.460000000000,   0.14400,
,,,0.470000000000,   0.13920,
,,,0.480000000000,   0.15360,
,,,0.490000000000,   0.15040,
,,,0.500000000000,   0.15360,
,,,0.510000000000,   0.15040,
,,,0.520000000000,   0.15600,
,,,0.530000000000,   0.14960,
,,,0.540000000000,   0.15680,
,,,0.550000000000,   0.15200,
,,,0.560000000000,   0.15920,
,,,0.570000000000,   0.15360,
,,,0.580000000000,   0.14960,
,,,0.590000000000,   0.14560,
,,,0.600000000000,   0.15360,
,,,0.610000000000,   0.15200,
,,,0.620000000000,   0.15520,
,,,0.630000000000,   0.15360,
,,,0.640000000000,   0.15520,
,,,0.650000000000,   0.16000,
,,,0.660000000000,   0.15840,
,,,0.670000000000,   0.14560,
,,,0.680000000000,   0.15760,
,,,0.690000000000,   0.14960,
,,,0.700000000000,   0.15520,
,,,0.710000000000,   0.14960,
,,,0.720000000000,   0.15440,
,,,0.730000000000,   0.14400,
,,,0.740000000000,   0.15920,
,,,0.750000000000,   0.15440,
,,,0.760000000000,   0.14000,
,,,0.770000000000,   0.14160,
,,,0.780000000000,   0.14960,
,,,0.790000000000,   0.14880,
,,,0.800000000000,   0.15360,
,,,0.810000000000,   0.15520,
,,,0.820000000000,   0.14560,
,,,0.830000000000,   0.14080,
,,,0.840000000000,   0.15280,
,,,0.850000000000,   0.14720,
,,,0.860000000000,   0.14480,
,,,0.870000000000,   0.15600,
,,,0.880000000000,   0.14240,
,,,0.890000000000,   0.14640,
,,,0.900000000000,   0.14800,
,,,0.910000000000,   0.14960,
,,,0.920000000000,   0.14480,
,,,0.930000000000,   0.15440,
,,,0.940000000000,   0.15920,
,,,0.950000000000,   0.15600,
,,,0.960000000000,   0.14320,
,,,0.970000000000,   0.15920,
,,,0.980000000000,   0.13840,
,,,0.990000000000,   0.14560,
,,,1.000000000000,   0.15520,
,,,1.010000000000,   0.15760,
,,,1.020000000000,   0.14080,
,,,1.030000000000,   0.14080,
,,,1.040000000000,   0.14880,
,,,1.050000000000,   0.15600,
,,,1.060000000000,   0.14320,
,,,1.070000000000,   0.14560,
,,,1.080000000000,   0.14320,
,,,1.090000000000,   0.15360,
,,,1.100000000000,   0.14080,
,,,1.110000000000,   0.15280,
,,,1.120000000000,   0.14560,
,,,1.130000000000,   0.15680,
,,,1.140000000000,   0.15760,
,,,1.150000000000,   0.15280,
,,,1.160000000000,   0.15760,
,,,1.170000000000,   0.15440,
,,,1.180000000000,   0.15440,
,,,1.190000000000,   0.15440,
,,,1.200000000000,   0.14320,
,,,1.210000000000,   0.15200,
,,,1.220000000000,   0.15280,
,,,1.230000000000,   0.14640,
,,,1.240000000000,   0.14000,
,,,1.250000000000,   0.15600,
,,,1.260000000000,   0.15440,
,,,1.270000000000,   0.14320,
,,,1.280000000000,   0.14480,
,,,1.290000000000,   0.14960,
,,,1.300000000000,   0.15440,
,,,1.310000000000,   0.14480,
,,,1.320000000000,   0.14080,
,,,1.330000000000,   0.14160,
,,,1.340000000000,   0.14480,
,,,1.350000000000,   0.14160,
,,,1.360000000000,   0.15200,
,,,1.370000000000,   0.15040,
,,,1.380000000000,   0.15680,
,,,1.390000000000,   0.14800,
,,,1.400000000000,   0.14400,
,,,1.410000000000,   0.14800,
,,,1.420000000000,   0.14880,
,,,1.430000000000,   0.14400,
,,,1.440000000000,   0.15200,
,,,1.450000000000,   0.15680,
,,,1.460000000000,   0.15440,
,,,1.470000000000,   0.14000,
,,,1.480000000000,   0.15440,
,,,1.490000000000,   0.14160,
,,,1.500000000000,   0.16000,
,,,1.510000000000,   0.14400,
,,,1.520000000000,   0.15760,
,,,1.530000000000,   0.15600,
,,,1.540000000000,   0.14960,
,,,1.550000000000,   0.15200,
,,,1.560000000000,   0.15440,
,,,1.570000000000,   0.15200,
,,,1.580000000000,   0.15040,
,,,1.590000000000,   0.15120,
,,,1.600000000000,   0.14960,
,,,1.610000000000,   0.14960,
,,,1.620000000000,   0.15680,
,,,1.630000000000,   0.14400,
,,,1.640000000000,   0.14400,
,,,1.650000000000,   0.14400,
,,,1.660000000000,   0.14160,
,,,1.670000000000,   0.14240,
,,,1.680000000000,   0.14320,
,,,1.690000000000,   0.14240,
,,,1.700000000000,   0.14480,
,,,1.710000000000,   0.13840,
,,,1.720000000000,   0.14880,
,,,1.730000000000,   0.15120,
,,,1.740000000000,   0.15120,
,,,1.750000000000,   0.14800,
,,,1.760000000000,   0.14160,
,,,1.770000000000,   0.14480,
,,,1.780000000000,   0.15600,
,,,1.790000000000,   0.15440,
,,,1.800000000000,   0.14640,
,,,1.810000000000,   0.14160,
,,,1.820000000000,   0.14080,
,,,1.830000000000,   0.14400,
,,,1.840000000000,   0.14560,
,,,1.850000000000,   0.14160,
,,,1.860000000000,   0.14720,
,,,1.870000000000,   0.14160,
,,,1.880000000000,   0.14560,
,,,1.890000000000,   0.14240,
,,,1.900000000000,   0.15680,
,,,1.910000000000,   0.15120,
,,,1.920000000000,   0.15200,
,,,1.930000000000,   0.14720,
,,,1.940000000000,   0.14160,
,,,1.950000000000,   0.14000,
,,,1.960000000000,   0.15120,
,,,1.970000000000,   0.15040,
,,,1.980000000000,   0.15200,
,,,1.990000000000,   0.14320,
,,,2.000000000000,   0.15440,
,,,2.010000000000,   0.14960,
,,,2.020000000000,   0.14640,
,,,2.030000000000,   0.14400,
,,,2.040000000000,   0.15760,
,,,2.050000000000,   0.14560,
,,,2.060000000000,   0.14720,
,,,2.070000000000,   0.14800,
,,,2.080000000000,   0.14000,
,,,2.090000000000,   0.14960,
,,,2.100000000000,   0.15440,
,,,2.110000000000,   0.15600,
,,,2.120000000000,   0.14160,
,,,2.130000000000,   0.14240,
,,,2.140000000000,   0.14560,
,,,2.150000000000,   0.14000,
,,,2.160000000000,   0.15920,
,,,2.170000000000,   0.14640,
,,,2.180000000000,   0.16000,
,,,2.190000000000,   0.15520,
,,,2.200000000000,   0.14720,
,,,2.210000000000,   0.14320,
,,,2.220000000000,   0.15760,
,,,2.230000000000,   0.14400,
,,,2.240000000000,   0.14400,
,,,2.250000000000,   0.15280,
,,,2.260000000000,   0.14960,
,,,2.270000000000,   0.15360,
,,,2.280000000000,   0.14160,
,,,2.290000000000,   0.14160,
,,,2.300000000000,   0.15520,
,,,2.310000000000,   0.14000,
,,,2.320000000000,   0.14960,
,,,2.330000000000,   0.15200,
,,,2.340000000000,   0.15600,
,,,2.350000000000,   0.15120,
,,,2.360000000000,   0.15760,
,,,2.370000000000,   0.14720,
,,,2.380000000000,   0.15600,
,,,2.390000000000,   0.15760,
,,,2.400000000000,   0.15760,
,,,2.410000000000,   0.14240,
,,,2.420000000000,   0.14240,
,,,2.430000000000,   0.14560,
,,,2.440000000000,   0.14400,
,,,2.450000000000,   0.15280,
,,,2.460000000000,   0.15680,
,,,2.470000000000,   0.14880,
,,,2.480000000000,   0.14320,
,,,2.490000000000,   0.13920,
,,,2.500000000000,   0.14400,
,,,2.510000000000,   0.15600,
,,,2.520000000000,   0.14400,
,,,2.530000000000,   0.15840,
,,,2.540000000000,   0.14640,
,,,2.550000000000,   0.15200,
,,,2.560000000000,   0.15600,
,,,2.570000000000,   0.15760,
,,,2.580000000000,   0.15280,
,,,2.590000000000,   0.15360,
,,,2.600000000000,   0.15600,
,,,2.610000000000,   0.15920,
,,,2.620000000000,   0.14720,
,,,2.630000000000,   0.15760,
,,,2.640000000000,   0.14400,
,,,2.650000000000,   0.14080,
,,,2.660000000000,   0.15680,
,,,2.670000000000,   0.15280,
,,,2.680000000000,   0.15520,
,,,2.690000000000,   0.14400,
,,,2.700000000000,   0.14720,
,,,2.710000000000,   0.14480,
,,,2.720000000000,   0.14000,
,,,2.730000000000,   0.15840,
,,,2.740000000000,   0.14480,
,,,2.750000000000,   0.15840,
,,,2.760000000000,   0.15920,
,,,2.770000000000,   0.14800,
,,,2.780000000000,   0.14960,
,,,2.790000000000,   0.15280,
,,,2.800000000000,   0.15360,
,,,2.810000000000,   0.14160,
,,,2.820000000000,   0.14000,
,,,2.830000000000,   0.15360,
,,,2.840000000000,   0.15120,
,,,2.850000000000,   0.15760,
,,,2.860000000000,   0.15520,
,,,2.870000000000,   0.15600,
,,,2.880000000000,   0.14480,
,,,2.890000000000,   0.14000,
,,,2.900000000000,   0.16160,
,,,2.910000000000,   0.14240,
,,,2.920000000000,   0.15120,
,,,2.930000000000,   0.15040,
,,,2.940000000000,   0.15440,
,,,2.950000000000,   0.14480,
,,,2.960000000000,   0.15520,
,,,2.970000000000,   0.15200,
,,,2.980000000000,   0.15120,
,,,2.990000000000,   0.15840,
,,,3.000000000000,   0.16240,
,,,3.010000000000,   0.14400,
,,,3.020000000000,   0.13840,
,,,3.030000000000,   0.15360,
,,,3.040000000000,   0.14400,
,,,3.050000000000,   0.15520,
,,,3.060000000000,   0.15680,
,,,3.070000000000,   0.14880,
,,,3.080000000000,   0.15280,
,,,3.090000000000,   0.14480,
,,,3.100000000000,   0.15600,
,,,3.110000000000,   0.14320,
,,,3.120000000000,   0.14880,
,,,3.130000000000,   0.14160,
,,,3.140000000000,   0.15600,
,,,3.150000000000,   0.14000,
,,,3.160000000000,   0.14080,
,,,3.170000000000,   0.14960,
,,,3.180000000000,   0.15360,
,,,3.190000000000,   0.14720,
,,,3.200000000000,   0.14640,
,,,3.210000000000,   0.15840,
,,,3.220000000000,   0.15040,
,,,3.230000000000,   0.15760,
,,,3.240000000000,   0.14960,
,,,3.250000000000,   0.14400,
,,,3.260000000000,   0.14240,
,,,3.270000000000,   0.13680,
,,,3.280000000000,   0.15680,
,,,3.290000000000,   0.14160,
,,,3.300000000000,   0.14400,
,,,3.310000000000,   0.15760,
,,,3.320000000000,   0.14320,
,,,3.330000000000,   0.14720,
,,,3.340000000000,   0.15040,
,,,3.350000000000,   0.14880,
,,,3.360000000000,   0.15840,
,,,3.370000000000,   0.14960,
,,,3.380000000000,   0.15360,
,,,3.390000000000,   0.14640,
,,,3.400000000000,   0.15040,
,,,3.410000000000,   0.14320,
,,,3.420000000000,   0.15680,
,,,3.430000000000,   0.15360,
,,,3.440000000000,   0.15840,
,,,3.450000000000,   0.14320,
,,,3.460000000000,   0.14400,
,,,3.470000000000,   0.14960,
,,,3.480000000000,   0.13920,
,,,3.490000000000,   0.15360,
,,,3.500000000000,   0.14480,
,,,3.510000000000,   0.13840,
,,,3.520000000000,   0.15600,
,,,3.530000000000,   0.14320,
,,,3.540000000000,   0.15120,
,,,3.550000000000,   0.14960,
,,,3.560000000000,   0.15520,
,,,3.570000000000,   0.14240,
,,,3.580000000000,   0.14400,
,,,3.590000000000,   0.14640,
,,,3.600000000000,   0.15520,
,,,3.610000000000,   0.15040,
,,,3.620000000000,   0.15360,
,,,3.630000000000,   0.15280,
,,,3.640000000000,   0.15600,
,,,3.650000000000,   0.14400,
,,,3.660000000000,   0.14800,
,,,3.670000000000,   0.14640,
,,,3.680000000000,   0.16160,
,,,3.690000000000,   0.15760,
,,,3.700000000000,   0.14320,
,,,3.710000000000,   0.14240,
,,,3.720000000000,   0.14400,
,,,3.730000000000,   0.14960,
,,,3.740000000000,   0.14400,
,,,3.750000000000,   0.15680,
,,,3.760000000000,   0.15040,
,,,3.770000000000,   0.15600,
,,,3.780000000000,   0.14880,
,,,3.790000000000,   0.14080,
,,,3.800000000000,   0.14880,
,,,3.810000000000,   0.15040,
,,,3.820000000000,   0.15440,
,,,3.830000000000,   0.15120,
,,,3.840000000000,   0.15120,
,,,3.850000000000,   0.15440,
,,,3.860000000000,   0.15120,
,,,3.870000000000,   0.14400,
,,,3.880000000000,   0.14640,
,,,3.890000000000,   0.14160,
,,,3.900000000000,   0.14400,
,,,3.910000000000,   0.14880,
,,,3.920000000000,   0.14480,
,,,3.930000000000,   0.14160,
,,,3.940000000000,   0.14480,
,,,3.950000000000,   0.15520,
,,,3.960000000000,   0.15520,
,,,3.970000000000,   0.13920,
,,,3.980000000000,   0.14400,
,,,3.990000000000,   0.15920,
,,,4.000000000000,   0.14800,
,,,4.010000000000,   0.15520,
,,,4.020000000000,   0.14880,
,,,4.030000000000,   0.15120,
,,,4.040000000000,   0.14080,
,,,4.050000000000,   0.15200,
,,,4.060000000000,   0.14400,
,,,4.070000000000,   0.14480,
,,,4.080000000000,   0.13920,
,,,4.090000000000,   0.15040,
,,,4.100000000000,   0.15520,
,,,4.110000000000,   0.15440,
,,,4.120000000000,   0.14240,
,,,4.130000000000,   0.15760,
,,,4.140000000000,   0.15600,
,,,4.150000000000,   0.15680,
,,,4.160000000000,   0.15600,
,,,4.170000000000,   0.15520,
,,,4.180000000000,   0.14400,
,,,4.190000000000,   0.15040,
,,,4.200000000000,   0.14240,
,,,4.210000000000,   0.15920,
,,,4.220000000000,   0.14880,
,,,4.230000000000,   0.15280,
,,,4.240000000000,   0.14960,
,,,4.250000000000,   0.14480,
,,,4.260000000000,   0.14320,
,,,4.270000000000,   0.15040,
,,,4.280000000000,   0.14720,
,,,4.290000000000,   0.15280,
,,,4.300000000000,   0.15360,
,,,4.310000000000,   0.15280,
,,,4.320000000000,   0.14640,
,,,4.330000000000,   0.14160,
,,,4.340000000000,   0.14400,
,,,4.350000000000,   0.14240,
,,,4.360000000000,   0.15200,
,,,4.370000000000,   0.15280,
,,,4.380000000000,   0.14160,
,,,4.390000000000,   0.15520,
,,,4.400000000000,   0.14640,
,,,4.410000000000,   0.15760,
,,,4.420000000000,   0.16000,
,,,4.430000000000,   0.15360,
,,,4.440000000000,   0.14480,
,,,4.450000000000,   0.15920,
,,,4.460000000000,   0.15360,
,,,4.470000000000,   0.14320,
,,,4.480000000000,   0.14880,
,,,4.490000000000,   0.15200,
,,,4.500000000000,   0.15680,
,,,4.510000000000,   0.14160,
,,,4.520000000000,   0.15760,
,,,4.530000000000,   0.14960,
,,,4.540000000000,   0.15760,
,,,4.550000000000,   0.15440,
,,,4.560000000000,   0.14640,
,,,4.570000000000,   0.14400,
,,,4.580000000000,   0.14240,
,,,4.590000000000,   0.15120,
,,,4.600000000000,   0.14320,
,,,4.610000000000,   0.16080,
,,,4.620000000000,   0.16320,
,,,4.630000000000,   0.16160,
,,,4.640000000000,   0.16400,
,,,4.650000000000,   0.16560,
,,,4.660000000000,   0.14960,
,,,4.670000000000,   0.15280,
,,,4.680000000000,   0.16000,
,,,4.690000000000,   0.16400,
,,,4.700000000000,   0.15840,
,,,4.710000000000,   0.17360,
,,,4.720000000000,   0.16320,
,,,4.730000000000,   0.17440,
,,,4.740000000000,   0.17760,
,,,4.750000000000,   0.16400,
,,,4.760000000000,   0.17120,
,,,4.770000000000,   0.17760,
,,,4.780000000000,   0.16880,
,,,4.790000000000,   0.17280,
,,,4.800000000000,   0.17760,
,,,4.810000000000,   0.18080,
,,,4.820000000000,   0.19120,
,,,4.830000000000,   0.18240,
,,,4.840000000000,   0.18640,
,,,4.850000000000,   0.19680,
,,,4.860000000000,   0.18960,
,,,4.870000000000,   0.20000,
,,,4.880000000000,   0.19520,
,,,4.890000000000,   0.20640,
,,,4.900000000000,   0.20560,
,,,4.910000000000,   0.20800,
,,,4.920000000000,   0.19600,
,,,4.930000000000,   0.18800,
,,,4.940000000000,   0.19600,
,,,4.950000000000,   0.21600,
,,,4.960000000000,   0.20480,
,,,4.970000000000,   0.22640,
,,,4.980000000000,   0.22160,
,,,4.990000000000,   0.22080,
,,,5.000000000000,   0.21840,
,,,5.010000000000,   0.21520,
,,,5.020000000000,   0.19360,
,,,5.030000000000,   0.21120,
,,,5.040000000000,   0.19840,
,,,5.050000000000,   0.19920,
,,,5.060000000000,   0.22560,
,,,5.070000000000,   0.21760,
,,,5.080000000000,   0.20880,
,,,5.090000000000,   0.21120,
,,,5.100000000000,   0.20720,
,,,5.110000000000,   0.21280,
,,,5.120000000000,   0.21760,
,,,5.130000000000,   0.21760,
,,,5.140000000000,   0.21520,
,,,5.150000000000,   0.20480,
,,,5.160000000000,   0.20720,
,,,5.170000000000,   0.20400,
,,,5.180000000000,   0.20720,
,,,5.190000000000,   0.20800,
,,,5.200000000000,   0.21040,
,,,5.210000000000,   0.20480,
,,,5.220000000000,   0.21440,
,,,5.230000000000,   0.21360,
,,,5.240000000000,   0.21600,
,,,5.250000000000,   0.20160,
,,,5.260000000000,   0.20000,
,,,5.270000000000,   0.21040,
,,,5.280000000000,   0.20880,
,,,5.290000000000,   0.21360,
,,,5.300000000000,   0.19760,
,,,5.310000000000,   0.20240,
,,,5.320000000000,   0.19920,
,,,5.330000000000,   0.19200,
,,,5.340000000000,   0.20000,
,,,5.350000000000,   0.19760,
,,,5.360000000000,   0.20240,
,,,5.370000000000,   0.19120,
,,,5.380000000000,   0.19520,
,,,5.390000000000,   0.20800,
,,,5.400000000000,   0.20480,
,,,5.410000000000,   0.19200,
,,,5.420000000000,   0.17920,
,,,5.430000000000,   0.17440,
,,,5.440000000000,   0.18640,
,,,5.450000000000,   0.19120,
,,,5.460000000000,   0.18800,
,,,5.470000000000,   0.19920,
,,,5.480000000000,   0.19600,
,,,5.490000000000,   0.19680,
,,,5.500000000000,   0.18640,
,,,5.510000000000,   0.18240,
,,,5.520000000000,   0.17760,
,,,5.530000000000,   0.17760,
,,,5.540000000000,   0.17440,
,,,5.550000000000,   0.19120,
,,,5.560000000000,   0.17680,
,,,5.570000000000,   0.19120,
,,,5.580000000000,   0.18640,
,,,5.590000000000,   0.17520,
,,,5.600000000000,   0.17840,
,,,5.610000000000,   0.17280,
,,,5.620000000000,   0.18240,
,,,5.630000000000,   0.16960,
,,,5.640000000000,   0.18400,
,,,5.650000000000,   0.17760,
,,,5.660000000000,   0.18400,
,,,5.670000000000,   0.16960,
,,,5.680000000000,   0.17840,
,,,5.690000000000,   0.16960,
,,,5.700000000000,   0.17520,
,,,5.710000000000,   0.17600,
,,,5.720000000000,   0.16800,
,,,5.730000000000,   0.16640,
,,,5.740000000000,   0.16800,
,,,5.750000000000,   0.16000,
,,,5.760000000000,   0.17520,
,,,5.770000000000,   0.16320,
,,,5.780000000000,   0.17840,
,,,5.790000000000,   0.17680,
,,,5.800000000000,   0.17840,
,,,5.810000000000,   0.16880,
,,,5.820000000000,   0.16000,
,,,5.830000000000,   0.16480,
,,,5.840000000000,   0.16560,
,,,5.850000000000,   0.16320,
,,,5.860000000000,   0.16560,
,,,5.870000000000,   0.17760,
,,,5.880000000000,   0.17520,
,,,5.890000000000,   0.16400,
,,,5.900000000000,   0.17360,
,,,5.910000000000,   0.16320,
,,,5.920000000000,   0.16560,
,,,5.930000000000,   0.16720,
,,,5.940000000000,   0.16240,
,,,5.950000000000,   0.16960,
,,,5.960000000000,   0.15920,
,,,5.970000000000,   0.15600,
,,,5.980000000000,   0.15760,
,,,5.990000000000,   0.16560,
,,,6.000000000000,   0.15680,
,,,6.010000000000,   0.15680,
,,,6.020000000000,   0.17120,
,,,6.030000000000,   0.15840,
,,,6.040000000000,   0.15840,
,,,6.050000000000,   0.15760,
,,,6.060000000000,   0.16480,
,,,6.070000000000,   0.16960,
,,,6.080000000000,   0.15680,
,,,6.090000000000,   0.16560,
,,,6.100000000000,   0.16240,
,,,6.110000000000,   0.16000,
,,,6.120000000000,   0.15360,
,,,6.130000000000,   0.16800,
,,,6.140000000000,   0.15840,
,,,6.150000000000,   0.16480,
,,,6.160000000000,   0.15360,
,,,6.170000000000,   0.15360,
,,,6.180000000000,   0.15840,
,,,6.190000000000,   0.16400,
,,,6.200000000000,   0.16080,
,,,6.210000000000,   0.15760,
,,,6.220000000000,   0.16800,
,,,6.230000000000,   0.16320,
,,,6.240000000000,   0.15520,
,,,6.250000000000,   0.16480,
,,,6.260000000000,   0.15760,
,,,6.270000000000,   0.14960,
,,,6.280000000000,   0.16000,
,,,6.290000000000,   0.15760,
,,,6.300000000000,   0.15040,
,,,6.310000000000,   0.16640,
,,,6.320000000000,   0.15200,
,,,6.330000000000,   0.15200,
,,,6.340000000000,   0.15680,
,,,6.350000000000,   0.16000,
,,,6.360000000000,   0.15760,
,,,6.370000000000,   0.15360,
,,,6.380000000000,   0.15840,
,,,6.390000000000,   0.15600,
,,,6.400000000000,   0.14960,
,,,6.410000000000,   0.16400,
,,,6.420000000000,   0.16000,
,,,6.430000000000,   0.14800,
,,,6.440000000000,   0.15440,
,,,6.450000000000,   0.15600,
,,,6.460000000000,   0.15760,
,,,6.470000000000,   0.14880,
,,,6.480000000000,   0.14720,
,,,6.490000000000,   0.15280,
,,,6.500000000000,   0.16160,
,,,6.510000000000,   0.15520,
,,,6.520000000000,   0.14640,
,,,6.530000000000,   0.15680,
