ipy_notebooks/20161108/F0053CH1.CSV

Record Length,2.500000e+03,,   0.000000000000,   0.14400,
Sample Interval,1.000000e-02,,   0.010000000000,   0.15200,
Trigger Point,-0.000000000000e+00,,   0.020000000000,   0.14400,
,,,   0.030000000000,   0.14400,
,,,   0.040000000000,   0.15200,
,,,   0.050000000000,   0.15200,
Source,CH1,,   0.060000000000,   0.14400,
Vertical Units,V,,   0.070000000000,   0.15200,
Vertical Scale,2.000000e-01,,   0.080000000000,   0.14400,
Vertical Offset,-7.440000e-01,,   0.090000000000,   0.13600,
Horizontal Units,s,,   0.100000000000,   0.13600,
Horizontal Scale,2.500000e+00,,   0.110000000000,   0.14400,
Pt Fmt,Y,,   0.120000000000,   0.14400,
Yzero,0.000000e+00,,   0.130000000000,   0.13600,
Probe Atten,1.000000e+00,,   0.140000000000,   0.14400,
Model Number,TBS1072B-EDU,,   0.150000000000,   0.13600,
Serial Number,C010859,,   0.160000000000,   0.15200,
Firmware Version,FV:v4.06,,   0.170000000000,   0.15200,
,,,0.180000000000,   0.13600,
,,,0.190000000000,   0.12800,
,,,0.200000000000,   0.14400,
,,,0.210000000000,   0.13600,
,,,0.220000000000,   0.13600,
,,,0.230000000000,   0.14400,
,,,0.240000000000,   0.12800,
,,,0.250000000000,   0.13600,
,,,0.260000000000,   0.15200,
,,,0.270000000000,   0.14400,
,,,0.280000000000,   0.14400,
,,,0.290000000000,   0.14400,
,,,0.300000000000,   0.13600,
,,,0.310000000000,   0.12800,
,,,0.320000000000,   0.14400,
,,,0.330000000000,   0.14400,
,,,0.340000000000,   0.13600,
,,,0.350000000000,   0.14400,
,,,0.360000000000,   0.14400,
,,,0.370000000000,   0.14400,
,,,0.380000000000,   0.13600,
,,,0.390000000000,   0.14400,
,,,0.400000000000,   0.14400,
,,,0.410000000000,   0.14400,
,,,0.420000000000,   0.14400,
,,,0.430000000000,   0.13600,
,,,0.440000000000,   0.13600,
,,,0.450000000000,   0.13600,
,,,0.460000000000,   0.14400,
,,,0.470000000000,   0.13600,
,,,0.480000000000,   0.15200,
,,,0.490000000000,   0.14400,
,,,0.500000000000,   0.12800,
,,,0.510000000000,   0.12800,
,,,0.520000000000,   0.13600,
,,,0.530000000000,   0.15200,
,,,0.540000000000,   0.12800,
,,,0.550000000000,   0.12800,
,,,0.560000000000,   0.14400,
,,,0.570000000000,   0.14400,
,,,0.580000000000,   0.14400,
,,,0.590000000000,   0.14400,
,,,0.600000000000,   0.12800,
,,,0.610000000000,   0.14400,
,,,0.620000000000,   0.12800,
,,,0.630000000000,   0.12800,
,,,0.640000000000,   0.14400,
,,,0.650000000000,   0.13600,
,,,0.660000000000,   0.14400,
,,,0.670000000000,   0.12800,
,,,0.680000000000,   0.12800,
,,,0.690000000000,   0.13600,
,,,0.700000000000,   0.14400,
,,,0.710000000000,   0.14400,
,,,0.720000000000,   0.13600,
,,,0.730000000000,   0.12800,
,,,0.740000000000,   0.12800,
,,,0.750000000000,   0.14400,
,,,0.760000000000,   0.13600,
,,,0.770000000000,   0.14400,
,,,0.780000000000,   0.14400,
,,,0.790000000000,   0.14400,
,,,0.800000000000,   0.14400,
,,,0.810000000000,   0.14400,
,,,0.820000000000,   0.14400,
,,,0.830000000000,   0.13600,
,,,0.840000000000,   0.13600,
,,,0.850000000000,   0.14400,
,,,0.860000000000,   0.13600,
,,,0.870000000000,   0.13600,
,,,0.880000000000,   0.14400,
,,,0.890000000000,   0.15200,
,,,0.900000000000,   0.14400,
,,,0.910000000000,   0.12800,
,,,0.920000000000,   0.15200,
,,,0.930000000000,   0.12800,
,,,0.940000000000,   0.14400,
,,,0.950000000000,   0.13600,
,,,0.960000000000,   0.12800,
,,,0.970000000000,   0.12800,
,,,0.980000000000,   0.14400,
,,,0.990000000000,   0.12800,
,,,1.000000000000,   0.15200,
,,,1.010000000000,   0.13600,
,,,1.020000000000,   0.12800,
,,,1.030000000000,   0.13600,
,,,1.040000000000,   0.13600,
,,,1.050000000000,   0.13600,
,,,1.060000000000,   0.13600,
,,,1.070000000000,   0.14400,
,,,1.080000000000,   0.13600,
,,,1.090000000000,   0.12800,
,,,1.100000000000,   0.13600,
,,,1.110000000000,   0.14400,
,,,1.120000000000,   0.14400,
,,,1.130000000000,   0.14400,
,,,1.140000000000,   0.14400,
,,,1.150000000000,   0.13600,
,,,1.160000000000,   0.12800,
,,,1.170000000000,   0.12800,
,,,1.180000000000,   0.12800,
,,,1.190000000000,   0.13600,
,,,1.200000000000,   0.15200,
,,,1.210000000000,   0.14400,
,,,1.220000000000,   0.14400,
,,,1.230000000000,   0.12800,
,,,1.240000000000,   0.14400,
,,,1.250000000000,   0.14400,
,,,1.260000000000,   0.14400,
,,,1.270000000000,   0.14400,
,,,1.280000000000,   0.12800,
,,,1.290000000000,   0.12800,
,,,1.300000000000,   0.15200,
,,,1.310000000000,   0.12800,
,,,1.320000000000,   0.14400,
,,,1.330000000000,   0.13600,
,,,1.340000000000,   0.14400,
,,,1.350000000000,   0.13600,
,,,1.360000000000,   0.15200,
,,,1.370000000000,   0.14400,
,,,1.380000000000,   0.14400,
,,,1.390000000000,   0.14400,
,,,1.400000000000,   0.12800,
,,,1.410000000000,   0.13600,
,,,1.420000000000,   0.14400,
,,,1.430000000000,   0.14400,
,,,1.440000000000,   0.14400,
,,,1.450000000000,   0.12800,
,,,1.460000000000,   0.12800,
,,,1.470000000000,   0.14400,
,,,1.480000000000,   0.14400,
,,,1.490000000000,   0.14400,
,,,1.500000000000,   0.14400,
,,,1.510000000000,   0.15200,
,,,1.520000000000,   0.14400,
,,,1.530000000000,   0.13600,
,,,1.540000000000,   0.12800,
,,,1.550000000000,   0.14400,
,,,1.560000000000,   0.14400,
,,,1.570000000000,   0.13600,
,,,1.580000000000,   0.13600,
,,,1.590000000000,   0.13600,
,,,1.600000000000,   0.14400,
,,,1.610000000000,   0.12800,
,,,1.620000000000,   0.13600,
,,,1.630000000000,   0.12800,
,,,1.640000000000,   0.14400,
,,,1.650000000000,   0.14400,
,,,1.660000000000,   0.14400,
,,,1.670000000000,   0.14400,
,,,1.680000000000,   0.15200,
,,,1.690000000000,   0.14400,
,,,1.700000000000,   0.14400,
,,,1.710000000000,   0.14400,
,,,1.720000000000,   0.12800,
,,,1.730000000000,   0.16000,
,,,1.740000000000,   0.14400,
,,,1.750000000000,   0.14400,
,,,1.760000000000,   0.14400,
,,,1.770000000000,   0.14400,
,,,1.780000000000,   0.12800,
,,,1.790000000000,   0.13600,
,,,1.800000000000,   0.14400,
,,,1.810000000000,   0.14400,
,,,1.820000000000,   0.14400,
,,,1.830000000000,   0.14400,
,,,1.840000000000,   0.14400,
,,,1.850000000000,   0.15200,
,,,1.860000000000,   0.14400,
,,,1.870000000000,   0.14400,
,,,1.880000000000,   0.14400,
,,,1.890000000000,   0.14400,
,,,1.900000000000,   0.14400,
,,,1.910000000000,   0.14400,
,,,1.920000000000,   0.13600,
,,,1.930000000000,   0.14400,
,,,1.940000000000,   0.13600,
,,,1.950000000000,   0.13600,
,,,1.960000000000,   0.13600,
,,,1.970000000000,   0.12800,
,,,1.980000000000,   0.12800,
,,,1.990000000000,   0.14400,
,,,2.000000000000,   0.14400,
,,,2.010000000000,   0.15200,
,,,2.020000000000,   0.13600,
,,,2.030000000000,   0.14400,
,,,2.040000000000,   0.12800,
,,,2.050000000000,   0.14400,
,,,2.060000000000,   0.12800,
,,,2.070000000000,   0.12800,
,,,2.080000000000,   0.14400,
,,,2.090000000000,   0.14400,
,,,2.100000000000,   0.14400,
,,,2.110000000000,   0.14400,
,,,2.120000000000,   0.14400,
,,,2.130000000000,   0.14400,
,,,2.140000000000,   0.14400,
,,,2.150000000000,   0.13600,
,,,2.160000000000,   0.13600,
,,,2.170000000000,   0.14400,
,,,2.180000000000,   0.14400,
,,,2.190000000000,   0.14400,
,,,2.200000000000,   0.12800,
,,,2.210000000000,   0.14400,
,,,2.220000000000,   0.14400,
,,,2.230000000000,   0.13600,
,,,2.240000000000,   0.14400,
,,,2.250000000000,   0.12800,
,,,2.260000000000,   0.13600,
,,,2.270000000000,   0.14400,
,,,2.280000000000,   0.14400,
,,,2.290000000000,   0.12800,
,,,2.300000000000,   0.14400,
,,,2.310000000000,   0.13600,
,,,2.320000000000,   0.14400,
,,,2.330000000000,   0.14400,
,,,2.340000000000,   0.14400,
,,,2.350000000000,   0.13600,
,,,2.360000000000,   0.14400,
,,,2.370000000000,   0.13600,
,,,2.380000000000,   0.14400,
,,,2.390000000000,   0.14400,
,,,2.400000000000,   0.14400,
,,,2.410000000000,   0.12800,
,,,2.420000000000,   0.14400,
,,,2.430000000000,   0.14400,
,,,2.440000000000,   0.12800,
,,,2.450000000000,   0.13600,
,,,2.460000000000,   0.14400,
,,,2.470000000000,   0.13600,
,,,2.480000000000,   0.14400,
,,,2.490000000000,   0.13600,
,,,2.500000000000,   0.13600,
,,,2.510000000000,   0.14400,
,,,2.520000000000,   0.14400,
,,,2.530000000000,   0.15200,
,,,2.540000000000,   0.13600,
,,,2.550000000000,   0.14400,
,,,2.560000000000,   0.12800,
,,,2.570000000000,   0.13600,
,,,2.580000000000,   0.12800,
,,,2.590000000000,   0.15200,
,,,2.600000000000,   0.15200,
,,,2.610000000000,   0.14400,
,,,2.620000000000,   0.14400,
,,,2.630000000000,   0.14400,
,,,2.640000000000,   0.15200,
,,,2.650000000000,   0.13600,
,,,2.660000000000,   0.14400,
,,,2.670000000000,   0.14400,
,,,2.680000000000,   0.12800,
,,,2.690000000000,   0.13600,
,,,2.700000000000,   0.15200,
,,,2.710000000000,   0.14400,
,,,2.720000000000,   0.14400,
,,,2.730000000000,   0.14400,
,,,2.740000000000,   0.13600,
,,,2.750000000000,   0.13600,
,,,2.760000000000,   0.13600,
,,,2.770000000000,   0.14400,
,,,2.780000000000,   0.12800,
,,,2.790000000000,   0.14400,
,,,2.800000000000,   0.12800,
,,,2.810000000000,   0.14400,
,,,2.820000000000,   0.15200,
,,,2.830000000000,   0.14400,
,,,2.840000000000,   0.13600,
,,,2.850000000000,   0.15200,
,,,2.860000000000,   0.15200,
,,,2.870000000000,   0.12800,
,,,2.880000000000,   0.15200,
,,,2.890000000000,   0.14400,
,,,2.900000000000,   0.13600,
,,,2.910000000000,   0.13600,
,,,2.920000000000,   0.15200,
,,,2.930000000000,   0.13600,
,,,2.940000000000,   0.14400,
,,,2.950000000000,   0.13600,
,,,2.960000000000,   0.13600,
,,,2.970000000000,   0.14400,
,,,2.980000000000,   0.14400,
,,,2.990000000000,   0.14400,
,,,3.000000000000,   0.13600,
,,,3.010000000000,   0.12800,
,,,3.020000000000,   0.14400,
,,,3.030000000000,   0.14400,
,,,3.040000000000,   0.13600,
,,,3.050000000000,   0.12800,
,,,3.060000000000,   0.14400,
,,,3.070000000000,   0.13600,
,,,3.080000000000,   0.13600,
,,,3.090000000000,   0.14400,
,,,3.100000000000,   0.12800,
,,,3.110000000000,   0.14400,
,,,3.120000000000,   0.12800,
,,,3.130000000000,   0.13600,
,,,3.140000000000,   0.12800,
,,,3.150000000000,   0.13600,
,,,3.160000000000,   0.12800,
,,,3.170000000000,   0.14400,
,,,3.180000000000,   0.14400,
,,,3.190000000000,   0.13600,
,,,3.200000000000,   0.14400,
,,,3.210000000000,   0.13600,
,,,3.220000000000,   0.13600,
,,,3.230000000000,   0.12800,
,,,3.240000000000,   0.14400,
,,,3.250000000000,   0.14400,
,,,3.260000000000,   0.14400,
,,,3.270000000000,   0.13600,
,,,3.280000000000,   0.14400,
,,,3.290000000000,   0.12800,
,,,3.300000000000,   0.15200,
,,,3.310000000000,   0.14400,
,,,3.320000000000,   0.12800,
,,,3.330000000000,   0.12800,
,,,3.340000000000,   0.12800,
,,,3.350000000000,   0.14400,
,,,3.360000000000,   0.12800,
,,,3.370000000000,   0.12800,
,,,3.380000000000,   0.13600,
,,,3.390000000000,   0.14400,
,,,3.400000000000,   0.13600,
,,,3.410000000000,   0.14400,
,,,3.420000000000,   0.13600,
,,,3.430000000000,   0.14400,
,,,3.440000000000,   0.13600,
,,,3.450000000000,   0.12800,
,,,3.460000000000,   0.15200,
,,,3.470000000000,   0.14400,
,,,3.480000000000,   0.13600,
,,,3.490000000000,   0.13600,
,,,3.500000000000,   0.14400,
,,,3.510000000000,   0.16800,
,,,3.520000000000,   0.15200,
,,,3.530000000000,   0.18400,
,,,3.540000000000,   0.23200,
,,,3.550000000000,   0.25600,
,,,3.560000000000,   0.30400,
,,,3.570000000000,   0.43200,
,,,3.580000000000,   0.45600,
,,,3.590000000000,   0.48800,
,,,3.600000000000,   0.47200,
,,,3.610000000000,   0.51200,
,,,3.620000000000,   0.49600,
,,,3.630000000000,   0.51200,
,,,3.640000000000,   0.51200,
,,,3.650000000000,   0.57600,
,,,3.660000000000,   0.59200,
,,,3.670000000000,   0.62400,
,,,3.680000000000,   0.60800,
,,,3.690000000000,   0.64800,
,,,3.700000000000,   0.64800,
,,,3.710000000000,   0.62400,
,,,3.720000000000,   0.60800,
,,,3.730000000000,   0.62400,
,,,3.740000000000,   0.64000,
,,,3.750000000000,   0.62400,
,,,3.760000000000,   0.57600,
,,,3.770000000000,   0.62400,
,,,3.780000000000,   0.61600,
,,,3.790000000000,   0.60000,
,,,3.800000000000,   0.56000,
,,,3.810000000000,   0.59200,
,,,3.820000000000,   0.61600,
,,,3.830000000000,   0.58400,
,,,3.840000000000,   0.61600,
,,,3.850000000000,   0.57600,
,,,3.860000000000,   0.56800,
,,,3.870000000000,   0.58400,
,,,3.880000000000,   0.59200,
,,,3.890000000000,   0.55200,
,,,3.900000000000,   0.56000,
,,,3.910000000000,   0.56000,
,,,3.920000000000,   0.52800,
,,,3.930000000000,   0.52000,
,,,3.940000000000,   0.51200,
,,,3.950000000000,   0.50400,
,,,3.960000000000,   0.53600,
,,,3.970000000000,   0.55200,
,,,3.980000000000,   0.50400,
,,,3.990000000000,   0.51200,
,,,4.000000000000,   0.47200,
,,,4.010000000000,   0.52000,
,,,4.020000000000,   0.55200,
,,,4.030000000000,   0.50400,
,,,4.040000000000,   0.53600,
,,,4.050000000000,   0.50400,
,,,4.060000000000,   0.45600,
,,,4.070000000000,   0.48800,
,,,4.080000000000,   0.50400,
,,,4.090000000000,   0.48000,
,,,4.100000000000,   0.48800,
,,,4.110000000000,   0.47200,
,,,4.120000000000,   0.44800,
,,,4.130000000000,   0.47200,
,,,4.140000000000,   0.46400,
,,,4.150000000000,   0.46400,
,,,4.160000000000,   0.44800,
,,,4.170000000000,   0.44000,
,,,4.180000000000,   0.44800,
,,,4.190000000000,   0.44000,
,,,4.200000000000,   0.44800,
,,,4.210000000000,   0.44000,
,,,4.220000000000,   0.43200,
,,,4.230000000000,   0.44000,
,,,4.240000000000,   0.43200,
,,,4.250000000000,   0.43200,
,,,4.260000000000,   0.44000,
,,,4.270000000000,   0.41600,
,,,4.280000000000,   0.41600,
,,,4.290000000000,   0.44000,
,,,4.300000000000,   0.43200,
,,,4.310000000000,   0.41600,
,,,4.320000000000,   0.41600,
,,,4.330000000000,   0.41600,
,,,4.340000000000,   0.38400,
,,,4.350000000000,   0.42400,
,,,4.360000000000,   0.37600,
,,,4.370000000000,   0.40000,
,,,4.380000000000,   0.38400,
,,,4.390000000000,   0.37600,
,,,4.400000000000,   0.40000,
,,,4.410000000000,   0.40000,
,,,4.420000000000,   0.38400,
,,,4.430000000000,   0.39200,
,,,4.440000000000,   0.40000,
,,,4.450000000000,   0.40000,
,,,4.460000000000,   0.38400,
,,,4.470000000000,   0.37600,
,,,4.480000000000,   0.37600,
,,,4.490000000000,   0.36800,
,,,4.500000000000,   0.36800,
,,,4.510000000000,   0.37600,
,,,4.520000000000,   0.37600,
,,,4.530000000000,   0.33600,
,,,4.540000000000,   0.35200,
,,,4.550000000000,   0.36000,
,,,4.560000000000,   0.36800,
,,,4.570000000000,   0.37600,
,,,4.580000000000,   0.36000,
,,,4.590000000000,   0.35200,
,,,4.600000000000,   0.34400,
,,,4.610000000000,   0.34400,
,,,4.620000000000,   0.34400,
,,,4.630000000000,   0.30400,
,,,4.640000000000,   0.29600,
,,,4.650000000000,   0.32800,
,,,4.660000000000,   0.32800,
,,,4.670000000000,   0.34400,
,,,4.680000000000,   0.32800,
,,,4.690000000000,   0.33600,
,,,4.700000000000,   0.32800,
,,,4.710000000000,   0.32000,
,,,4.720000000000,   0.32800,
,,,4.730000000000,   0.31200,
,,,4.740000000000,   0.31200,
,,,4.750000000000,   0.30400,
,,,4.760000000000,   0.29600,
,,,4.770000000000,   0.32000,
,,,4.780000000000,   0.32000,
,,,4.790000000000,   0.31200,
,,,4.800000000000,   0.31200,
,,,4.810000000000,   0.30400,
,,,4.820000000000,   0.28800,
,,,4.830000000000,   0.29600,
,,,4.840000000000,   0.28000,
,,,4.850000000000,   0.27200,
,,,4.860000000000,   0.28800,
,,,4.870000000000,   0.27200,
,,,4.880000000000,   0.30400,
,,,4.890000000000,   0.29600,
,,,4.900000000000,   0.27200,
,,,4.910000000000,   0.29600,
,,,4.920000000000,   0.27200,
,,,4.930000000000,   0.28800,
,,,4.940000000000,   0.28800,
,,,4.950000000000,   0.26400,
,,,4.960000000000,   0.28000,
,,,4.970000000000,   0.27200,
,,,4.980000000000,   0.28800,
,,,4.990000000000,   0.29600,
,,,5.000000000000,   0.25600,
,,,5.010000000000,   0.27200,
,,,5.020000000000,   0.25600,
,,,5.030000000000,   0.28000,
,,,5.040000000000,   0.28000,
,,,5.050000000000,   0.26400,
,,,5.060000000000,   0.27200,
,,,5.070000000000,   0.26400,
,,,5.080000000000,   0.25600,
,,,5.090000000000,   0.25600,
,,,5.100000000000,   0.25600,
,,,5.110000000000,   0.24800,
,,,5.120000000000,   0.25600,
,,,5.130000000000,   0.24000,
,,,5.140000000000,   0.24000,
,,,5.150000000000,   0.24800,
,,,5.160000000000,   0.25600,
,,,5.170000000000,   0.26400,
,,,5.180000000000,   0.24800,
,,,5.190000000000,   0.26400,
,,,5.200000000000,   0.24800,
,,,5.210000000000,   0.25600,
,,,5.220000000000,   0.26400,
,,,5.230000000000,   0.24800,
,,,5.240000000000,   0.24800,
,,,5.250000000000,   0.24000,
,,,5.260000000000,   0.24800,
,,,5.270000000000,   0.24800,
,,,5.280000000000,   0.24800,
,,,5.290000000000,   0.22400,
,,,5.300000000000,   0.24000,
,,,5.310000000000,   0.22400,
,,,5.320000000000,   0.23200,
,,,5.330000000000,   0.24800,
,,,5.340000000000,   0.24800,
,,,5.350000000000,   0.23200,
,,,5.360000000000,   0.24800,
,,,5.370000000000,   0.23200,
,,,5.380000000000,   0.24000,
,,,5.390000000000,   0.24000,
,,,5.400000000000,   0.22400,
,,,5.410000000000,   0.23200,
,,,5.420000000000,   0.23200,
,,,5.430000000000,   0.24800,
,,,5.440000000000,   0.22400,
,,,5.450000000000,   0.24000,
,,,5.460000000000,   0.23200,
,,,5.470000000000,   0.23200,
,,,5.480000000000,   0.23200,
,,,5.490000000000,   0.22400,
,,,5.500000000000,   0.21600,
,,,5.510000000000,   0.22400,
,,,5.520000000000,   0.22400,
,,,5.530000000000,   0.23200,
,,,5.540000000000,   0.22400,
,,,5.550000000000,   0.23200,
,,,5.560000000000,   0.23200,
,,,5.570000000000,   0.23200,
,,,5.580000000000,   0.22400,
,,,5.590000000000,   0.21600,
,,,5.600000000000,   0.23200,
,,,5.610000000000,   0.21600,
,,,5.620000000000,   0.22400,
,,,5.630000000000,   0.22400,
,,,5.640000000000,   0.21600,
,,,5.650000000000,   0.20800,
,,,5.660000000000,   0.23200,
,,,5.670000000000,   0.21600,
,,,5.680000000000,   0.21600,
,,,5.690000000000,   0.20000,
,,,5.700000000000,   0.22400,
,,,5.710000000000,   0.21600,
,,,5.720000000000,   0.22400,
,,,5.730000000000,   0.23200,
,,,5.740000000000,   0.22400,
,,,5.750000000000,   0.21600,
,,,5.760000000000,   0.22400,
,,,5.770000000000,   0.20800,
,,,5.780000000000,   0.23200,
,,,5.790000000000,   0.21600,
,,,5.800000000000,   0.22400,
,,,5.810000000000,   0.21600,
,,,5.820000000000,   0.21600,
,,,5.830000000000,   0.21600,
,,,5.840000000000,   0.22400,
,,,5.850000000000,   0.21600,
,,,5.860000000000,   0.21600,
,,,5.870000000000,   0.21600,
,,,5.880000000000,   0.21600,
,,,5.890000000000,   0.21600,
,,,5.900000000000,   0.20800,
,,,5.910000000000,   0.21600,
,,,5.920000000000,   0.21600,
,,,5.930000000000,   0.21600,
,,,5.940000000000,   0.23200,
,,,5.950000000000,   0.21600,
,,,5.960000000000,   0.21600,
,,,5.970000000000,   0.21600,
,,,5.980000000000,   0.21600,
,,,5.990000000000,   0.20800,
,,,6.000000000000,   0.20000,
,,,6.010000000000,   0.20000,
,,,6.020000000000,   0.21600,
,,,6.030000000000,   0.21600,
,,,6.040000000000,   0.20800,
,,,6.050000000000,   0.21600,
,,,6.060000000000,   0.20800,
,,,6.070000000000,   0.21600,
,,,6.080000000000,   0.22400,
,,,6.090000000000,   0.20000,
,,,6.100000000000,   0.21600,
,,,6.110000000000,   0.20000,
,,,6.120000000000,   0.21600,
,,,6.130000000000,   0.21600,
,,,6.140000000000,   0.20800,
,,,6.150000000000,   0.21600,
,,,6.160000000000,   0.20800,
,,,6.170000000000,   0.20800,
,,,6.180000000000,   0.22400,
,,,6.190000000000,   0.20800,
,,,6.200000000000,   0.20800,
,,,6.210000000000,   0.20800,
,,,6.220000000000,   0.20000,
,,,6.230000000000,   0.20000,
,,,6.240000000000,   0.20000,
,,,6.250000000000,   0.20800,
,,,6.260000000000,   0.21600,
,,,6.270000000000,   0.21600,
,,,6.280000000000,   0.20000,
,,,6.290000000000,   0.21600,
,,,6.300000000000,   0.21600,
,,,6.310000000000,   0.20800,
,,,6.320000000000,   0.20000,
,,,6.330000000000,   0.20000,
,,,6.340000000000,   0.20000,
,,,6.350000000000,   0.20800,
,,,6.360000000000,   0.18400,
,,,6.370000000000,   0.20000,
,,,6.380000000000,   0.20800,
,,,6.390000000000,   0.19200,
,,,6.400000000000,   0.19200,
,,,6.410000000000,   0.20800,
,,,6.420000000000,   0.19200,
,,,6.430000000000,   0.18400,
,,,6.440000000000,   0.19200,
,,,6.450000000000,   0.18400,
,,,6.460000000000,   0.18400,
,,,6.470000000000,   0.19200,
,,,6.480000000000,   0.19200,
,,,6.490000000000,   0.18400,
,,,6.500000000000,   0.18400,
,,,6.510000000000,   0.17600,
,,,6.520000000000,   0.18400,
,,,6.530000000000,   0.16800,
