ipy_notebooks/20161108/ALL0057/F0057CH1.CSV

Record Length,2.500000e+03,,   0.000000000000,   0.06400,
Sample Interval,1.000000e-02,,   0.010000000000,   0.05600,
Trigger Point,-0.000000000000e+00,,   0.020000000000,   0.05600,
,,,   0.030000000000,   0.06400,
,,,   0.040000000000,   0.05600,
,,,   0.050000000000,   0.07200,
Source,CH1,,   0.060000000000,   0.06400,
Vertical Units,V,,   0.070000000000,   0.06400,
Vertical Scale,2.000000e-01,,   0.080000000000,   0.07200,
Vertical Offset,-6.960000e-01,,   0.090000000000,   0.06400,
Horizontal Units,s,,   0.100000000000,   0.07200,
Horizontal Scale,2.500000e+00,,   0.110000000000,   0.05600,
Pt Fmt,Y,,   0.120000000000,   0.06400,
Yzero,0.000000e+00,,   0.130000000000,   0.07200,
Probe Atten,1.000000e+00,,   0.140000000000,   0.05600,
Model Number,TBS1072B-EDU,,   0.150000000000,   0.07200,
Serial Number,C010859,,   0.160000000000,   0.06400,
Firmware Version,FV:v4.06,,   0.170000000000,   0.05600,
,,,0.180000000000,   0.06400,
,,,0.190000000000,   0.07200,
,,,0.200000000000,   0.06400,
,,,0.210000000000,   0.05600,
,,,0.220000000000,   0.06400,
,,,0.230000000000,   0.06400,
,,,0.240000000000,   0.07200,
,,,0.250000000000,   0.06400,
,,,0.260000000000,   0.06400,
,,,0.270000000000,   0.06400,
,,,0.280000000000,   0.05600,
,,,0.290000000000,   0.06400,
,,,0.300000000000,   0.07200,
,,,0.310000000000,   0.07200,
,,,0.320000000000,   0.06400,
,,,0.330000000000,   0.07200,
,,,0.340000000000,   0.06400,
,,,0.350000000000,   0.07200,
,,,0.360000000000,   0.06400,
,,,0.370000000000,   0.06400,
,,,0.380000000000,   0.07200,
,,,0.390000000000,   0.06400,
,,,0.400000000000,   0.05600,
,,,0.410000000000,   0.06400,
,,,0.420000000000,   0.06400,
,,,0.430000000000,   0.06400,
,,,0.440000000000,   0.07200,
,,,0.450000000000,   0.06400,
,,,0.460000000000,   0.06400,
,,,0.470000000000,   0.06400,
,,,0.480000000000,   0.06400,
,,,0.490000000000,   0.06400,
,,,0.500000000000,   0.07200,
,,,0.510000000000,   0.07200,
,,,0.520000000000,   0.05600,
,,,0.530000000000,   0.05600,
,,,0.540000000000,   0.06400,
,,,0.550000000000,   0.06400,
,,,0.560000000000,   0.06400,
,,,0.570000000000,   0.06400,
,,,0.580000000000,   0.06400,
,,,0.590000000000,   0.05600,
,,,0.600000000000,   0.04000,
,,,0.610000000000,   0.06400,
,,,0.620000000000,   0.08000,
,,,0.630000000000,   0.05600,
,,,0.640000000000,   0.06400,
,,,0.650000000000,   0.06400,
,,,0.660000000000,   0.06400,
,,,0.670000000000,   0.07200,
,,,0.680000000000,   0.07200,
,,,0.690000000000,   0.06400,
,,,0.700000000000,   0.05600,
,,,0.710000000000,   0.05600,
,,,0.720000000000,   0.07200,
,,,0.730000000000,   0.06400,
,,,0.740000000000,   0.07200,
,,,0.750000000000,   0.07200,
,,,0.760000000000,   0.07200,
,,,0.770000000000,   0.07200,
,,,0.780000000000,   0.06400,
,,,0.790000000000,   0.06400,
,,,0.800000000000,   0.05600,
,,,0.810000000000,   0.07200,
,,,0.820000000000,   0.07200,
,,,0.830000000000,   0.06400,
,,,0.840000000000,   0.06400,
,,,0.850000000000,   0.07200,
,,,0.860000000000,   0.06400,
,,,0.870000000000,   0.06400,
,,,0.880000000000,   0.06400,
,,,0.890000000000,   0.05600,
,,,0.900000000000,   0.05600,
,,,0.910000000000,   0.06400,
,,,0.920000000000,   0.06400,
,,,0.930000000000,   0.05600,
,,,0.940000000000,   0.06400,
,,,0.950000000000,   0.05600,
,,,0.960000000000,   0.06400,
,,,0.970000000000,   0.07200,
,,,0.980000000000,   0.06400,
,,,0.990000000000,   0.06400,
,,,1.000000000000,   0.06400,
,,,1.010000000000,   0.05600,
,,,1.020000000000,   0.05600,
,,,1.030000000000,   0.06400,
,,,1.040000000000,   0.06400,
,,,1.050000000000,   0.05600,
,,,1.060000000000,   0.06400,
,,,1.070000000000,   0.05600,
,,,1.080000000000,   0.06400,
,,,1.090000000000,   0.06400,
,,,1.100000000000,   0.05600,
,,,1.110000000000,   0.05600,
,,,1.120000000000,   0.06400,
,,,1.130000000000,   0.06400,
,,,1.140000000000,   0.05600,
,,,1.150000000000,   0.06400,
,,,1.160000000000,   0.06400,
,,,1.170000000000,   0.05600,
,,,1.180000000000,   0.06400,
,,,1.190000000000,   0.06400,
,,,1.200000000000,   0.06400,
,,,1.210000000000,   0.06400,
,,,1.220000000000,   0.06400,
,,,1.230000000000,   0.06400,
,,,1.240000000000,   0.05600,
,,,1.250000000000,   0.05600,
,,,1.260000000000,   0.05600,
,,,1.270000000000,   0.04800,
,,,1.280000000000,   0.06400,
,,,1.290000000000,   0.06400,
,,,1.300000000000,   0.05600,
,,,1.310000000000,   0.06400,
,,,1.320000000000,   0.05600,
,,,1.330000000000,   0.06400,
,,,1.340000000000,   0.06400,
,,,1.350000000000,   0.06400,
,,,1.360000000000,   0.06400,
,,,1.370000000000,   0.05600,
,,,1.380000000000,   0.06400,
,,,1.390000000000,   0.05600,
,,,1.400000000000,   0.05600,
,,,1.410000000000,   0.06400,
,,,1.420000000000,   0.05600,
,,,1.430000000000,   0.05600,
,,,1.440000000000,   0.07200,
,,,1.450000000000,   0.06400,
,,,1.460000000000,   0.07200,
,,,1.470000000000,   0.06400,
,,,1.480000000000,   0.06400,
,,,1.490000000000,   0.06400,
,,,1.500000000000,   0.04800,
,,,1.510000000000,   0.06400,
,,,1.520000000000,   0.06400,
,,,1.530000000000,   0.05600,
,,,1.540000000000,   0.06400,
,,,1.550000000000,   0.07200,
,,,1.560000000000,   0.05600,
,,,1.570000000000,   0.06400,
,,,1.580000000000,   0.06400,
,,,1.590000000000,   0.04800,
,,,1.600000000000,   0.06400,
,,,1.610000000000,   0.06400,
,,,1.620000000000,   0.06400,
,,,1.630000000000,   0.06400,
,,,1.640000000000,   0.06400,
,,,1.650000000000,   0.06400,
,,,1.660000000000,   0.04800,
,,,1.670000000000,   0.06400,
,,,1.680000000000,   0.05600,
,,,1.690000000000,   0.06400,
,,,1.700000000000,   0.06400,
,,,1.710000000000,   0.06400,
,,,1.720000000000,   0.06400,
,,,1.730000000000,   0.06400,
,,,1.740000000000,   0.06400,
,,,1.750000000000,   0.04800,
,,,1.760000000000,   0.07200,
,,,1.770000000000,   0.05600,
,,,1.780000000000,   0.06400,
,,,1.790000000000,   0.05600,
,,,1.800000000000,   0.04800,
,,,1.810000000000,   0.05600,
,,,1.820000000000,   0.06400,
,,,1.830000000000,   0.05600,
,,,1.840000000000,   0.06400,
,,,1.850000000000,   0.05600,
,,,1.860000000000,   0.05600,
,,,1.870000000000,   0.06400,
,,,1.880000000000,   0.06400,
,,,1.890000000000,   0.07200,
,,,1.900000000000,   0.06400,
,,,1.910000000000,   0.05600,
,,,1.920000000000,   0.06400,
,,,1.930000000000,   0.05600,
,,,1.940000000000,   0.06400,
,,,1.950000000000,   0.05600,
,,,1.960000000000,   0.07200,
,,,1.970000000000,   0.05600,
,,,1.980000000000,   0.05600,
,,,1.990000000000,   0.06400,
,,,2.000000000000,   0.05600,
,,,2.010000000000,   0.05600,
,,,2.020000000000,   0.05600,
,,,2.030000000000,   0.06400,
,,,2.040000000000,   0.05600,
,,,2.050000000000,   0.06400,
,,,2.060000000000,   0.06400,
,,,2.070000000000,   0.06400,
,,,2.080000000000,   0.05600,
,,,2.090000000000,   0.07200,
,,,2.100000000000,   0.05600,
,,,2.110000000000,   0.06400,
,,,2.120000000000,   0.07200,
,,,2.130000000000,   0.04800,
,,,2.140000000000,   0.06400,
,,,2.150000000000,   0.06400,
,,,2.160000000000,   0.05600,
,,,2.170000000000,   0.06400,
,,,2.180000000000,   0.07200,
,,,2.190000000000,   0.07200,
,,,2.200000000000,   0.04800,
,,,2.210000000000,   0.05600,
,,,2.220000000000,   0.06400,
,,,2.230000000000,   0.05600,
,,,2.240000000000,   0.04800,
,,,2.250000000000,   0.06400,
,,,2.260000000000,   0.06400,
,,,2.270000000000,   0.05600,
,,,2.280000000000,   0.04800,
,,,2.290000000000,   0.04800,
,,,2.300000000000,   0.05600,
,,,2.310000000000,   0.06400,
,,,2.320000000000,   0.05600,
,,,2.330000000000,   0.06400,
,,,2.340000000000,   0.06400,
,,,2.350000000000,   0.05600,
,,,2.360000000000,   0.06400,
,,,2.370000000000,   0.04800,
,,,2.380000000000,   0.05600,
,,,2.390000000000,   0.05600,
,,,2.400000000000,   0.06400,
,,,2.410000000000,   0.05600,
,,,2.420000000000,   0.05600,
,,,2.430000000000,   0.04800,
,,,2.440000000000,   0.04800,
,,,2.450000000000,   0.05600,
,,,2.460000000000,   0.06400,
,,,2.470000000000,   0.06400,
,,,2.480000000000,   0.05600,
,,,2.490000000000,   0.06400,
,,,2.500000000000,   0.05600,
,,,2.510000000000,   0.06400,
,,,2.520000000000,   0.07200,
,,,2.530000000000,   0.06400,
,,,2.540000000000,   0.05600,
,,,2.550000000000,   0.06400,
,,,2.560000000000,   0.06400,
,,,2.570000000000,   0.05600,
,,,2.580000000000,   0.04800,
,,,2.590000000000,   0.06400,
,,,2.600000000000,   0.05600,
,,,2.610000000000,   0.06400,
,,,2.620000000000,   0.05600,
,,,2.630000000000,   0.04800,
,,,2.640000000000,   0.05600,
,,,2.650000000000,   0.06400,
,,,2.660000000000,   0.06400,
,,,2.670000000000,   0.05600,
,,,2.680000000000,   0.05600,
,,,2.690000000000,   0.06400,
,,,2.700000000000,   0.06400,
,,,2.710000000000,   0.06400,
,,,2.720000000000,   0.06400,
,,,2.730000000000,   0.06400,
,,,2.740000000000,   0.06400,
,,,2.750000000000,   0.06400,
,,,2.760000000000,   0.06400,
,,,2.770000000000,   0.05600,
,,,2.780000000000,   0.05600,
,,,2.790000000000,   0.05600,
,,,2.800000000000,   0.06400,
,,,2.810000000000,   0.06400,
,,,2.820000000000,   0.06400,
,,,2.830000000000,   0.06400,
,,,2.840000000000,   0.06400,
,,,2.850000000000,   0.06400,
,,,2.860000000000,   0.06400,
,,,2.870000000000,   0.04800,
,,,2.880000000000,   0.05600,
,,,2.890000000000,   0.06400,
,,,2.900000000000,   0.06400,
,,,2.910000000000,   0.06400,
,,,2.920000000000,   0.06400,
,,,2.930000000000,   0.06400,
,,,2.940000000000,   0.06400,
,,,2.950000000000,   0.05600,
,,,2.960000000000,   0.05600,
,,,2.970000000000,   0.06400,
,,,2.980000000000,   0.06400,
,,,2.990000000000,   0.06400,
,,,3.000000000000,   0.06400,
,,,3.010000000000,   0.06400,
,,,3.020000000000,   0.05600,
,,,3.030000000000,   0.06400,
,,,3.040000000000,   0.04000,
,,,3.050000000000,   0.06400,
,,,3.060000000000,   0.06400,
,,,3.070000000000,   0.04800,
,,,3.080000000000,   0.05600,
,,,3.090000000000,   0.06400,
,,,3.100000000000,   0.06400,
,,,3.110000000000,   0.04800,
,,,3.120000000000,   0.05600,
,,,3.130000000000,   0.06400,
,,,3.140000000000,   0.05600,
,,,3.150000000000,   0.05600,
,,,3.160000000000,   0.06400,
,,,3.170000000000,   0.06400,
,,,3.180000000000,   0.07200,
,,,3.190000000000,   0.07200,
,,,3.200000000000,   0.06400,
,,,3.210000000000,   0.07200,
,,,3.220000000000,   0.07200,
,,,3.230000000000,   0.08800,
,,,3.240000000000,   0.08800,
,,,3.250000000000,   0.09600,
,,,3.260000000000,   0.09600,
,,,3.270000000000,   0.09600,
,,,3.280000000000,   0.11200,
,,,3.290000000000,   0.12000,
,,,3.300000000000,   0.11200,
,,,3.310000000000,   0.12000,
,,,3.320000000000,   0.11200,
,,,3.330000000000,   0.13600,
,,,3.340000000000,   0.13600,
,,,3.350000000000,   0.15200,
,,,3.360000000000,   0.14400,
,,,3.370000000000,   0.16800,
,,,3.380000000000,   0.15200,
,,,3.390000000000,   0.16000,
,,,3.400000000000,   0.17600,
,,,3.410000000000,   0.17600,
,,,3.420000000000,   0.19200,
,,,3.430000000000,   0.20800,
,,,3.440000000000,   0.19200,
,,,3.450000000000,   0.21600,
,,,3.460000000000,   0.22400,
,,,3.470000000000,   0.24000,
,,,3.480000000000,   0.24000,
,,,3.490000000000,   0.25600,
,,,3.500000000000,   0.24800,
,,,3.510000000000,   0.25600,
,,,3.520000000000,   0.27200,
,,,3.530000000000,   0.28000,
,,,3.540000000000,   0.28800,
,,,3.550000000000,   0.29600,
,,,3.560000000000,   0.29600,
,,,3.570000000000,   0.31200,
,,,3.580000000000,   0.32800,
,,,3.590000000000,   0.32000,
,,,3.600000000000,   0.32800,
,,,3.610000000000,   0.33600,
,,,3.620000000000,   0.33600,
,,,3.630000000000,   0.36000,
,,,3.640000000000,   0.36000,
,,,3.650000000000,   0.32800,
,,,3.660000000000,   0.38400,
,,,3.670000000000,   0.35200,
,,,3.680000000000,   0.37600,
,,,3.690000000000,   0.38400,
,,,3.700000000000,   0.36800,
,,,3.710000000000,   0.38400,
,,,3.720000000000,   0.38400,
,,,3.730000000000,   0.40000,
,,,3.740000000000,   0.36800,
,,,3.750000000000,   0.38400,
,,,3.760000000000,   0.39200,
,,,3.770000000000,   0.39200,
,,,3.780000000000,   0.37600,
,,,3.790000000000,   0.38400,
,,,3.800000000000,   0.36800,
,,,3.810000000000,   0.39200,
,,,3.820000000000,   0.38400,
,,,3.830000000000,   0.37600,
,,,3.840000000000,   0.40000,
,,,3.850000000000,   0.38400,
,,,3.860000000000,   0.37600,
,,,3.870000000000,   0.32800,
,,,3.880000000000,   0.36000,
,,,3.890000000000,   0.36000,
,,,3.900000000000,   0.36800,
,,,3.910000000000,   0.37600,
,,,3.920000000000,   0.36800,
,,,3.930000000000,   0.36800,
,,,3.940000000000,   0.35200,
,,,3.950000000000,   0.32800,
,,,3.960000000000,   0.32800,
,,,3.970000000000,   0.33600,
,,,3.980000000000,   0.33600,
,,,3.990000000000,   0.32800,
,,,4.000000000000,   0.32800,
,,,4.010000000000,   0.32800,
,,,4.020000000000,   0.33600,
,,,4.030000000000,   0.30400,
,,,4.040000000000,   0.30400,
,,,4.050000000000,   0.32000,
,,,4.060000000000,   0.29600,
,,,4.070000000000,   0.31200,
,,,4.080000000000,   0.31200,
,,,4.090000000000,   0.30400,
,,,4.100000000000,   0.31200,
,,,4.110000000000,   0.28800,
,,,4.120000000000,   0.28800,
,,,4.130000000000,   0.29600,
,,,4.140000000000,   0.28000,
,,,4.150000000000,   0.27200,
,,,4.160000000000,   0.28000,
,,,4.170000000000,   0.28800,
,,,4.180000000000,   0.28800,
,,,4.190000000000,   0.24800,
,,,4.200000000000,   0.26400,
,,,4.210000000000,   0.24800,
,,,4.220000000000,   0.24800,
,,,4.230000000000,   0.25600,
,,,4.240000000000,   0.25600,
,,,4.250000000000,   0.25600,
,,,4.260000000000,   0.23200,
,,,4.270000000000,   0.24800,
,,,4.280000000000,   0.22400,
,,,4.290000000000,   0.23200,
,,,4.300000000000,   0.22400,
,,,4.310000000000,   0.24000,
,,,4.320000000000,   0.24000,
,,,4.330000000000,   0.24000,
,,,4.340000000000,   0.23200,
,,,4.350000000000,   0.21600,
,,,4.360000000000,   0.20800,
,,,4.370000000000,   0.22400,
,,,4.380000000000,   0.22400,
,,,4.390000000000,   0.20800,
,,,4.400000000000,   0.20000,
,,,4.410000000000,   0.19200,
,,,4.420000000000,   0.20000,
,,,4.430000000000,   0.19200,
,,,4.440000000000,   0.18400,
,,,4.450000000000,   0.19200,
,,,4.460000000000,   0.17600,
,,,4.470000000000,   0.20000,
,,,4.480000000000,   0.18400,
,,,4.490000000000,   0.19200,
,,,4.500000000000,   0.17600,
,,,4.510000000000,   0.18400,
,,,4.520000000000,   0.19200,
,,,4.530000000000,   0.18400,
,,,4.540000000000,   0.18400,
,,,4.550000000000,   0.17600,
,,,4.560000000000,   0.17600,
,,,4.570000000000,   0.16800,
,,,4.580000000000,   0.17600,
,,,4.590000000000,   0.17600,
,,,4.600000000000,   0.16800,
,,,4.610000000000,   0.17600,
,,,4.620000000000,   0.18400,
,,,4.630000000000,   0.16000,
,,,4.640000000000,   0.16800,
,,,4.650000000000,   0.18400,
,,,4.660000000000,   0.16800,
,,,4.670000000000,   0.16800,
,,,4.680000000000,   0.16800,
,,,4.690000000000,   0.16800,
,,,4.700000000000,   0.16000,
,,,4.710000000000,   0.15200,
,,,4.720000000000,   0.16000,
,,,4.730000000000,   0.14400,
,,,4.740000000000,   0.12800,
,,,4.750000000000,   0.14400,
,,,4.760000000000,   0.14400,
,,,4.770000000000,   0.15200,
,,,4.780000000000,   0.15200,
,,,4.790000000000,   0.16800,
,,,4.800000000000,   0.15200,
,,,4.810000000000,   0.14400,
,,,4.820000000000,   0.15200,
,,,4.830000000000,   0.13600,
,,,4.840000000000,   0.15200,
,,,4.850000000000,   0.13600,
,,,4.860000000000,   0.14400,
,,,4.870000000000,   0.13600,
,,,4.880000000000,   0.12800,
,,,4.890000000000,   0.14400,
,,,4.900000000000,   0.12800,
,,,4.910000000000,   0.13600,
,,,4.920000000000,   0.13600,
,,,4.930000000000,   0.13600,
,,,4.940000000000,   0.12800,
,,,4.950000000000,   0.13600,
,,,4.960000000000,   0.12800,
,,,4.970000000000,   0.12000,
,,,4.980000000000,   0.14400,
,,,4.990000000000,   0.12800,
,,,5.000000000000,   0.13600,
,,,5.010000000000,   0.12800,
,,,5.020000000000,   0.12800,
,,,5.030000000000,   0.12800,
,,,5.040000000000,   0.12000,
,,,5.050000000000,   0.12800,
,,,5.060000000000,   0.12800,
,,,5.070000000000,   0.12000,
,,,5.080000000000,   0.12800,
,,,5.090000000000,   0.12000,
,,,5.100000000000,   0.12800,
,,,5.110000000000,   0.12800,
,,,5.120000000000,   0.12800,
,,,5.130000000000,   0.11200,
,,,5.140000000000,   0.12000,
,,,5.150000000000,   0.12000,
,,,5.160000000000,   0.12800,
,,,5.170000000000,   0.12800,
,,,5.180000000000,   0.12800,
,,,5.190000000000,   0.11200,
,,,5.200000000000,   0.12000,
,,,5.210000000000,   0.11200,
,,,5.220000000000,   0.12000,
,,,5.230000000000,   0.10400,
,,,5.240000000000,   0.11200,
,,,5.250000000000,   0.12000,
,,,5.260000000000,   0.11200,
,,,5.270000000000,   0.11200,
,,,5.280000000000,   0.12000,
,,,5.290000000000,   0.12000,
,,,5.300000000000,   0.10400,
,,,5.310000000000,   0.10400,
,,,5.320000000000,   0.12000,
,,,5.330000000000,   0.11200,
,,,5.340000000000,   0.10400,
,,,5.350000000000,   0.11200,
,,,5.360000000000,   0.11200,
,,,5.370000000000,   0.11200,
,,,5.380000000000,   0.11200,
,,,5.390000000000,   0.11200,
,,,5.400000000000,   0.09600,
,,,5.410000000000,   0.10400,
,,,5.420000000000,   0.10400,
,,,5.430000000000,   0.12000,
,,,5.440000000000,   0.12000,
,,,5.450000000000,   0.10400,
,,,5.460000000000,   0.11200,
,,,5.470000000000,   0.11200,
,,,5.480000000000,   0.11200,
,,,5.490000000000,   0.10400,
,,,5.500000000000,   0.12000,
,,,5.510000000000,   0.10400,
,,,5.520000000000,   0.11200,
,,,5.530000000000,   0.09600,
,,,5.540000000000,   0.10400,
,,,5.550000000000,   0.11200,
,,,5.560000000000,   0.10400,
,,,5.570000000000,   0.10400,
,,,5.580000000000,   0.11200,
,,,5.590000000000,   0.09600,
,,,5.600000000000,   0.09600,
,,,5.610000000000,   0.09600,
,,,5.620000000000,   0.09600,
,,,5.630000000000,   0.11200,
,,,5.640000000000,   0.09600,
,,,5.650000000000,   0.09600,
,,,5.660000000000,   0.10400,
,,,5.670000000000,   0.11200,
,,,5.680000000000,   0.09600,
,,,5.690000000000,   0.09600,
,,,5.700000000000,   0.09600,
,,,5.710000000000,   0.09600,
,,,5.720000000000,   0.09600,
,,,5.730000000000,   0.09600,
,,,5.740000000000,   0.10400,
,,,5.750000000000,   0.10400,
,,,5.760000000000,   0.09600,
,,,5.770000000000,   0.09600,
,,,5.780000000000,   0.09600,
,,,5.790000000000,   0.09600,
,,,5.800000000000,   0.11200,
,,,5.810000000000,   0.10400,
,,,5.820000000000,   0.10400,
,,,5.830000000000,   0.09600,
,,,5.840000000000,   0.10400,
,,,5.850000000000,   0.09600,
,,,5.860000000000,   0.11200,
,,,5.870000000000,   0.11200,
,,,5.880000000000,   0.11200,
,,,5.890000000000,   0.11200,
,,,5.900000000000,   0.09600,
,,,5.910000000000,   0.10400,
,,,5.920000000000,   0.10400,
,,,5.930000000000,   0.10400,
,,,5.940000000000,   0.10400,
,,,5.950000000000,   0.11200,
,,,5.960000000000,   0.10400,
,,,5.970000000000,   0.11200,
,,,5.980000000000,   0.10400,
,,,5.990000000000,   0.10400,
,,,6.000000000000,   0.09600,
,,,6.010000000000,   0.09600,
,,,6.020000000000,   0.08800,
,,,6.030000000000,   0.09600,
,,,6.040000000000,   0.10400,
,,,6.050000000000,   0.10400,
,,,6.060000000000,   0.08800,
,,,6.070000000000,   0.10400,
,,,6.080000000000,   0.09600,
,,,6.090000000000,   0.10400,
,,,6.100000000000,   0.10400,
,,,6.110000000000,   0.10400,
,,,6.120000000000,   0.10400,
,,,6.130000000000,   0.09600,
,,,6.140000000000,   0.09600,
,,,6.150000000000,   0.10400,
,,,6.160000000000,   0.10400,
,,,6.170000000000,   0.08800,
,,,6.180000000000,   0.10400,
,,,6.190000000000,   0.08800,
,,,6.200000000000,   0.09600,
,,,6.210000000000,   0.08800,
,,,6.220000000000,   0.10400,
,,,6.230000000000,   0.10400,
,,,6.240000000000,   0.10400,
,,,6.250000000000,   0.09600,
,,,6.260000000000,   0.10400,
,,,6.270000000000,   0.08800,
,,,6.280000000000,   0.08800,
,,,6.290000000000,   0.08800,
,,,6.300000000000,   0.10400,
,,,6.310000000000,   0.09600,
,,,6.320000000000,   0.10400,
,,,6.330000000000,   0.08800,
,,,6.340000000000,   0.08800,
,,,6.350000000000,   0.09600,
,,,6.360000000000,   0.09600,
,,,6.370000000000,   0.09600,
,,,6.380000000000,   0.09600,
,,,6.390000000000,   0.09600,
,,,6.400000000000,   0.09600,
,,,6.410000000000,   0.10400,
,,,6.420000000000,   0.08000,
,,,6.430000000000,   0.08800,
,,,6.440000000000,   0.09600,
,,,6.450000000000,   0.10400,
,,,6.460000000000,   0.10400,
,,,6.470000000000,   0.09600,
,,,6.480000000000,   0.09600,
,,,6.490000000000,   0.08800,
,,,6.500000000000,   0.08800,
,,,6.510000000000,   0.08800,
,,,6.520000000000,   0.09600,
,,,6.530000000000,   0.08800,
