ipy_notebooks/GC/20161117/ALL0010/F0010CH1.CSV

Record Length,2.500000e+03,,   0.000000000000,   1.88800,
Sample Interval,1.000000e-02,,   0.010000000000,   1.88000,
Trigger Point,-0.000000000000e+00,,   0.020000000000,   1.88800,
,,,   0.030000000000,   1.90400,
,,,   0.040000000000,   1.88800,
,,,   0.050000000000,   1.89600,
Source,CH1,,   0.060000000000,   1.88800,
Vertical Units,V,,   0.070000000000,   1.87200,
Vertical Scale,2.000000e-01,,   0.080000000000,   1.88800,
Vertical Offset,-1.904000e+00,,   0.090000000000,   1.88000,
Horizontal Units,s,,   0.100000000000,   1.88000,
Horizontal Scale,2.500000e+00,,   0.110000000000,   1.88800,
Pt Fmt,Y,,   0.120000000000,   1.89600,
Yzero,0.000000e+00,,   0.130000000000,   1.88800,
Probe Atten,1.000000e+00,,   0.140000000000,   1.88000,
Model Number,TBS1072B-EDU,,   0.150000000000,   1.87200,
Serial Number,C010859,,   0.160000000000,   1.89600,
Firmware Version,FV:v4.06,,   0.170000000000,   1.89600,
,,,0.180000000000,   1.88000,
,,,0.190000000000,   1.87200,
,,,0.200000000000,   1.88000,
,,,0.210000000000,   1.88800,
,,,0.220000000000,   1.88000,
,,,0.230000000000,   1.88000,
,,,0.240000000000,   1.89600,
,,,0.250000000000,   1.88000,
,,,0.260000000000,   1.88800,
,,,0.270000000000,   1.88000,
,,,0.280000000000,   1.89600,
,,,0.290000000000,   1.88800,
,,,0.300000000000,   1.88000,
,,,0.310000000000,   1.88000,
,,,0.320000000000,   1.88800,
,,,0.330000000000,   1.89600,
,,,0.340000000000,   1.88800,
,,,0.350000000000,   1.88800,
,,,0.360000000000,   1.88800,
,,,0.370000000000,   1.88800,
,,,0.380000000000,   1.88800,
,,,0.390000000000,   1.88000,
,,,0.400000000000,   1.88800,
,,,0.410000000000,   1.88800,
,,,0.420000000000,   1.88000,
,,,0.430000000000,   1.87200,
,,,0.440000000000,   1.87200,
,,,0.450000000000,   1.87200,
,,,0.460000000000,   1.88000,
,,,0.470000000000,   1.88800,
,,,0.480000000000,   1.89600,
,,,0.490000000000,   1.88800,
,,,0.500000000000,   1.88000,
,,,0.510000000000,   1.88000,
,,,0.520000000000,   1.87200,
,,,0.530000000000,   1.87200,
,,,0.540000000000,   1.88000,
,,,0.550000000000,   1.86400,
,,,0.560000000000,   1.87200,
,,,0.570000000000,   1.86400,
,,,0.580000000000,   1.87200,
,,,0.590000000000,   1.87200,
,,,0.600000000000,   1.85600,
,,,0.610000000000,   1.87200,
,,,0.620000000000,   1.88000,
,,,0.630000000000,   1.86400,
,,,0.640000000000,   1.87200,
,,,0.650000000000,   1.87200,
,,,0.660000000000,   1.86400,
,,,0.670000000000,   1.87200,
,,,0.680000000000,   1.87200,
,,,0.690000000000,   1.87200,
,,,0.700000000000,   1.88000,
,,,0.710000000000,   1.88000,
,,,0.720000000000,   1.88000,
,,,0.730000000000,   1.88000,
,,,0.740000000000,   1.86400,
,,,0.750000000000,   1.87200,
,,,0.760000000000,   1.87200,
,,,0.770000000000,   1.88000,
,,,0.780000000000,   1.87200,
,,,0.790000000000,   1.86400,
,,,0.800000000000,   1.87200,
,,,0.810000000000,   1.86400,
,,,0.820000000000,   1.88000,
,,,0.830000000000,   1.88000,
,,,0.840000000000,   1.87200,
,,,0.850000000000,   1.87200,
,,,0.860000000000,   1.86400,
,,,0.870000000000,   1.87200,
,,,0.880000000000,   1.86400,
,,,0.890000000000,   1.87200,
,,,0.900000000000,   1.87200,
,,,0.910000000000,   1.87200,
,,,0.920000000000,   1.87200,
,,,0.930000000000,   1.87200,
,,,0.940000000000,   1.88000,
,,,0.950000000000,   1.85600,
,,,0.960000000000,   1.87200,
,,,0.970000000000,   1.86400,
,,,0.980000000000,   1.88000,
,,,0.990000000000,   1.87200,
,,,1.000000000000,   1.87200,
,,,1.010000000000,   1.87200,
,,,1.020000000000,   1.87200,
,,,1.030000000000,   1.86400,
,,,1.040000000000,   1.86400,
,,,1.050000000000,   1.87200,
,,,1.060000000000,   1.88000,
,,,1.070000000000,   1.87200,
,,,1.080000000000,   1.88000,
,,,1.090000000000,   1.87200,
,,,1.100000000000,   1.88000,
,,,1.110000000000,   1.86400,
,,,1.120000000000,   1.88000,
,,,1.130000000000,   1.88000,
,,,1.140000000000,   1.87200,
,,,1.150000000000,   1.88000,
,,,1.160000000000,   1.88800,
,,,1.170000000000,   1.86400,
,,,1.180000000000,   1.87200,
,,,1.190000000000,   1.88000,
,,,1.200000000000,   1.87200,
,,,1.210000000000,   1.87200,
,,,1.220000000000,   1.87200,
,,,1.230000000000,   1.87200,
,,,1.240000000000,   1.86400,
,,,1.250000000000,   1.85600,
,,,1.260000000000,   1.87200,
,,,1.270000000000,   1.87200,
,,,1.280000000000,   1.87200,
,,,1.290000000000,   1.88000,
,,,1.300000000000,   1.87200,
,,,1.310000000000,   1.88000,
,,,1.320000000000,   1.88800,
,,,1.330000000000,   1.88000,
,,,1.340000000000,   1.88800,
,,,1.350000000000,   1.88000,
,,,1.360000000000,   1.88000,
,,,1.370000000000,   1.87200,
,,,1.380000000000,   1.87200,
,,,1.390000000000,   1.88800,
,,,1.400000000000,   1.88800,
,,,1.410000000000,   1.87200,
,,,1.420000000000,   1.88800,
,,,1.430000000000,   1.87200,
,,,1.440000000000,   1.88800,
,,,1.450000000000,   1.88800,
,,,1.460000000000,   1.87200,
,,,1.470000000000,   1.87200,
,,,1.480000000000,   1.88000,
,,,1.490000000000,   1.88000,
,,,1.500000000000,   1.88800,
,,,1.510000000000,   1.88800,
,,,1.520000000000,   1.86400,
,,,1.530000000000,   1.88800,
,,,1.540000000000,   1.87200,
,,,1.550000000000,   1.88800,
,,,1.560000000000,   1.88000,
,,,1.570000000000,   1.88000,
,,,1.580000000000,   1.88800,
,,,1.590000000000,   1.87200,
,,,1.600000000000,   1.87200,
,,,1.610000000000,   1.88000,
,,,1.620000000000,   1.88000,
,,,1.630000000000,   1.88000,
,,,1.640000000000,   1.88800,
,,,1.650000000000,   1.89600,
,,,1.660000000000,   1.88000,
,,,1.670000000000,   1.88800,
,,,1.680000000000,   1.88800,
,,,1.690000000000,   1.87200,
,,,1.700000000000,   1.88800,
,,,1.710000000000,   1.88800,
,,,1.720000000000,   1.88800,
,,,1.730000000000,   1.88000,
,,,1.740000000000,   1.87200,
,,,1.750000000000,   1.87200,
,,,1.760000000000,   1.87200,
,,,1.770000000000,   1.87200,
,,,1.780000000000,   1.87200,
,,,1.790000000000,   1.87200,
,,,1.800000000000,   1.86400,
,,,1.810000000000,   1.87200,
,,,1.820000000000,   1.87200,
,,,1.830000000000,   1.86400,
,,,1.840000000000,   1.87200,
,,,1.850000000000,   1.88000,
,,,1.860000000000,   1.88000,
,,,1.870000000000,   1.87200,
,,,1.880000000000,   1.87200,
,,,1.890000000000,   1.88000,
,,,1.900000000000,   1.86400,
,,,1.910000000000,   1.86400,
,,,1.920000000000,   1.87200,
,,,1.930000000000,   1.86400,
,,,1.940000000000,   1.88800,
,,,1.950000000000,   1.86400,
,,,1.960000000000,   1.87200,
,,,1.970000000000,   1.88000,
,,,1.980000000000,   1.87200,
,,,1.990000000000,   1.87200,
,,,2.000000000000,   1.88000,
,,,2.010000000000,   1.88800,
,,,2.020000000000,   1.86400,
,,,2.030000000000,   1.88000,
,,,2.040000000000,   1.87200,
,,,2.050000000000,   1.87200,
,,,2.060000000000,   1.87200,
,,,2.070000000000,   1.88800,
,,,2.080000000000,   1.88000,
,,,2.090000000000,   1.86400,
,,,2.100000000000,   1.86400,
,,,2.110000000000,   1.88000,
,,,2.120000000000,   1.87200,
,,,2.130000000000,   1.87200,
,,,2.140000000000,   1.86400,
,,,2.150000000000,   1.86400,
,,,2.160000000000,   1.87200,
,,,2.170000000000,   1.86400,
,,,2.180000000000,   1.88000,
,,,2.190000000000,   1.86400,
,,,2.200000000000,   1.88000,
,,,2.210000000000,   1.87200,
,,,2.220000000000,   1.87200,
,,,2.230000000000,   1.85600,
,,,2.240000000000,   1.87200,
,,,2.250000000000,   1.88000,
,,,2.260000000000,   1.88000,
,,,2.270000000000,   1.86400,
,,,2.280000000000,   1.88000,
,,,2.290000000000,   1.88000,
,,,2.300000000000,   1.86400,
,,,2.310000000000,   1.88800,
,,,2.320000000000,   1.88000,
,,,2.330000000000,   1.87200,
,,,2.340000000000,   1.88000,
,,,2.350000000000,   1.87200,
,,,2.360000000000,   1.88000,
,,,2.370000000000,   1.86400,
,,,2.380000000000,   1.87200,
,,,2.390000000000,   1.88000,
,,,2.400000000000,   1.87200,
,,,2.410000000000,   1.87200,
,,,2.420000000000,   1.87200,
,,,2.430000000000,   1.88800,
,,,2.440000000000,   1.87200,
,,,2.450000000000,   1.89600,
,,,2.460000000000,   1.88000,
,,,2.470000000000,   1.86400,
,,,2.480000000000,   1.86400,
,,,2.490000000000,   1.88000,
,,,2.500000000000,   1.87200,
,,,2.510000000000,   1.88000,
,,,2.520000000000,   1.86400,
,,,2.530000000000,   1.86400,
,,,2.540000000000,   1.87200,
,,,2.550000000000,   1.88000,
,,,2.560000000000,   1.87200,
,,,2.570000000000,   1.87200,
,,,2.580000000000,   1.86400,
,,,2.590000000000,   1.86400,
,,,2.600000000000,   1.86400,
,,,2.610000000000,   1.88000,
,,,2.620000000000,   1.85600,
,,,2.630000000000,   1.87200,
,,,2.640000000000,   1.88000,
,,,2.650000000000,   1.87200,
,,,2.660000000000,   1.87200,
,,,2.670000000000,   1.87200,
,,,2.680000000000,   1.87200,
,,,2.690000000000,   1.85600,
,,,2.700000000000,   1.88000,
,,,2.710000000000,   1.88000,
,,,2.720000000000,   1.87200,
,,,2.730000000000,   1.87200,
,,,2.740000000000,   1.88000,
,,,2.750000000000,   1.86400,
,,,2.760000000000,   1.86400,
,,,2.770000000000,   1.87200,
,,,2.780000000000,   1.87200,
,,,2.790000000000,   1.87200,
,,,2.800000000000,   1.87200,
,,,2.810000000000,   1.85600,
,,,2.820000000000,   1.87200,
,,,2.830000000000,   1.87200,
,,,2.840000000000,   1.86400,
,,,2.850000000000,   1.85600,
,,,2.860000000000,   1.87200,
,,,2.870000000000,   1.87200,
,,,2.880000000000,   1.86400,
,,,2.890000000000,   1.87200,
,,,2.900000000000,   1.88000,
,,,2.910000000000,   1.87200,
,,,2.920000000000,   1.87200,
,,,2.930000000000,   1.86400,
,,,2.940000000000,   1.87200,
,,,2.950000000000,   1.88000,
,,,2.960000000000,   1.88000,
,,,2.970000000000,   1.87200,
,,,2.980000000000,   1.88000,
,,,2.990000000000,   1.86400,
,,,3.000000000000,   1.87200,
,,,3.010000000000,   1.87200,
,,,3.020000000000,   1.88000,
,,,3.030000000000,   1.87200,
,,,3.040000000000,   1.88000,
,,,3.050000000000,   1.88000,
,,,3.060000000000,   1.86400,
,,,3.070000000000,   1.88000,
,,,3.080000000000,   1.87200,
,,,3.090000000000,   1.87200,
,,,3.100000000000,   1.87200,
,,,3.110000000000,   1.87200,
,,,3.120000000000,   1.88000,
,,,3.130000000000,   1.87200,
,,,3.140000000000,   1.85600,
,,,3.150000000000,   1.86400,
,,,3.160000000000,   1.88000,
,,,3.170000000000,   1.88000,
,,,3.180000000000,   1.87200,
,,,3.190000000000,   1.88000,
,,,3.200000000000,   1.88800,
,,,3.210000000000,   1.88000,
,,,3.220000000000,   1.87200,
,,,3.230000000000,   1.88000,
,,,3.240000000000,   1.88000,
,,,3.250000000000,   1.89600,
,,,3.260000000000,   1.86400,
,,,3.270000000000,   1.87200,
,,,3.280000000000,   1.88000,
,,,3.290000000000,   1.88000,
,,,3.300000000000,   1.88000,
,,,3.310000000000,   1.88800,
,,,3.320000000000,   1.88000,
,,,3.330000000000,   1.88800,
,,,3.340000000000,   1.88800,
,,,3.350000000000,   1.89600,
,,,3.360000000000,   1.88000,
,,,3.370000000000,   1.88800,
,,,3.380000000000,   1.88000,
,,,3.390000000000,   1.88800,
,,,3.400000000000,   1.88800,
,,,3.410000000000,   1.89600,
,,,3.420000000000,   1.88800,
,,,3.430000000000,   1.87200,
,,,3.440000000000,   1.88800,
,,,3.450000000000,   1.88800,
,,,3.460000000000,   1.88800,
,,,3.470000000000,   1.88800,
,,,3.480000000000,   1.88000,
,,,3.490000000000,   1.89600,
,,,3.500000000000,   1.87200,
,,,3.510000000000,   1.87200,
,,,3.520000000000,   1.88000,
,,,3.530000000000,   1.87200,
,,,3.540000000000,   1.87200,
,,,3.550000000000,   1.88000,
,,,3.560000000000,   1.88800,
,,,3.570000000000,   1.87200,
,,,3.580000000000,   1.88800,
,,,3.590000000000,   1.87200,
,,,3.600000000000,   1.88000,
,,,3.610000000000,   1.88000,
,,,3.620000000000,   1.87200,
,,,3.630000000000,   1.88000,
,,,3.640000000000,   1.88800,
,,,3.650000000000,   1.88000,
,,,3.660000000000,   1.87200,
,,,3.670000000000,   1.88800,
,,,3.680000000000,   1.88800,
,,,3.690000000000,   1.87200,
,,,3.700000000000,   1.88800,
,,,3.710000000000,   1.87200,
,,,3.720000000000,   1.87200,
,,,3.730000000000,   1.88800,
,,,3.740000000000,   1.86400,
,,,3.750000000000,   1.86400,
,,,3.760000000000,   1.88000,
,,,3.770000000000,   1.88000,
,,,3.780000000000,   1.86400,
,,,3.790000000000,   1.87200,
,,,3.800000000000,   1.88800,
,,,3.810000000000,   1.89600,
,,,3.820000000000,   1.92000,
,,,3.830000000000,   1.93600,
,,,3.840000000000,   1.96000,
,,,3.850000000000,   1.99200,
,,,3.860000000000,   2.03200,
,,,3.870000000000,   2.06400,
,,,3.880000000000,   2.08800,
,,,3.890000000000,   2.11200,
,,,3.900000000000,   2.12800,
,,,3.910000000000,   2.14400,
,,,3.920000000000,   2.16800,
,,,3.930000000000,   2.16800,
,,,3.940000000000,   2.20800,
,,,3.950000000000,   2.21600,
,,,3.960000000000,   2.22400,
,,,3.970000000000,   2.22400,
,,,3.980000000000,   2.22400,
,,,3.990000000000,   2.24000,
,,,4.000000000000,   2.24000,
,,,4.010000000000,   2.23200,
,,,4.020000000000,   2.24800,
,,,4.030000000000,   2.25600,
,,,4.040000000000,   2.26400,
,,,4.050000000000,   2.25600,
,,,4.060000000000,   2.27200,
,,,4.070000000000,   2.27200,
,,,4.080000000000,   2.27200,
,,,4.090000000000,   2.28000,
,,,4.100000000000,   2.28000,
,,,4.110000000000,   2.27200,
,,,4.120000000000,   2.25600,
,,,4.130000000000,   2.26400,
,,,4.140000000000,   2.26400,
,,,4.150000000000,   2.25600,
,,,4.160000000000,   2.26400,
,,,4.170000000000,   2.25600,
,,,4.180000000000,   2.26400,
,,,4.190000000000,   2.24800,
,,,4.200000000000,   2.25600,
,,,4.210000000000,   2.24800,
,,,4.220000000000,   2.25600,
,,,4.230000000000,   2.24800,
,,,4.240000000000,   2.23200,
,,,4.250000000000,   2.23200,
,,,4.260000000000,   2.23200,
,,,4.270000000000,   2.23200,
,,,4.280000000000,   2.22400,
,,,4.290000000000,   2.24000,
,,,4.300000000000,   2.22400,
,,,4.310000000000,   2.20800,
,,,4.320000000000,   2.21600,
,,,4.330000000000,   2.20800,
,,,4.340000000000,   2.20800,
,,,4.350000000000,   2.20000,
,,,4.360000000000,   2.20800,
,,,4.370000000000,   2.20800,
,,,4.380000000000,   2.19200,
,,,4.390000000000,   2.18400,
,,,4.400000000000,   2.17600,
,,,4.410000000000,   2.17600,
,,,4.420000000000,   2.16800,
,,,4.430000000000,   2.16800,
,,,4.440000000000,   2.15200,
,,,4.450000000000,   2.15200,
,,,4.460000000000,   2.15200,
,,,4.470000000000,   2.14400,
,,,4.480000000000,   2.13600,
,,,4.490000000000,   2.14400,
,,,4.500000000000,   2.13600,
,,,4.510000000000,   2.12800,
,,,4.520000000000,   2.11200,
,,,4.530000000000,   2.11200,
,,,4.540000000000,   2.10400,
,,,4.550000000000,   2.11200,
,,,4.560000000000,   2.08800,
,,,4.570000000000,   2.09600,
,,,4.580000000000,   2.09600,
,,,4.590000000000,   2.08800,
,,,4.600000000000,   2.08800,
,,,4.610000000000,   2.07200,
,,,4.620000000000,   2.08000,
,,,4.630000000000,   2.06400,
,,,4.640000000000,   2.08000,
,,,4.650000000000,   2.07200,
,,,4.660000000000,   2.04800,
,,,4.670000000000,   2.06400,
,,,4.680000000000,   2.05600,
,,,4.690000000000,   2.06400,
,,,4.700000000000,   2.04000,
,,,4.710000000000,   2.04800,
,,,4.720000000000,   2.04800,
,,,4.730000000000,   2.04800,
,,,4.740000000000,   2.03200,
,,,4.750000000000,   2.02400,
,,,4.760000000000,   2.03200,
,,,4.770000000000,   2.03200,
,,,4.780000000000,   2.04800,
,,,4.790000000000,   2.04000,
,,,4.800000000000,   2.04000,
,,,4.810000000000,   2.04000,
,,,4.820000000000,   2.03200,
,,,4.830000000000,   2.04000,
,,,4.840000000000,   2.04000,
,,,4.850000000000,   2.04000,
,,,4.860000000000,   2.03200,
,,,4.870000000000,   2.02400,
,,,4.880000000000,   2.03200,
,,,4.890000000000,   2.03200,
,,,4.900000000000,   2.03200,
,,,4.910000000000,   2.02400,
,,,4.920000000000,   2.02400,
,,,4.930000000000,   2.00800,
,,,4.940000000000,   2.01600,
,,,4.950000000000,   2.00800,
,,,4.960000000000,   2.01600,
,,,4.970000000000,   2.01600,
,,,4.980000000000,   2.00000,
,,,4.990000000000,   2.00000,
,,,5.000000000000,   2.00000,
,,,5.010000000000,   1.98400,
,,,5.020000000000,   1.98400,
,,,5.030000000000,   1.98400,
,,,5.040000000000,   2.00000,
,,,5.050000000000,   2.00000,
,,,5.060000000000,   1.98400,
,,,5.070000000000,   1.98400,
,,,5.080000000000,   1.98400,
,,,5.090000000000,   1.98400,
,,,5.100000000000,   1.96800,
,,,5.110000000000,   1.98400,
,,,5.120000000000,   1.96000,
,,,5.130000000000,   1.96800,
,,,5.140000000000,   1.96000,
,,,5.150000000000,   1.96000,
,,,5.160000000000,   1.96000,
,,,5.170000000000,   1.95200,
,,,5.180000000000,   1.94400,
,,,5.190000000000,   1.94400,
,,,5.200000000000,   1.94400,
,,,5.210000000000,   1.93600,
,,,5.220000000000,   1.92800,
,,,5.230000000000,   1.92800,
,,,5.240000000000,   1.92800,
,,,5.250000000000,   1.92800,
,,,5.260000000000,   1.92000,
,,,5.270000000000,   1.91200,
,,,5.280000000000,   1.91200,
,,,5.290000000000,   1.89600,
,,,5.300000000000,   1.89600,
,,,5.310000000000,   1.91200,
,,,5.320000000000,   1.89600,
,,,5.330000000000,   1.89600,
,,,5.340000000000,   1.88800,
,,,5.350000000000,   1.88000,
,,,5.360000000000,   1.88000,
,,,5.370000000000,   1.87200,
,,,5.380000000000,   1.85600,
,,,5.390000000000,   1.85600,
,,,5.400000000000,   1.86400,
,,,5.410000000000,   1.84800,
,,,5.420000000000,   1.84800,
,,,5.430000000000,   1.84800,
,,,5.440000000000,   1.84000,
,,,5.450000000000,   1.83200,
,,,5.460000000000,   1.84000,
,,,5.470000000000,   1.84000,
,,,5.480000000000,   1.82400,
,,,5.490000000000,   1.83200,
,,,5.500000000000,   1.82400,
,,,5.510000000000,   1.82400,
,,,5.520000000000,   1.81600,
,,,5.530000000000,   1.81600,
,,,5.540000000000,   1.80800,
,,,5.550000000000,   1.80000,
,,,5.560000000000,   1.80000,
,,,5.570000000000,   1.78400,
,,,5.580000000000,   1.78400,
,,,5.590000000000,   1.78400,
,,,5.600000000000,   1.77600,
,,,5.610000000000,   1.78400,
,,,5.620000000000,   1.77600,
,,,5.630000000000,   1.76800,
,,,5.640000000000,   1.75200,
,,,5.650000000000,   1.75200,
,,,5.660000000000,   1.75200,
,,,5.670000000000,   1.74400,
,,,5.680000000000,   1.75200,
,,,5.690000000000,   1.73600,
,,,5.700000000000,   1.75200,
,,,5.710000000000,   1.75200,
,,,5.720000000000,   1.73600,
,,,5.730000000000,   1.71200,
,,,5.740000000000,   1.72800,
,,,5.750000000000,   1.72800,
,,,5.760000000000,   1.71200,
,,,5.770000000000,   1.72800,
,,,5.780000000000,   1.71200,
,,,5.790000000000,   1.71200,
,,,5.800000000000,   1.70400,
,,,5.810000000000,   1.69600,
,,,5.820000000000,   1.71200,
,,,5.830000000000,   1.68800,
,,,5.840000000000,   1.68000,
,,,5.850000000000,   1.68000,
,,,5.860000000000,   1.68000,
,,,5.870000000000,   1.67200,
,,,5.880000000000,   1.67200,
,,,5.890000000000,   1.67200,
,,,5.900000000000,   1.66400,
,,,5.910000000000,   1.64800,
,,,5.920000000000,   1.66400,
,,,5.930000000000,   1.65600,
,,,5.940000000000,   1.64800,
,,,5.950000000000,   1.64800,
,,,5.960000000000,   1.64000,
,,,5.970000000000,   1.64000,
,,,5.980000000000,   1.64000,
,,,5.990000000000,   1.64000,
,,,6.000000000000,   1.62400,
,,,6.010000000000,   1.61600,
,,,6.020000000000,   1.62400,
,,,6.030000000000,   1.63200,
,,,6.040000000000,   1.62400,
,,,6.050000000000,   1.60800,
,,,6.060000000000,   1.62400,
,,,6.070000000000,   1.62400,
,,,6.080000000000,   1.60000,
,,,6.090000000000,   1.60800,
,,,6.100000000000,   1.60800,
,,,6.110000000000,   1.60800,
,,,6.120000000000,   1.60000,
,,,6.130000000000,   1.59200,
,,,6.140000000000,   1.60000,
,,,6.150000000000,   1.58400,
,,,6.160000000000,   1.60000,
,,,6.170000000000,   1.59200,
,,,6.180000000000,   1.57600,
,,,6.190000000000,   1.56800,
,,,6.200000000000,   1.59200,
,,,6.210000000000,   1.56800,
,,,6.220000000000,   1.56800,
,,,6.230000000000,   1.56800,
,,,6.240000000000,   1.56000,
,,,6.250000000000,   1.56800,
,,,6.260000000000,   1.55200,
,,,6.270000000000,   1.56000,
,,,6.280000000000,   1.56000,
,,,6.290000000000,   1.55200,
,,,6.300000000000,   1.53600,
,,,6.310000000000,   1.54400,
,,,6.320000000000,   1.54400,
,,,6.330000000000,   1.53600,
,,,6.340000000000,   1.54400,
,,,6.350000000000,   1.52000,
,,,6.360000000000,   1.52800,
,,,6.370000000000,   1.53600,
,,,6.380000000000,   1.52000,
,,,6.390000000000,   1.53600,
,,,6.400000000000,   1.52800,
,,,6.410000000000,   1.51200,
,,,6.420000000000,   1.52800,
,,,6.430000000000,   1.52000,
,,,6.440000000000,   1.49600,
,,,6.450000000000,   1.51200,
,,,6.460000000000,   1.50400,
,,,6.470000000000,   1.50400,
,,,6.480000000000,   1.48800,
,,,6.490000000000,   1.48800,
,,,6.500000000000,   1.48800,
,,,6.510000000000,   1.49600,
,,,6.520000000000,   1.48000,
,,,6.530000000000,   1.48800,
