ipy_notebooks/20161031/F0014CH1.CSV

Record Length,2.500000e+03,,   0.000000000000,   0.11680,
Sample Interval,2.000000e-02,,   0.020000000000,   0.12560,
Trigger Point,-0.000000000000e+00,,   0.040000000000,   0.11760,
,,,   0.060000000000,   0.12240,
,,,   0.080000000000,   0.12240,
,,,   0.100000000000,   0.11440,
Source,CH1,,   0.120000000000,   0.12880,
Vertical Units,V,,   0.140000000000,   0.11200,
Vertical Scale,2.000000e-02,,   0.160000000000,   0.12560,
Vertical Offset,-1.424000e-01,,   0.180000000000,   0.11120,
Horizontal Units,s,,   0.200000000000,   0.11920,
Horizontal Scale,5.000000e+00,,   0.220000000000,   0.11840,
Pt Fmt,Y,,   0.240000000000,   0.11200,
Yzero,0.000000e+00,,   0.260000000000,   0.11280,
Probe Atten,1.000000e+00,,   0.280000000000,   0.12240,
Model Number,TBS1072B-EDU,,   0.300000000000,   0.12480,
Serial Number,C010859,,   0.320000000000,   0.12240,
Firmware Version,FV:v4.06,,   0.340000000000,   0.12720,
,,,0.360000000000,   0.12240,
,,,0.380000000000,   0.12160,
,,,0.400000000000,   0.12400,
,,,0.420000000000,   0.11840,
,,,0.440000000000,   0.12240,
,,,0.460000000000,   0.12160,
,,,0.480000000000,   0.12480,
,,,0.500000000000,   0.11520,
,,,0.520000000000,   0.11280,
,,,0.540000000000,   0.11680,
,,,0.560000000000,   0.11280,
,,,0.580000000000,   0.12080,
,,,0.600000000000,   0.11440,
,,,0.620000000000,   0.11840,
,,,0.640000000000,   0.12480,
,,,0.660000000000,   0.11920,
,,,0.680000000000,   0.12640,
,,,0.700000000000,   0.10640,
,,,0.720000000000,   0.11920,
,,,0.740000000000,   0.12560,
,,,0.760000000000,   0.11760,
,,,0.780000000000,   0.11680,
,,,0.800000000000,   0.12240,
,,,0.820000000000,   0.12480,
,,,0.840000000000,   0.11840,
,,,0.860000000000,   0.12160,
,,,0.880000000000,   0.11840,
,,,0.900000000000,   0.12640,
,,,0.920000000000,   0.11760,
,,,0.940000000000,   0.11360,
,,,0.960000000000,   0.12320,
,,,0.980000000000,   0.11840,
,,,1.000000000000,   0.11360,
,,,1.020000000000,   0.11360,
,,,1.040000000000,   0.12720,
,,,1.060000000000,   0.11120,
,,,1.080000000000,   0.12400,
,,,1.100000000000,   0.10720,
,,,1.120000000000,   0.12080,
,,,1.140000000000,   0.11200,
,,,1.160000000000,   0.11120,
,,,1.180000000000,   0.12560,
,,,1.200000000000,   0.11120,
,,,1.220000000000,   0.11040,
,,,1.240000000000,   0.11840,
,,,1.260000000000,   0.12320,
,,,1.280000000000,   0.11360,
,,,1.300000000000,   0.12400,
,,,1.320000000000,   0.11760,
,,,1.340000000000,   0.11600,
,,,1.360000000000,   0.12480,
,,,1.380000000000,   0.11040,
,,,1.400000000000,   0.11920,
,,,1.420000000000,   0.11120,
,,,1.440000000000,   0.12160,
,,,1.460000000000,   0.11680,
,,,1.480000000000,   0.10960,
,,,1.500000000000,   0.12240,
,,,1.520000000000,   0.11200,
,,,1.540000000000,   0.11600,
,,,1.560000000000,   0.12240,
,,,1.580000000000,   0.11280,
,,,1.600000000000,   0.11840,
,,,1.620000000000,   0.11760,
,,,1.640000000000,   0.12400,
,,,1.660000000000,   0.11840,
,,,1.680000000000,   0.11920,
,,,1.700000000000,   0.12720,
,,,1.720000000000,   0.12480,
,,,1.740000000000,   0.12560,
,,,1.760000000000,   0.12320,
,,,1.780000000000,   0.12160,
,,,1.800000000000,   0.12080,
,,,1.820000000000,   0.11840,
,,,1.840000000000,   0.11440,
,,,1.860000000000,   0.11600,
,,,1.880000000000,   0.11360,
,,,1.900000000000,   0.12080,
,,,1.920000000000,   0.10960,
,,,1.940000000000,   0.12800,
,,,1.960000000000,   0.12240,
,,,1.980000000000,   0.11280,
,,,2.000000000000,   0.11680,
,,,2.020000000000,   0.11040,
,,,2.040000000000,   0.11360,
,,,2.060000000000,   0.11120,
,,,2.080000000000,   0.11600,
,,,2.100000000000,   0.12560,
,,,2.120000000000,   0.12240,
,,,2.140000000000,   0.11360,
,,,2.160000000000,   0.12480,
,,,2.180000000000,   0.11360,
,,,2.200000000000,   0.12800,
,,,2.220000000000,   0.11600,
,,,2.240000000000,   0.08960,
,,,2.260000000000,   0.12880,
,,,2.280000000000,   0.11280,
,,,2.300000000000,   0.12720,
,,,2.320000000000,   0.11280,
,,,2.340000000000,   0.11040,
,,,2.360000000000,   0.12640,
,,,2.380000000000,   0.12320,
,,,2.400000000000,   0.12000,
,,,2.420000000000,   0.11040,
,,,2.440000000000,   0.12400,
,,,2.460000000000,   0.11200,
,,,2.480000000000,   0.12240,
,,,2.500000000000,   0.11360,
,,,2.520000000000,   0.10720,
,,,2.540000000000,   0.11200,
,,,2.560000000000,   0.12240,
,,,2.580000000000,   0.12640,
,,,2.600000000000,   0.12320,
,,,2.620000000000,   0.10720,
,,,2.640000000000,   0.12000,
,,,2.660000000000,   0.12160,
,,,2.680000000000,   0.11920,
,,,2.700000000000,   0.12160,
,,,2.720000000000,   0.12800,
,,,2.740000000000,   0.12080,
,,,2.760000000000,   0.11920,
,,,2.780000000000,   0.10960,
,,,2.800000000000,   0.10880,
,,,2.820000000000,   0.11680,
,,,2.840000000000,   0.11040,
,,,2.860000000000,   0.11120,
,,,2.880000000000,   0.11360,
,,,2.900000000000,   0.11360,
,,,2.920000000000,   0.12320,
,,,2.940000000000,   0.11840,
,,,2.960000000000,   0.11120,
,,,2.980000000000,   0.11680,
,,,3.000000000000,   0.12080,
,,,3.020000000000,   0.11120,
,,,3.040000000000,   0.11200,
,,,3.060000000000,   0.11200,
,,,3.080000000000,   0.11200,
,,,3.100000000000,   0.10800,
,,,3.120000000000,   0.10880,
,,,3.140000000000,   0.12400,
,,,3.160000000000,   0.11840,
,,,3.180000000000,   0.12560,
,,,3.200000000000,   0.11040,
,,,3.220000000000,   0.10960,
,,,3.240000000000,   0.12480,
,,,3.260000000000,   0.12400,
,,,3.280000000000,   0.12400,
,,,3.300000000000,   0.12000,
,,,3.320000000000,   0.11840,
,,,3.340000000000,   0.12000,
,,,3.360000000000,   0.11040,
,,,3.380000000000,   0.12240,
,,,3.400000000000,   0.10640,
,,,3.420000000000,   0.11360,
,,,3.440000000000,   0.12800,
,,,3.460000000000,   0.11760,
,,,3.480000000000,   0.10800,
,,,3.500000000000,   0.11840,
,,,3.520000000000,   0.12560,
,,,3.540000000000,   0.11600,
,,,3.560000000000,   0.11040,
,,,3.580000000000,   0.11120,
,,,3.600000000000,   0.12560,
,,,3.620000000000,   0.12240,
,,,3.640000000000,   0.11280,
,,,3.660000000000,   0.12080,
,,,3.680000000000,   0.11360,
,,,3.700000000000,   0.12080,
,,,3.720000000000,   0.12560,
,,,3.740000000000,   0.12720,
,,,3.760000000000,   0.12240,
,,,3.780000000000,   0.12000,
,,,3.800000000000,   0.10880,
,,,3.820000000000,   0.11840,
,,,3.840000000000,   0.11120,
,,,3.860000000000,   0.12160,
,,,3.880000000000,   0.12160,
,,,3.900000000000,   0.12320,
,,,3.920000000000,   0.12800,
,,,3.940000000000,   0.11280,
,,,3.960000000000,   0.10880,
,,,3.980000000000,   0.12480,
,,,4.000000000000,   0.11040,
,,,4.020000000000,   0.11840,
,,,4.040000000000,   0.11760,
,,,4.060000000000,   0.11840,
,,,4.080000000000,   0.12000,
,,,4.100000000000,   0.11040,
,,,4.120000000000,   0.12640,
,,,4.140000000000,   0.11120,
,,,4.160000000000,   0.11040,
,,,4.180000000000,   0.12000,
,,,4.200000000000,   0.11040,
,,,4.220000000000,   0.11360,
,,,4.240000000000,   0.11840,
,,,4.260000000000,   0.11200,
,,,4.280000000000,   0.11280,
,,,4.300000000000,   0.11760,
,,,4.320000000000,   0.11280,
,,,4.340000000000,   0.12880,
,,,4.360000000000,   0.12000,
,,,4.380000000000,   0.12080,
,,,4.400000000000,   0.11920,
,,,4.420000000000,   0.11600,
,,,4.440000000000,   0.11840,
,,,4.460000000000,   0.12240,
,,,4.480000000000,   0.12000,
,,,4.500000000000,   0.11920,
,,,4.520000000000,   0.11120,
,,,4.540000000000,   0.12080,
,,,4.560000000000,   0.11680,
,,,4.580000000000,   0.12160,
,,,4.600000000000,   0.12640,
,,,4.620000000000,   0.12080,
,,,4.640000000000,   0.11200,
,,,4.660000000000,   0.12640,
,,,4.680000000000,   0.11200,
,,,4.700000000000,   0.11200,
,,,4.720000000000,   0.12640,
,,,4.740000000000,   0.12480,
,,,4.760000000000,   0.11200,
,,,4.780000000000,   0.11360,
,,,4.800000000000,   0.11600,
,,,4.820000000000,   0.12400,
,,,4.840000000000,   0.12400,
,,,4.860000000000,   0.12800,
,,,4.880000000000,   0.11920,
,,,4.900000000000,   0.12720,
,,,4.920000000000,   0.11040,
,,,4.940000000000,   0.12480,
,,,4.960000000000,   0.11520,
,,,4.980000000000,   0.11600,
,,,5.000000000000,   0.12880,
,,,5.020000000000,   0.10720,
,,,5.040000000000,   0.11200,
,,,5.060000000000,   0.10960,
,,,5.080000000000,   0.12320,
,,,5.100000000000,   0.12720,
,,,5.120000000000,   0.10960,
,,,5.140000000000,   0.12560,
,,,5.160000000000,   0.10960,
,,,5.180000000000,   0.12480,
,,,5.200000000000,   0.11920,
,,,5.220000000000,   0.11040,
,,,5.240000000000,   0.10960,
,,,5.260000000000,   0.11360,
,,,5.280000000000,   0.10880,
,,,5.300000000000,   0.12480,
,,,5.320000000000,   0.10960,
,,,5.340000000000,   0.12320,
,,,5.360000000000,   0.12560,
,,,5.380000000000,   0.11680,
,,,5.400000000000,   0.12560,
,,,5.420000000000,   0.11680,
,,,5.440000000000,   0.11760,
,,,5.460000000000,   0.11680,
,,,5.480000000000,   0.11280,
,,,5.500000000000,   0.12480,
,,,5.520000000000,   0.12240,
,,,5.540000000000,   0.11440,
,,,5.560000000000,   0.12720,
,,,5.580000000000,   0.11280,
,,,5.600000000000,   0.11680,
,,,5.620000000000,   0.11760,
,,,5.640000000000,   0.11760,
,,,5.660000000000,   0.11680,
,,,5.680000000000,   0.11680,
,,,5.700000000000,   0.11200,
,,,5.720000000000,   0.11760,
,,,5.740000000000,   0.12800,
,,,5.760000000000,   0.11600,
,,,5.780000000000,   0.11760,
,,,5.800000000000,   0.12400,
,,,5.820000000000,   0.12960,
,,,5.840000000000,   0.11280,
,,,5.860000000000,   0.11200,
,,,5.880000000000,   0.12400,
,,,5.900000000000,   0.11040,
,,,5.920000000000,   0.11680,
,,,5.940000000000,   0.12720,
,,,5.960000000000,   0.11840,
,,,5.980000000000,   0.12320,
,,,6.000000000000,   0.11360,
,,,6.020000000000,   0.12720,
,,,6.040000000000,   0.12640,
,,,6.060000000000,   0.11120,
,,,6.080000000000,   0.10720,
,,,6.100000000000,   0.11840,
,,,6.120000000000,   0.11680,
,,,6.140000000000,   0.11760,
,,,6.160000000000,   0.11840,
,,,6.180000000000,   0.12400,
,,,6.200000000000,   0.11360,
,,,6.220000000000,   0.11440,
,,,6.240000000000,   0.12400,
,,,6.260000000000,   0.12240,
,,,6.280000000000,   0.12560,
,,,6.300000000000,   0.10960,
,,,6.320000000000,   0.11360,
,,,6.340000000000,   0.11680,
,,,6.360000000000,   0.12240,
,,,6.380000000000,   0.11120,
,,,6.400000000000,   0.12720,
,,,6.420000000000,   0.11280,
,,,6.440000000000,   0.11280,
,,,6.460000000000,   0.11360,
,,,6.480000000000,   0.11120,
,,,6.500000000000,   0.11120,
,,,6.520000000000,   0.12720,
,,,6.540000000000,   0.12320,
,,,6.560000000000,   0.11840,
,,,6.580000000000,   0.11760,
,,,6.600000000000,   0.12880,
,,,6.620000000000,   0.11200,
,,,6.640000000000,   0.12720,
,,,6.660000000000,   0.10960,
,,,6.680000000000,   0.12640,
,,,6.700000000000,   0.12640,
,,,6.720000000000,   0.11440,
,,,6.740000000000,   0.12480,
,,,6.760000000000,   0.11840,
,,,6.780000000000,   0.12240,
,,,6.800000000000,   0.10960,
,,,6.820000000000,   0.11360,
,,,6.840000000000,   0.12320,
,,,6.860000000000,   0.12480,
,,,6.880000000000,   0.12880,
,,,6.900000000000,   0.12240,
,,,6.920000000000,   0.12720,
,,,6.940000000000,   0.11280,
,,,6.960000000000,   0.11360,
,,,6.980000000000,   0.10880,
,,,7.000000000000,   0.12560,
,,,7.020000000000,   0.11520,
,,,7.040000000000,   0.11040,
,,,7.060000000000,   0.12240,
,,,7.080000000000,   0.11040,
,,,7.100000000000,   0.12400,
,,,7.120000000000,   0.12240,
,,,7.140000000000,   0.12320,
,,,7.160000000000,   0.11600,
,,,7.180000000000,   0.12720,
,,,7.200000000000,   0.11200,
,,,7.220000000000,   0.11360,
,,,7.240000000000,   0.11760,
,,,7.260000000000,   0.12000,
,,,7.280000000000,   0.12640,
,,,7.300000000000,   0.11840,
,,,7.320000000000,   0.11840,
,,,7.340000000000,   0.11760,
,,,7.360000000000,   0.11360,
,,,7.380000000000,   0.12480,
,,,7.400000000000,   0.11200,
,,,7.420000000000,   0.10800,
,,,7.440000000000,   0.11440,
,,,7.460000000000,   0.11360,
,,,7.480000000000,   0.12320,
,,,7.500000000000,   0.12000,
,,,7.520000000000,   0.12640,
,,,7.540000000000,   0.11280,
,,,7.560000000000,   0.12480,
,,,7.580000000000,   0.12320,
,,,7.600000000000,   0.11200,
,,,7.620000000000,   0.12320,
,,,7.640000000000,   0.11600,
,,,7.660000000000,   0.11200,
,,,7.680000000000,   0.10720,
,,,7.700000000000,   0.11200,
,,,7.720000000000,   0.12640,
,,,7.740000000000,   0.11200,
,,,7.760000000000,   0.11200,
,,,7.780000000000,   0.12320,
,,,7.800000000000,   0.11200,
,,,7.820000000000,   0.12640,
,,,7.840000000000,   0.11200,
,,,7.860000000000,   0.11200,
,,,7.880000000000,   0.12160,
,,,7.900000000000,   0.12080,
,,,7.920000000000,   0.11200,
,,,7.940000000000,   0.11120,
,,,7.960000000000,   0.12320,
,,,7.980000000000,   0.11600,
,,,8.000000000000,   0.12720,
,,,8.020000000000,   0.12480,
,,,8.040000000000,   0.12720,
,,,8.060000000000,   0.12080,
,,,8.080000000000,   0.11120,
,,,8.100000000000,   0.11040,
,,,8.120000000000,   0.10880,
,,,8.140000000000,   0.11920,
,,,8.160000000000,   0.11440,
,,,8.180000000000,   0.12320,
,,,8.200000000000,   0.12320,
,,,8.220000000000,   0.12160,
,,,8.240000000000,   0.12560,
,,,8.260000000000,   0.12240,
,,,8.280000000000,   0.12800,
,,,8.300000000000,   0.10880,
,,,8.320000000000,   0.12080,
,,,8.340000000000,   0.12080,
,,,8.360000000000,   0.11840,
,,,8.380000000000,   0.12320,
,,,8.400000000000,   0.12080,
,,,8.420000000000,   0.11840,
,,,8.440000000000,   0.12000,
,,,8.460000000000,   0.12480,
,,,8.480000000000,   0.12480,
,,,8.500000000000,   0.11200,
,,,8.520000000000,   0.12240,
,,,8.540000000000,   0.11200,
,,,8.560000000000,   0.13040,
,,,8.580000000000,   0.11360,
,,,8.600000000000,   0.11040,
,,,8.620000000000,   0.11920,
,,,8.640000000000,   0.12720,
,,,8.660000000000,   0.12240,
,,,8.680000000000,   0.12320,
,,,8.700000000000,   0.11840,
,,,8.720000000000,   0.11360,
,,,8.740000000000,   0.11520,
,,,8.760000000000,   0.12720,
,,,8.780000000000,   0.13200,
,,,8.800000000000,   0.12480,
,,,8.820000000000,   0.13280,
,,,8.840000000000,   0.12480,
,,,8.860000000000,   0.11280,
,,,8.880000000000,   0.13040,
,,,8.900000000000,   0.13360,
,,,8.920000000000,   0.12080,
,,,8.940000000000,   0.11840,
,,,8.960000000000,   0.13680,
,,,8.980000000000,   0.13440,
,,,9.000000000000,   0.13040,
,,,9.020000000000,   0.12800,
,,,9.040000000000,   0.13200,
,,,9.060000000000,   0.13040,
,,,9.080000000000,   0.13520,
,,,9.100000000000,   0.11840,
,,,9.120000000000,   0.12000,
,,,9.140000000000,   0.13120,
,,,9.160000000000,   0.11760,
,,,9.180000000000,   0.12080,
,,,9.200000000000,   0.13680,
,,,9.220000000000,   0.13600,
,,,9.240000000000,   0.12000,
,,,9.260000000000,   0.12720,
,,,9.280000000000,   0.12800,
,,,9.300000000000,   0.11840,
,,,9.320000000000,   0.12320,
,,,9.340000000000,   0.13440,
,,,9.360000000000,   0.13440,
,,,9.380000000000,   0.13840,
,,,9.400000000000,   0.12080,
,,,9.420000000000,   0.12720,
,,,9.440000000000,   0.12240,
,,,9.460000000000,   0.11920,
,,,9.480000000000,   0.13600,
,,,9.500000000000,   0.13680,
,,,9.520000000000,   0.13040,
,,,9.540000000000,   0.13280,
,,,9.560000000000,   0.12240,
,,,9.580000000000,   0.13680,
,,,9.600000000000,   0.12560,
,,,9.620000000000,   0.12960,
,,,9.640000000000,   0.12960,
,,,9.660000000000,   0.14160,
,,,9.680000000000,   0.13680,
,,,9.700000000000,   0.12480,
,,,9.720000000000,   0.13840,
,,,9.740000000000,   0.13440,
,,,9.760000000000,   0.12080,
,,,9.780000000000,   0.13680,
,,,9.800000000000,   0.13040,
,,,9.820000000000,   0.12480,
,,,9.840000000000,   0.13120,
,,,9.860000000000,   0.12800,
,,,9.880000000000,   0.12400,
,,,9.900000000000,   0.12640,
,,,9.920000000000,   0.14000,
,,,9.940000000000,   0.13600,
,,,9.960000000000,   0.14560,
,,,9.980000000000,   0.14080,
,,,10.000000000000,   0.14480,
,,,10.020000000000,   0.13840,
,,,10.040000000000,   0.13440,
,,,10.060000000000,   0.12880,
,,,10.080000000000,   0.13600,
,,,10.100000000000,   0.12960,
,,,10.120000000000,   0.13280,
,,,10.140000000000,   0.11760,
,,,10.160000000000,   0.13760,
,,,10.180000000000,   0.12720,
,,,10.200000000000,   0.13760,
,,,10.220000000000,   0.12720,
,,,10.240000000000,   0.14160,
,,,10.260000000000,   0.14160,
,,,10.280000000000,   0.13360,
,,,10.300000000000,   0.12400,
,,,10.320000000000,   0.12320,
,,,10.340000000000,   0.14240,
,,,10.360000000000,   0.12960,
,,,10.380000000000,   0.13840,
,,,10.400000000000,   0.13360,
,,,10.420000000000,   0.12640,
,,,10.440000000000,   0.12560,
,,,10.460000000000,   0.13200,
,,,10.480000000000,   0.14880,
,,,10.500000000000,   0.14480,
,,,10.520000000000,   0.14320,
,,,10.540000000000,   0.14080,
,,,10.560000000000,   0.13120,
,,,10.580000000000,   0.12640,
,,,10.600000000000,   0.12560,
,,,10.620000000000,   0.13360,
,,,10.640000000000,   0.13520,
,,,10.660000000000,   0.13360,
,,,10.680000000000,   0.12720,
,,,10.700000000000,   0.12080,
,,,10.720000000000,   0.12160,
,,,10.740000000000,   0.13120,
,,,10.760000000000,   0.12560,
,,,10.780000000000,   0.13200,
,,,10.800000000000,   0.13040,
,,,10.820000000000,   0.14160,
,,,10.840000000000,   0.12640,
,,,10.860000000000,   0.11680,
,,,10.880000000000,   0.12400,
,,,10.900000000000,   0.13280,
,,,10.920000000000,   0.13280,
,,,10.940000000000,   0.12320,
,,,10.960000000000,   0.13200,
,,,10.980000000000,   0.13680,
,,,11.000000000000,   0.12720,
,,,11.020000000000,   0.14480,
,,,11.040000000000,   0.12560,
,,,11.060000000000,   0.12960,
,,,11.080000000000,   0.12800,
,,,11.100000000000,   0.13120,
,,,11.120000000000,   0.13200,
,,,11.140000000000,   0.12560,
,,,11.160000000000,   0.12960,
,,,11.180000000000,   0.12240,
,,,11.200000000000,   0.12240,
,,,11.220000000000,   0.14720,
,,,11.240000000000,   0.13040,
,,,11.260000000000,   0.13360,
,,,11.280000000000,   0.12480,
,,,11.300000000000,   0.13840,
,,,11.320000000000,   0.12640,
,,,11.340000000000,   0.13360,
,,,11.360000000000,   0.13760,
,,,11.380000000000,   0.13840,
,,,11.400000000000,   0.13440,
,,,11.420000000000,   0.14720,
,,,11.440000000000,   0.13120,
,,,11.460000000000,   0.12240,
,,,11.480000000000,   0.12240,
,,,11.500000000000,   0.13120,
,,,11.520000000000,   0.13680,
,,,11.540000000000,   0.12640,
,,,11.560000000000,   0.13120,
,,,11.580000000000,   0.12720,
,,,11.600000000000,   0.12080,
,,,11.620000000000,   0.13200,
,,,11.640000000000,   0.11440,
,,,11.660000000000,   0.12400,
,,,11.680000000000,   0.12800,
,,,11.700000000000,   0.12560,
,,,11.720000000000,   0.13520,
,,,11.740000000000,   0.12400,
,,,11.760000000000,   0.14000,
,,,11.780000000000,   0.12880,
,,,11.800000000000,   0.12880,
,,,11.820000000000,   0.12000,
,,,11.840000000000,   0.13840,
,,,11.860000000000,   0.12480,
,,,11.880000000000,   0.12800,
,,,11.900000000000,   0.13760,
,,,11.920000000000,   0.13680,
,,,11.940000000000,   0.13040,
,,,11.960000000000,   0.12800,
,,,11.980000000000,   0.13840,
,,,12.000000000000,   0.13360,
,,,12.020000000000,   0.14240,
,,,12.040000000000,   0.12160,
,,,12.060000000000,   0.12560,
,,,12.080000000000,   0.13440,
,,,12.100000000000,   0.13360,
,,,12.120000000000,   0.12400,
,,,12.140000000000,   0.13200,
,,,12.160000000000,   0.12720,
,,,12.180000000000,   0.13040,
,,,12.200000000000,   0.13520,
,,,12.220000000000,   0.13120,
,,,12.240000000000,   0.13040,
,,,12.260000000000,   0.13120,
,,,12.280000000000,   0.12880,
,,,12.300000000000,   0.12240,
,,,12.320000000000,   0.12160,
,,,12.340000000000,   0.12240,
,,,12.360000000000,   0.13440,
,,,12.380000000000,   0.12560,
,,,12.400000000000,   0.14240,
,,,12.420000000000,   0.13440,
,,,12.440000000000,   0.13600,
,,,12.460000000000,   0.14000,
,,,12.480000000000,   0.13360,
,,,12.500000000000,   0.12720,
,,,12.520000000000,   0.11520,
,,,12.540000000000,   0.13040,
,,,12.560000000000,   0.12320,
,,,12.580000000000,   0.12240,
,,,12.600000000000,   0.13200,
,,,12.620000000000,   0.13600,
,,,12.640000000000,   0.11920,
,,,12.660000000000,   0.12880,
,,,12.680000000000,   0.13280,
,,,12.700000000000,   0.13280,
,,,12.720000000000,   0.12560,
,,,12.740000000000,   0.12720,
,,,12.760000000000,   0.14000,
,,,12.780000000000,   0.13520,
,,,12.800000000000,   0.12880,
,,,12.820000000000,   0.12800,
,,,12.840000000000,   0.12480,
,,,12.860000000000,   0.13360,
,,,12.880000000000,   0.13120,
,,,12.900000000000,   0.12480,
,,,12.920000000000,   0.12240,
,,,12.940000000000,   0.13120,
,,,12.960000000000,   0.13120,
