ipy_notebooks/GC/20161111_noon/F0047CH1.CSV

Record Length,2.500000e+03,,   0.000000000000,   0.55200,
Sample Interval,1.000000e-02,,   0.010000000000,   0.49600,
Trigger Point,-0.000000000000e+00,,   0.020000000000,   0.61200,
,,,   0.030000000000,   0.55200,
,,,   0.040000000000,   0.53200,
,,,   0.050000000000,   0.57600,
Source,CH1,,   0.060000000000,   0.50800,
Vertical Units,V,,   0.070000000000,   0.54800,
Vertical Scale,1.000000e-01,,   0.080000000000,   0.56800,
Vertical Offset,-7.560000e-01,,   0.090000000000,   0.50400,
Horizontal Units,s,,   0.100000000000,   0.50000,
Horizontal Scale,2.500000e+00,,   0.110000000000,   0.50800,
Pt Fmt,Y,,   0.120000000000,   0.52400,
Yzero,0.000000e+00,,   0.130000000000,   0.52800,
Probe Atten,1.000000e+00,,   0.140000000000,   0.66000,
Model Number,TBS1072B-EDU,,   0.150000000000,   0.49600,
Serial Number,C010859,,   0.160000000000,   0.50000,
Firmware Version,FV:v4.06,,   0.170000000000,   0.51200,
,,,0.180000000000,   0.52400,
,,,0.190000000000,   0.55200,
,,,0.200000000000,   0.52800,
,,,0.210000000000,   0.48400,
,,,0.220000000000,   0.50400,
,,,0.230000000000,   0.53200,
,,,0.240000000000,   0.58800,
,,,0.250000000000,   0.63200,
,,,0.260000000000,   0.50800,
,,,0.270000000000,   0.48400,
,,,0.280000000000,   0.53600,
,,,0.290000000000,   0.52400,
,,,0.300000000000,   0.65600,
,,,0.310000000000,   0.57600,
,,,0.320000000000,   0.48000,
,,,0.330000000000,   0.48800,
,,,0.340000000000,   0.50000,
,,,0.350000000000,   0.48400,
,,,0.360000000000,   0.46000,
,,,0.370000000000,   0.49200,
,,,0.380000000000,   0.54400,
,,,0.390000000000,   0.54800,
,,,0.400000000000,   0.57600,
,,,0.410000000000,   0.50800,
,,,0.420000000000,   0.49600,
,,,0.430000000000,   0.50400,
,,,0.440000000000,   0.52800,
,,,0.450000000000,   0.55600,
,,,0.460000000000,   0.52800,
,,,0.470000000000,   0.51600,
,,,0.480000000000,   0.50400,
,,,0.490000000000,   0.52400,
,,,0.500000000000,   0.54400,
,,,0.510000000000,   0.56000,
,,,0.520000000000,   0.48000,
,,,0.530000000000,   0.54400,
,,,0.540000000000,   0.57600,
,,,0.550000000000,   0.65200,
,,,0.560000000000,   0.50400,
,,,0.570000000000,   0.47600,
,,,0.580000000000,   0.46800,
,,,0.590000000000,   0.50800,
,,,0.600000000000,   0.60400,
,,,0.610000000000,   0.56400,
,,,0.620000000000,   0.67200,
,,,0.630000000000,   0.58000,
,,,0.640000000000,   0.56000,
,,,0.650000000000,   0.54400,
,,,0.660000000000,   0.55200,
,,,0.670000000000,   0.66800,
,,,0.680000000000,   0.53200,
,,,0.690000000000,   0.60400,
,,,0.700000000000,   0.57600,
,,,0.710000000000,   0.58000,
,,,0.720000000000,   0.60800,
,,,0.730000000000,   0.51200,
,,,0.740000000000,   0.54400,
,,,0.750000000000,   0.61200,
,,,0.760000000000,   0.56000,
,,,0.770000000000,   0.61200,
,,,0.780000000000,   0.51600,
,,,0.790000000000,   0.56400,
,,,0.800000000000,   0.52400,
,,,0.810000000000,   0.50000,
,,,0.820000000000,   0.54400,
,,,0.830000000000,   0.52400,
,,,0.840000000000,   0.48400,
,,,0.850000000000,   0.51600,
,,,0.860000000000,   0.52400,
,,,0.870000000000,   0.54400,
,,,0.880000000000,   0.52000,
,,,0.890000000000,   0.50800,
,,,0.900000000000,   0.51600,
,,,0.910000000000,   0.49200,
,,,0.920000000000,   0.48800,
,,,0.930000000000,   0.52400,
,,,0.940000000000,   0.51200,
,,,0.950000000000,   0.55200,
,,,0.960000000000,   0.56400,
,,,0.970000000000,   0.51600,
,,,0.980000000000,   0.51600,
,,,0.990000000000,   0.56000,
,,,1.000000000000,   0.60000,
,,,1.010000000000,   0.57600,
,,,1.020000000000,   0.54000,
,,,1.030000000000,   0.53600,
,,,1.040000000000,   0.53200,
,,,1.050000000000,   0.57200,
,,,1.060000000000,   0.55600,
,,,1.070000000000,   0.59600,
,,,1.080000000000,   0.52000,
,,,1.090000000000,   0.64000,
,,,1.100000000000,   0.52400,
,,,1.110000000000,   0.47600,
,,,1.120000000000,   0.49200,
,,,1.130000000000,   0.46800,
,,,1.140000000000,   0.49600,
,,,1.150000000000,   0.48000,
,,,1.160000000000,   0.53600,
,,,1.170000000000,   0.52000,
,,,1.180000000000,   0.52000,
,,,1.190000000000,   0.51600,
,,,1.200000000000,   0.49200,
,,,1.210000000000,   0.56400,
,,,1.220000000000,   0.53600,
,,,1.230000000000,   0.53600,
,,,1.240000000000,   0.53200,
,,,1.250000000000,   0.62400,
,,,1.260000000000,   0.54400,
,,,1.270000000000,   0.55200,
,,,1.280000000000,   0.56800,
,,,1.290000000000,   0.58800,
,,,1.300000000000,   0.55200,
,,,1.310000000000,   0.56400,
,,,1.320000000000,   0.51600,
,,,1.330000000000,   0.50400,
,,,1.340000000000,   0.52000,
,,,1.350000000000,   0.54400,
,,,1.360000000000,   0.64400,
,,,1.370000000000,   0.56000,
,,,1.380000000000,   0.55200,
,,,1.390000000000,   0.56400,
,,,1.400000000000,   0.52400,
,,,1.410000000000,   0.52400,
,,,1.420000000000,   0.56400,
,,,1.430000000000,   0.54400,
,,,1.440000000000,   0.49600,
,,,1.450000000000,   0.52400,
,,,1.460000000000,   0.49600,
,,,1.470000000000,   0.51600,
,,,1.480000000000,   0.50400,
,,,1.490000000000,   0.50800,
,,,1.500000000000,   0.48800,
,,,1.510000000000,   0.52400,
,,,1.520000000000,   0.55200,
,,,1.530000000000,   0.48400,
,,,1.540000000000,   0.47600,
,,,1.550000000000,   0.58800,
,,,1.560000000000,   0.51200,
,,,1.570000000000,   0.54000,
,,,1.580000000000,   0.58000,
,,,1.590000000000,   0.53600,
,,,1.600000000000,   0.57200,
,,,1.610000000000,   0.58000,
,,,1.620000000000,   0.64400,
,,,1.630000000000,   0.52400,
,,,1.640000000000,   0.48400,
,,,1.650000000000,   0.47200,
,,,1.660000000000,   0.50000,
,,,1.670000000000,   0.54800,
,,,1.680000000000,   0.50800,
,,,1.690000000000,   0.55600,
,,,1.700000000000,   0.53600,
,,,1.710000000000,   0.49200,
,,,1.720000000000,   0.52400,
,,,1.730000000000,   0.54000,
,,,1.740000000000,   0.57200,
,,,1.750000000000,   0.53600,
,,,1.760000000000,   0.48800,
,,,1.770000000000,   0.54400,
,,,1.780000000000,   0.47600,
,,,1.790000000000,   0.47600,
,,,1.800000000000,   0.48400,
,,,1.810000000000,   0.50400,
,,,1.820000000000,   0.60000,
,,,1.830000000000,   0.52800,
,,,1.840000000000,   0.51200,
,,,1.850000000000,   0.53600,
,,,1.860000000000,   0.57200,
,,,1.870000000000,   0.53600,
,,,1.880000000000,   0.54400,
,,,1.890000000000,   0.50800,
,,,1.900000000000,   0.56400,
,,,1.910000000000,   0.50800,
,,,1.920000000000,   0.55600,
,,,1.930000000000,   0.56800,
,,,1.940000000000,   0.59600,
,,,1.950000000000,   0.57200,
,,,1.960000000000,   0.52400,
,,,1.970000000000,   0.52000,
,,,1.980000000000,   0.59600,
,,,1.990000000000,   0.51600,
,,,2.000000000000,   0.58800,
,,,2.010000000000,   0.50800,
,,,2.020000000000,   0.54000,
,,,2.030000000000,   0.53600,
,,,2.040000000000,   0.50400,
,,,2.050000000000,   0.56800,
,,,2.060000000000,   0.64000,
,,,2.070000000000,   0.54800,
,,,2.080000000000,   0.66000,
,,,2.090000000000,   0.60800,
,,,2.100000000000,   0.59600,
,,,2.110000000000,   0.52800,
,,,2.120000000000,   0.54400,
,,,2.130000000000,   0.52000,
,,,2.140000000000,   0.49600,
,,,2.150000000000,   0.50000,
,,,2.160000000000,   0.54000,
,,,2.170000000000,   0.49600,
,,,2.180000000000,   0.54400,
,,,2.190000000000,   0.58400,
,,,2.200000000000,   0.55600,
,,,2.210000000000,   0.56400,
,,,2.220000000000,   0.56000,
,,,2.230000000000,   0.64400,
,,,2.240000000000,   0.63200,
,,,2.250000000000,   0.64000,
,,,2.260000000000,   0.57600,
,,,2.270000000000,   0.60000,
,,,2.280000000000,   0.52400,
,,,2.290000000000,   0.54400,
,,,2.300000000000,   0.53200,
,,,2.310000000000,   0.51200,
,,,2.320000000000,   0.50400,
,,,2.330000000000,   0.49600,
,,,2.340000000000,   0.53600,
,,,2.350000000000,   0.53200,
,,,2.360000000000,   0.46800,
,,,2.370000000000,   0.60000,
,,,2.380000000000,   0.53200,
,,,2.390000000000,   0.50400,
,,,2.400000000000,   0.50000,
,,,2.410000000000,   0.49600,
,,,2.420000000000,   0.56400,
,,,2.430000000000,   0.56800,
,,,2.440000000000,   0.56000,
,,,2.450000000000,   0.50800,
,,,2.460000000000,   0.59200,
,,,2.470000000000,   0.53200,
,,,2.480000000000,   0.50400,
,,,2.490000000000,   0.48800,
,,,2.500000000000,   0.62400,
,,,2.510000000000,   0.54400,
,,,2.520000000000,   0.50000,
,,,2.530000000000,   0.58000,
,,,2.540000000000,   0.50400,
,,,2.550000000000,   0.58000,
,,,2.560000000000,   0.54800,
,,,2.570000000000,   0.56400,
,,,2.580000000000,   0.52000,
,,,2.590000000000,   0.55600,
,,,2.600000000000,   0.54400,
,,,2.610000000000,   0.52000,
,,,2.620000000000,   0.49600,
,,,2.630000000000,   0.51600,
,,,2.640000000000,   0.51200,
,,,2.650000000000,   0.52000,
,,,2.660000000000,   0.48000,
,,,2.670000000000,   0.46400,
,,,2.680000000000,   0.50000,
,,,2.690000000000,   0.51200,
,,,2.700000000000,   0.46800,
,,,2.710000000000,   0.52400,
,,,2.720000000000,   0.53600,
,,,2.730000000000,   0.47200,
,,,2.740000000000,   0.47600,
,,,2.750000000000,   0.53600,
,,,2.760000000000,   0.50400,
,,,2.770000000000,   0.51200,
,,,2.780000000000,   0.46000,
,,,2.790000000000,   0.45600,
,,,2.800000000000,   0.52000,
,,,2.810000000000,   0.52400,
,,,2.820000000000,   0.46400,
,,,2.830000000000,   0.55200,
,,,2.840000000000,   0.51200,
,,,2.850000000000,   0.57200,
,,,2.860000000000,   0.50000,
,,,2.870000000000,   0.52800,
,,,2.880000000000,   0.47600,
,,,2.890000000000,   0.55600,
,,,2.900000000000,   0.62000,
,,,2.910000000000,   0.54800,
,,,2.920000000000,   0.64400,
,,,2.930000000000,   0.58000,
,,,2.940000000000,   0.60000,
,,,2.950000000000,   0.55200,
,,,2.960000000000,   0.56400,
,,,2.970000000000,   0.49200,
,,,2.980000000000,   0.52000,
,,,2.990000000000,   0.48400,
,,,3.000000000000,   0.55600,
,,,3.010000000000,   0.52400,
,,,3.020000000000,   0.47600,
,,,3.030000000000,   0.50800,
,,,3.040000000000,   0.57600,
,,,3.050000000000,   0.53200,
,,,3.060000000000,   0.49600,
,,,3.070000000000,   0.52400,
,,,3.080000000000,   0.48000,
,,,3.090000000000,   0.47200,
,,,3.100000000000,   0.47600,
,,,3.110000000000,   0.49600,
,,,3.120000000000,   0.51600,
,,,3.130000000000,   0.49600,
,,,3.140000000000,   0.49200,
,,,3.150000000000,   0.49200,
,,,3.160000000000,   0.48400,
,,,3.170000000000,   0.46800,
,,,3.180000000000,   0.49600,
,,,3.190000000000,   0.49200,
,,,3.200000000000,   0.55600,
,,,3.210000000000,   0.55600,
,,,3.220000000000,   0.57200,
,,,3.230000000000,   0.50000,
,,,3.240000000000,   0.49600,
,,,3.250000000000,   0.47600,
,,,3.260000000000,   0.58000,
,,,3.270000000000,   0.54400,
,,,3.280000000000,   0.46800,
,,,3.290000000000,   0.51200,
,,,3.300000000000,   0.47600,
,,,3.310000000000,   0.48000,
,,,3.320000000000,   0.48000,
,,,3.330000000000,   0.48400,
,,,3.340000000000,   0.53200,
,,,3.350000000000,   0.50000,
,,,3.360000000000,   0.52000,
,,,3.370000000000,   0.53200,
,,,3.380000000000,   0.50800,
,,,3.390000000000,   0.51600,
,,,3.400000000000,   0.58400,
,,,3.410000000000,   0.52800,
,,,3.420000000000,   0.56800,
,,,3.430000000000,   0.58400,
,,,3.440000000000,   0.50400,
,,,3.450000000000,   0.45200,
,,,3.460000000000,   0.44400,
,,,3.470000000000,   0.49200,
,,,3.480000000000,   0.48000,
,,,3.490000000000,   0.45600,
,,,3.500000000000,   0.46800,
,,,3.510000000000,   0.50800,
,,,3.520000000000,   0.49600,
,,,3.530000000000,   0.62000,
,,,3.540000000000,   0.51200,
,,,3.550000000000,   0.52000,
,,,3.560000000000,   0.57600,
,,,3.570000000000,   0.58000,
,,,3.580000000000,   0.50800,
,,,3.590000000000,   0.50000,
,,,3.600000000000,   0.50800,
,,,3.610000000000,   0.62000,
,,,3.620000000000,   0.52400,
,,,3.630000000000,   0.50400,
,,,3.640000000000,   0.52400,
,,,3.650000000000,   0.53200,
,,,3.660000000000,   0.59200,
,,,3.670000000000,   0.56800,
,,,3.680000000000,   0.50800,
,,,3.690000000000,   0.50400,
,,,3.700000000000,   0.47600,
,,,3.710000000000,   0.47200,
,,,3.720000000000,   0.50400,
,,,3.730000000000,   0.46800,
,,,3.740000000000,   0.56800,
,,,3.750000000000,   0.56400,
,,,3.760000000000,   0.54400,
,,,3.770000000000,   0.52000,
,,,3.780000000000,   0.51200,
,,,3.790000000000,   0.57200,
,,,3.800000000000,   0.49600,
,,,3.810000000000,   0.54800,
,,,3.820000000000,   0.53200,
,,,3.830000000000,   0.53200,
,,,3.840000000000,   0.58000,
,,,3.850000000000,   0.50400,
,,,3.860000000000,   0.48400,
,,,3.870000000000,   0.53200,
,,,3.880000000000,   0.51200,
,,,3.890000000000,   0.55200,
,,,3.900000000000,   0.52400,
,,,3.910000000000,   0.56400,
,,,3.920000000000,   0.60000,
,,,3.930000000000,   0.52400,
,,,3.940000000000,   0.55200,
,,,3.950000000000,   0.60000,
,,,3.960000000000,   0.52000,
,,,3.970000000000,   0.58400,
,,,3.980000000000,   0.58400,
,,,3.990000000000,   0.47600,
,,,4.000000000000,   0.49200,
,,,4.010000000000,   0.52000,
,,,4.020000000000,   0.50800,
,,,4.030000000000,   0.51600,
,,,4.040000000000,   0.51600,
,,,4.050000000000,   0.58000,
,,,4.060000000000,   0.53600,
,,,4.070000000000,   0.58400,
,,,4.080000000000,   0.52000,
,,,4.090000000000,   0.51600,
,,,4.100000000000,   0.52800,
,,,4.110000000000,   0.51600,
,,,4.120000000000,   0.51600,
,,,4.130000000000,   0.55200,
,,,4.140000000000,   0.50000,
,,,4.150000000000,   0.52000,
,,,4.160000000000,   0.57600,
,,,4.170000000000,   0.48000,
,,,4.180000000000,   0.53200,
,,,4.190000000000,   0.57200,
,,,4.200000000000,   0.60000,
,,,4.210000000000,   0.53200,
,,,4.220000000000,   0.48000,
,,,4.230000000000,   0.47200,
,,,4.240000000000,   0.53600,
,,,4.250000000000,   0.50800,
,,,4.260000000000,   0.52400,
,,,4.270000000000,   0.51200,
,,,4.280000000000,   0.47600,
,,,4.290000000000,   0.48800,
,,,4.300000000000,   0.48000,
,,,4.310000000000,   0.52000,
,,,4.320000000000,   0.52400,
,,,4.330000000000,   0.50000,
,,,4.340000000000,   0.50800,
,,,4.350000000000,   0.49600,
,,,4.360000000000,   0.49600,
,,,4.370000000000,   0.54000,
,,,4.380000000000,   0.48800,
,,,4.390000000000,   0.51600,
,,,4.400000000000,   0.50400,
,,,4.410000000000,   0.58000,
,,,4.420000000000,   0.52400,
,,,4.430000000000,   0.50800,
,,,4.440000000000,   0.63200,
,,,4.450000000000,   0.55600,
,,,4.460000000000,   0.51600,
,,,4.470000000000,   0.58400,
,,,4.480000000000,   0.53200,
,,,4.490000000000,   0.50800,
,,,4.500000000000,   0.52800,
,,,4.510000000000,   0.58800,
,,,4.520000000000,   0.52400,
,,,4.530000000000,   0.50800,
,,,4.540000000000,   0.50400,
,,,4.550000000000,   0.49600,
,,,4.560000000000,   0.48800,
,,,4.570000000000,   0.51200,
,,,4.580000000000,   0.49600,
,,,4.590000000000,   0.51600,
,,,4.600000000000,   0.51600,
,,,4.610000000000,   0.48800,
,,,4.620000000000,   0.48000,
,,,4.630000000000,   0.49200,
,,,4.640000000000,   0.49600,
,,,4.650000000000,   0.56000,
,,,4.660000000000,   0.54400,
,,,4.670000000000,   0.56000,
,,,4.680000000000,   0.63200,
,,,4.690000000000,   0.52000,
,,,4.700000000000,   0.50400,
,,,4.710000000000,   0.50000,
,,,4.720000000000,   0.51600,
,,,4.730000000000,   0.52800,
,,,4.740000000000,   0.55600,
,,,4.750000000000,   0.56400,
,,,4.760000000000,   0.54400,
,,,4.770000000000,   0.54000,
,,,4.780000000000,   0.63600,
,,,4.790000000000,   0.59600,
,,,4.800000000000,   0.56400,
,,,4.810000000000,   0.57600,
,,,4.820000000000,   0.56400,
,,,4.830000000000,   0.55600,
,,,4.840000000000,   0.49600,
,,,4.850000000000,   0.56800,
,,,4.860000000000,   0.52800,
,,,4.870000000000,   0.56000,
,,,4.880000000000,   0.51600,
,,,4.890000000000,   0.51600,
,,,4.900000000000,   0.50800,
,,,4.910000000000,   0.48400,
,,,4.920000000000,   0.50400,
,,,4.930000000000,   0.54000,
,,,4.940000000000,   0.51200,
,,,4.950000000000,   0.49200,
,,,4.960000000000,   0.51600,
,,,4.970000000000,   0.51600,
,,,4.980000000000,   0.48800,
,,,4.990000000000,   0.49200,
,,,5.000000000000,   0.57600,
,,,5.010000000000,   0.52000,
,,,5.020000000000,   0.49600,
,,,5.030000000000,   0.54000,
,,,5.040000000000,   0.50800,
,,,5.050000000000,   0.48400,
,,,5.060000000000,   0.53200,
,,,5.070000000000,   0.50400,
,,,5.080000000000,   0.51200,
,,,5.090000000000,   0.52400,
,,,5.100000000000,   0.53600,
,,,5.110000000000,   0.53600,
,,,5.120000000000,   0.53600,
,,,5.130000000000,   0.50000,
,,,5.140000000000,   0.54000,
,,,5.150000000000,   0.53600,
,,,5.160000000000,   0.53600,
,,,5.170000000000,   0.50000,
,,,5.180000000000,   0.55200,
,,,5.190000000000,   0.54400,
,,,5.200000000000,   0.54400,
,,,5.210000000000,   0.50400,
,,,5.220000000000,   0.56400,
,,,5.230000000000,   0.65600,
,,,5.240000000000,   0.56800,
,,,5.250000000000,   0.51600,
,,,5.260000000000,   0.48000,
,,,5.270000000000,   0.51600,
,,,5.280000000000,   0.49600,
,,,5.290000000000,   0.50800,
,,,5.300000000000,   0.50800,
,,,5.310000000000,   0.54400,
,,,5.320000000000,   0.50000,
,,,5.330000000000,   0.56400,
,,,5.340000000000,   0.60400,
,,,5.350000000000,   0.55600,
,,,5.360000000000,   0.51200,
,,,5.370000000000,   0.52800,
,,,5.380000000000,   0.56000,
,,,5.390000000000,   0.51200,
,,,5.400000000000,   0.55200,
,,,5.410000000000,   0.51200,
,,,5.420000000000,   0.49600,
,,,5.430000000000,   0.56400,
,,,5.440000000000,   0.51600,
,,,5.450000000000,   0.50400,
,,,5.460000000000,   0.49600,
,,,5.470000000000,   0.52000,
,,,5.480000000000,   0.51600,
,,,5.490000000000,   0.50000,
,,,5.500000000000,   0.53200,
,,,5.510000000000,   0.49600,
,,,5.520000000000,   0.53600,
,,,5.530000000000,   0.52400,
,,,5.540000000000,   0.54800,
,,,5.550000000000,   0.57600,
,,,5.560000000000,   0.54400,
,,,5.570000000000,   0.58400,
,,,5.580000000000,   0.56400,
,,,5.590000000000,   0.47600,
,,,5.600000000000,   0.48800,
,,,5.610000000000,   0.48400,
,,,5.620000000000,   0.48000,
,,,5.630000000000,   0.49600,
,,,5.640000000000,   0.51200,
,,,5.650000000000,   0.53200,
,,,5.660000000000,   0.53200,
,,,5.670000000000,   0.47200,
,,,5.680000000000,   0.49600,
,,,5.690000000000,   0.52800,
,,,5.700000000000,   0.57600,
,,,5.710000000000,   0.51600,
,,,5.720000000000,   0.52400,
,,,5.730000000000,   0.55600,
,,,5.740000000000,   0.50800,
,,,5.750000000000,   0.51200,
,,,5.760000000000,   0.54400,
,,,5.770000000000,   0.53600,
,,,5.780000000000,   0.50800,
,,,5.790000000000,   0.50000,
,,,5.800000000000,   0.51200,
,,,5.810000000000,   0.52000,
,,,5.820000000000,   0.53600,
,,,5.830000000000,   0.54000,
,,,5.840000000000,   0.50800,
,,,5.850000000000,   0.54000,
,,,5.860000000000,   0.51600,
,,,5.870000000000,   0.52400,
,,,5.880000000000,   0.50000,
,,,5.890000000000,   0.52800,
,,,5.900000000000,   0.49600,
,,,5.910000000000,   0.55600,
,,,5.920000000000,   0.49600,
,,,5.930000000000,   0.52400,
,,,5.940000000000,   0.50000,
,,,5.950000000000,   0.51600,
,,,5.960000000000,   0.51600,
,,,5.970000000000,   0.53600,
,,,5.980000000000,   0.54000,
,,,5.990000000000,   0.55200,
,,,6.000000000000,   0.51600,
,,,6.010000000000,   0.51600,
,,,6.020000000000,   0.52800,
,,,6.030000000000,   0.53200,
,,,6.040000000000,   0.49600,
,,,6.050000000000,   0.54800,
,,,6.060000000000,   0.54000,
,,,6.070000000000,   0.53600,
,,,6.080000000000,   0.62000,
,,,6.090000000000,   0.52400,
,,,6.100000000000,   0.52000,
,,,6.110000000000,   0.53600,
,,,6.120000000000,   0.50000,
,,,6.130000000000,   0.51200,
,,,6.140000000000,   0.52800,
,,,6.150000000000,   0.59600,
,,,6.160000000000,   0.54800,
,,,6.170000000000,   0.51600,
,,,6.180000000000,   0.54000,
,,,6.190000000000,   0.50400,
,,,6.200000000000,   0.54800,
,,,6.210000000000,   0.54000,
,,,6.220000000000,   0.52000,
,,,6.230000000000,   0.49600,
,,,6.240000000000,   0.55200,
,,,6.250000000000,   0.58400,
,,,6.260000000000,   0.54400,
,,,6.270000000000,   0.60400,
,,,6.280000000000,   0.56400,
,,,6.290000000000,   0.52000,
,,,6.300000000000,   0.55600,
,,,6.310000000000,   0.53600,
,,,6.320000000000,   0.53200,
,,,6.330000000000,   0.49200,
,,,6.340000000000,   0.50400,
,,,6.350000000000,   0.51600,
,,,6.360000000000,   0.56000,
,,,6.370000000000,   0.60000,
,,,6.380000000000,   0.60000,
,,,6.390000000000,   0.52000,
,,,6.400000000000,   0.50800,
,,,6.410000000000,   0.51200,
,,,6.420000000000,   0.56400,
,,,6.430000000000,   0.54000,
,,,6.440000000000,   0.52000,
,,,6.450000000000,   0.49600,
,,,6.460000000000,   0.52400,
,,,6.470000000000,   0.56000,
,,,6.480000000000,   0.52400,
,,,6.490000000000,   0.54400,
,,,6.500000000000,   0.56400,
,,,6.510000000000,   0.50400,
,,,6.520000000000,   0.51600,
,,,6.530000000000,   0.54000,
