ipy_notebooks/20161108_noon/ALL0067/F0067CH1.CSV

Record Length,2.500000e+03,,   0.000000000000,   0.10960,
Sample Interval,1.000000e-02,,   0.010000000000,   0.12160,
Trigger Point,-0.000000000000e+00,,   0.020000000000,   0.10480,
,,,   0.030000000000,   0.11360,
,,,   0.040000000000,   0.10560,
,,,   0.050000000000,   0.11040,
Source,CH1,,   0.060000000000,   0.10400,
Vertical Units,V,,   0.070000000000,   0.10240,
Vertical Scale,2.000000e-02,,   0.080000000000,   0.09840,
Vertical Offset,-1.704000e-01,,   0.090000000000,   0.10240,
Horizontal Units,s,,   0.100000000000,   0.11120,
Horizontal Scale,2.500000e+00,,   0.110000000000,   0.11280,
Pt Fmt,Y,,   0.120000000000,   0.10640,
Yzero,0.000000e+00,,   0.130000000000,   0.10160,
Probe Atten,1.000000e+00,,   0.140000000000,   0.10560,
Model Number,TBS1072B-EDU,,   0.150000000000,   0.09920,
Serial Number,C010859,,   0.160000000000,   0.10400,
Firmware Version,FV:v4.06,,   0.170000000000,   0.11440,
,,,0.180000000000,   0.10640,
,,,0.190000000000,   0.10400,
,,,0.200000000000,   0.11040,
,,,0.210000000000,   0.09920,
,,,0.220000000000,   0.11680,
,,,0.230000000000,   0.10320,
,,,0.240000000000,   0.10480,
,,,0.250000000000,   0.10160,
,,,0.260000000000,   0.11200,
,,,0.270000000000,   0.10320,
,,,0.280000000000,   0.11680,
,,,0.290000000000,   0.11600,
,,,0.300000000000,   0.11280,
,,,0.310000000000,   0.11280,
,,,0.320000000000,   0.10240,
,,,0.330000000000,   0.11200,
,,,0.340000000000,   0.10000,
,,,0.350000000000,   0.10560,
,,,0.360000000000,   0.11040,
,,,0.370000000000,   0.09920,
,,,0.380000000000,   0.11120,
,,,0.390000000000,   0.11920,
,,,0.400000000000,   0.10400,
,,,0.410000000000,   0.10240,
,,,0.420000000000,   0.11760,
,,,0.430000000000,   0.11200,
,,,0.440000000000,   0.10400,
,,,0.450000000000,   0.11120,
,,,0.460000000000,   0.10640,
,,,0.470000000000,   0.11120,
,,,0.480000000000,   0.11360,
,,,0.490000000000,   0.10880,
,,,0.500000000000,   0.11520,
,,,0.510000000000,   0.10240,
,,,0.520000000000,   0.10880,
,,,0.530000000000,   0.10400,
,,,0.540000000000,   0.10960,
,,,0.550000000000,   0.10880,
,,,0.560000000000,   0.11680,
,,,0.570000000000,   0.11280,
,,,0.580000000000,   0.10000,
,,,0.590000000000,   0.10080,
,,,0.600000000000,   0.10160,
,,,0.610000000000,   0.10080,
,,,0.620000000000,   0.10880,
,,,0.630000000000,   0.11600,
,,,0.640000000000,   0.10800,
,,,0.650000000000,   0.10800,
,,,0.660000000000,   0.11760,
,,,0.670000000000,   0.11520,
,,,0.680000000000,   0.11200,
,,,0.690000000000,   0.10400,
,,,0.700000000000,   0.11440,
,,,0.710000000000,   0.10240,
,,,0.720000000000,   0.10400,
,,,0.730000000000,   0.10880,
,,,0.740000000000,   0.10640,
,,,0.750000000000,   0.11120,
,,,0.760000000000,   0.09520,
,,,0.770000000000,   0.09920,
,,,0.780000000000,   0.10240,
,,,0.790000000000,   0.11280,
,,,0.800000000000,   0.10240,
,,,0.810000000000,   0.11840,
,,,0.820000000000,   0.11280,
,,,0.830000000000,   0.11600,
,,,0.840000000000,   0.11280,
,,,0.850000000000,   0.11200,
,,,0.860000000000,   0.10400,
,,,0.870000000000,   0.11120,
,,,0.880000000000,   0.10320,
,,,0.890000000000,   0.10800,
,,,0.900000000000,   0.10880,
,,,0.910000000000,   0.11600,
,,,0.920000000000,   0.11600,
,,,0.930000000000,   0.10880,
,,,0.940000000000,   0.10960,
,,,0.950000000000,   0.11440,
,,,0.960000000000,   0.10080,
,,,0.970000000000,   0.11200,
,,,0.980000000000,   0.09920,
,,,0.990000000000,   0.11520,
,,,1.000000000000,   0.10960,
,,,1.010000000000,   0.11600,
,,,1.020000000000,   0.10080,
,,,1.030000000000,   0.10240,
,,,1.040000000000,   0.11520,
,,,1.050000000000,   0.11360,
,,,1.060000000000,   0.11280,
,,,1.070000000000,   0.11520,
,,,1.080000000000,   0.11680,
,,,1.090000000000,   0.11440,
,,,1.100000000000,   0.11360,
,,,1.110000000000,   0.11040,
,,,1.120000000000,   0.09920,
,,,1.130000000000,   0.10560,
,,,1.140000000000,   0.10480,
,,,1.150000000000,   0.11360,
,,,1.160000000000,   0.11360,
,,,1.170000000000,   0.11600,
,,,1.180000000000,   0.10400,
,,,1.190000000000,   0.11680,
,,,1.200000000000,   0.10400,
,,,1.210000000000,   0.10960,
,,,1.220000000000,   0.10800,
,,,1.230000000000,   0.10800,
,,,1.240000000000,   0.10640,
,,,1.250000000000,   0.10880,
,,,1.260000000000,   0.10640,
,,,1.270000000000,   0.11600,
,,,1.280000000000,   0.10960,
,,,1.290000000000,   0.11440,
,,,1.300000000000,   0.10640,
,,,1.310000000000,   0.12000,
,,,1.320000000000,   0.11280,
,,,1.330000000000,   0.09680,
,,,1.340000000000,   0.11120,
,,,1.350000000000,   0.10320,
,,,1.360000000000,   0.11120,
,,,1.370000000000,   0.10480,
,,,1.380000000000,   0.10400,
,,,1.390000000000,   0.11840,
,,,1.400000000000,   0.10240,
,,,1.410000000000,   0.11200,
,,,1.420000000000,   0.09840,
,,,1.430000000000,   0.10960,
,,,1.440000000000,   0.11440,
,,,1.450000000000,   0.10160,
,,,1.460000000000,   0.10720,
,,,1.470000000000,   0.11040,
,,,1.480000000000,   0.10960,
,,,1.490000000000,   0.10560,
,,,1.500000000000,   0.10960,
,,,1.510000000000,   0.11040,
,,,1.520000000000,   0.10320,
,,,1.530000000000,   0.10240,
,,,1.540000000000,   0.10240,
,,,1.550000000000,   0.10000,
,,,1.560000000000,   0.11680,
,,,1.570000000000,   0.10400,
,,,1.580000000000,   0.11920,
,,,1.590000000000,   0.11120,
,,,1.600000000000,   0.09520,
,,,1.610000000000,   0.11200,
,,,1.620000000000,   0.11280,
,,,1.630000000000,   0.11520,
,,,1.640000000000,   0.10000,
,,,1.650000000000,   0.11600,
,,,1.660000000000,   0.09920,
,,,1.670000000000,   0.09920,
,,,1.680000000000,   0.10320,
,,,1.690000000000,   0.11840,
,,,1.700000000000,   0.11840,
,,,1.710000000000,   0.11680,
,,,1.720000000000,   0.10320,
,,,1.730000000000,   0.11280,
,,,1.740000000000,   0.11680,
,,,1.750000000000,   0.10640,
,,,1.760000000000,   0.11280,
,,,1.770000000000,   0.10480,
,,,1.780000000000,   0.11440,
,,,1.790000000000,   0.11040,
,,,1.800000000000,   0.09680,
,,,1.810000000000,   0.11920,
,,,1.820000000000,   0.10000,
,,,1.830000000000,   0.11280,
,,,1.840000000000,   0.10080,
,,,1.850000000000,   0.11200,
,,,1.860000000000,   0.10320,
,,,1.870000000000,   0.11280,
,,,1.880000000000,   0.10160,
,,,1.890000000000,   0.10160,
,,,1.900000000000,   0.10400,
,,,1.910000000000,   0.09600,
,,,1.920000000000,   0.10080,
,,,1.930000000000,   0.11280,
,,,1.940000000000,   0.10320,
,,,1.950000000000,   0.10160,
,,,1.960000000000,   0.10640,
,,,1.970000000000,   0.09600,
,,,1.980000000000,   0.11040,
,,,1.990000000000,   0.10560,
,,,2.000000000000,   0.11120,
,,,2.010000000000,   0.12240,
,,,2.020000000000,   0.10800,
,,,2.030000000000,   0.10480,
,,,2.040000000000,   0.11040,
,,,2.050000000000,   0.09920,
,,,2.060000000000,   0.11760,
,,,2.070000000000,   0.10080,
,,,2.080000000000,   0.10080,
,,,2.090000000000,   0.10000,
,,,2.100000000000,   0.11360,
,,,2.110000000000,   0.09920,
,,,2.120000000000,   0.11440,
,,,2.130000000000,   0.11520,
,,,2.140000000000,   0.11120,
,,,2.150000000000,   0.11200,
,,,2.160000000000,   0.11680,
,,,2.170000000000,   0.11360,
,,,2.180000000000,   0.11280,
,,,2.190000000000,   0.09680,
,,,2.200000000000,   0.10240,
,,,2.210000000000,   0.11280,
,,,2.220000000000,   0.10000,
,,,2.230000000000,   0.11200,
,,,2.240000000000,   0.10640,
,,,2.250000000000,   0.10560,
,,,2.260000000000,   0.10160,
,,,2.270000000000,   0.10240,
,,,2.280000000000,   0.10160,
,,,2.290000000000,   0.10000,
,,,2.300000000000,   0.10000,
,,,2.310000000000,   0.11040,
,,,2.320000000000,   0.11200,
,,,2.330000000000,   0.11040,
,,,2.340000000000,   0.10880,
,,,2.350000000000,   0.10960,
,,,2.360000000000,   0.11920,
,,,2.370000000000,   0.11680,
,,,2.380000000000,   0.11520,
,,,2.390000000000,   0.11680,
,,,2.400000000000,   0.10960,
,,,2.410000000000,   0.11680,
,,,2.420000000000,   0.10160,
,,,2.430000000000,   0.11200,
,,,2.440000000000,   0.11040,
,,,2.450000000000,   0.10240,
,,,2.460000000000,   0.10400,
,,,2.470000000000,   0.11360,
,,,2.480000000000,   0.10240,
,,,2.490000000000,   0.12000,
,,,2.500000000000,   0.10560,
,,,2.510000000000,   0.09680,
,,,2.520000000000,   0.09920,
,,,2.530000000000,   0.10160,
,,,2.540000000000,   0.10000,
,,,2.550000000000,   0.11520,
,,,2.560000000000,   0.11920,
,,,2.570000000000,   0.11760,
,,,2.580000000000,   0.08880,
,,,2.590000000000,   0.10720,
,,,2.600000000000,   0.11600,
,,,2.610000000000,   0.11040,
,,,2.620000000000,   0.10080,
,,,2.630000000000,   0.11760,
,,,2.640000000000,   0.10160,
,,,2.650000000000,   0.11280,
,,,2.660000000000,   0.11280,
,,,2.670000000000,   0.10080,
,,,2.680000000000,   0.09440,
,,,2.690000000000,   0.09600,
,,,2.700000000000,   0.11680,
,,,2.710000000000,   0.11680,
,,,2.720000000000,   0.11440,
,,,2.730000000000,   0.10160,
,,,2.740000000000,   0.10880,
,,,2.750000000000,   0.11120,
,,,2.760000000000,   0.11120,
,,,2.770000000000,   0.11760,
,,,2.780000000000,   0.11280,
,,,2.790000000000,   0.10800,
,,,2.800000000000,   0.11280,
,,,2.810000000000,   0.12160,
,,,2.820000000000,   0.11360,
,,,2.830000000000,   0.11280,
,,,2.840000000000,   0.10640,
,,,2.850000000000,   0.09840,
,,,2.860000000000,   0.11520,
,,,2.870000000000,   0.11120,
,,,2.880000000000,   0.11120,
,,,2.890000000000,   0.12160,
,,,2.900000000000,   0.11280,
,,,2.910000000000,   0.12160,
,,,2.920000000000,   0.11920,
,,,2.930000000000,   0.11360,
,,,2.940000000000,   0.10720,
,,,2.950000000000,   0.11280,
,,,2.960000000000,   0.11840,
,,,2.970000000000,   0.10800,
,,,2.980000000000,   0.11520,
,,,2.990000000000,   0.11040,
,,,3.000000000000,   0.10240,
,,,3.010000000000,   0.11200,
,,,3.020000000000,   0.12240,
,,,3.030000000000,   0.11440,
,,,3.040000000000,   0.12560,
,,,3.050000000000,   0.10960,
,,,3.060000000000,   0.11200,
,,,3.070000000000,   0.11440,
,,,3.080000000000,   0.12160,
,,,3.090000000000,   0.12160,
,,,3.100000000000,   0.11840,
,,,3.110000000000,   0.12320,
,,,3.120000000000,   0.12880,
,,,3.130000000000,   0.13680,
,,,3.140000000000,   0.13520,
,,,3.150000000000,   0.12960,
,,,3.160000000000,   0.14000,
,,,3.170000000000,   0.13440,
,,,3.180000000000,   0.14000,
,,,3.190000000000,   0.12640,
,,,3.200000000000,   0.14480,
,,,3.210000000000,   0.14000,
,,,3.220000000000,   0.14400,
,,,3.230000000000,   0.13600,
,,,3.240000000000,   0.14320,
,,,3.250000000000,   0.14880,
,,,3.260000000000,   0.13520,
,,,3.270000000000,   0.13600,
,,,3.280000000000,   0.14640,
,,,3.290000000000,   0.14880,
,,,3.300000000000,   0.14000,
,,,3.310000000000,   0.13760,
,,,3.320000000000,   0.15280,
,,,3.330000000000,   0.13600,
,,,3.340000000000,   0.14480,
,,,3.350000000000,   0.15280,
,,,3.360000000000,   0.15760,
,,,3.370000000000,   0.15120,
,,,3.380000000000,   0.14320,
,,,3.390000000000,   0.15200,
,,,3.400000000000,   0.13600,
,,,3.410000000000,   0.15120,
,,,3.420000000000,   0.14880,
,,,3.430000000000,   0.14000,
,,,3.440000000000,   0.15120,
,,,3.450000000000,   0.14000,
,,,3.460000000000,   0.14480,
,,,3.470000000000,   0.14720,
,,,3.480000000000,   0.14800,
,,,3.490000000000,   0.15520,
,,,3.500000000000,   0.15360,
,,,3.510000000000,   0.14480,
,,,3.520000000000,   0.13920,
,,,3.530000000000,   0.15200,
,,,3.540000000000,   0.13920,
,,,3.550000000000,   0.14800,
,,,3.560000000000,   0.14960,
,,,3.570000000000,   0.14960,
,,,3.580000000000,   0.14240,
,,,3.590000000000,   0.14000,
,,,3.600000000000,   0.13920,
,,,3.610000000000,   0.14000,
,,,3.620000000000,   0.14400,
,,,3.630000000000,   0.14240,
,,,3.640000000000,   0.13120,
,,,3.650000000000,   0.13600,
,,,3.660000000000,   0.13760,
,,,3.670000000000,   0.13440,
,,,3.680000000000,   0.14000,
,,,3.690000000000,   0.14320,
,,,3.700000000000,   0.14000,
,,,3.710000000000,   0.13920,
,,,3.720000000000,   0.14880,
,,,3.730000000000,   0.13680,
,,,3.740000000000,   0.13120,
,,,3.750000000000,   0.13920,
,,,3.760000000000,   0.13040,
,,,3.770000000000,   0.14640,
,,,3.780000000000,   0.14640,
,,,3.790000000000,   0.12640,
,,,3.800000000000,   0.14000,
,,,3.810000000000,   0.14320,
,,,3.820000000000,   0.12720,
,,,3.830000000000,   0.13920,
,,,3.840000000000,   0.14080,
,,,3.850000000000,   0.13760,
,,,3.860000000000,   0.14160,
,,,3.870000000000,   0.14320,
,,,3.880000000000,   0.13680,
,,,3.890000000000,   0.14560,
,,,3.900000000000,   0.12560,
,,,3.910000000000,   0.13040,
,,,3.920000000000,   0.14240,
,,,3.930000000000,   0.13520,
,,,3.940000000000,   0.12880,
,,,3.950000000000,   0.13600,
,,,3.960000000000,   0.14000,
,,,3.970000000000,   0.13120,
,,,3.980000000000,   0.13840,
,,,3.990000000000,   0.12640,
,,,4.000000000000,   0.12800,
,,,4.010000000000,   0.12720,
,,,4.020000000000,   0.13600,
,,,4.030000000000,   0.13280,
,,,4.040000000000,   0.13680,
,,,4.050000000000,   0.13920,
,,,4.060000000000,   0.13360,
,,,4.070000000000,   0.12240,
,,,4.080000000000,   0.11840,
,,,4.090000000000,   0.12400,
,,,4.100000000000,   0.12960,
,,,4.110000000000,   0.13280,
,,,4.120000000000,   0.11920,
,,,4.130000000000,   0.13600,
,,,4.140000000000,   0.13360,
,,,4.150000000000,   0.11920,
,,,4.160000000000,   0.12160,
,,,4.170000000000,   0.12960,
,,,4.180000000000,   0.12160,
,,,4.190000000000,   0.12000,
,,,4.200000000000,   0.13280,
,,,4.210000000000,   0.12160,
,,,4.220000000000,   0.12000,
,,,4.230000000000,   0.12480,
,,,4.240000000000,   0.11840,
,,,4.250000000000,   0.13280,
,,,4.260000000000,   0.11840,
,,,4.270000000000,   0.12880,
,,,4.280000000000,   0.11840,
,,,4.290000000000,   0.11200,
,,,4.300000000000,   0.12400,
,,,4.310000000000,   0.12960,
,,,4.320000000000,   0.11280,
,,,4.330000000000,   0.12320,
,,,4.340000000000,   0.11600,
,,,4.350000000000,   0.12320,
,,,4.360000000000,   0.11600,
,,,4.370000000000,   0.11840,
,,,4.380000000000,   0.11280,
,,,4.390000000000,   0.11840,
,,,4.400000000000,   0.12640,
,,,4.410000000000,   0.13040,
,,,4.420000000000,   0.11600,
,,,4.430000000000,   0.12320,
,,,4.440000000000,   0.11280,
,,,4.450000000000,   0.12640,
,,,4.460000000000,   0.11360,
,,,4.470000000000,   0.11440,
,,,4.480000000000,   0.12720,
,,,4.490000000000,   0.11280,
,,,4.500000000000,   0.12960,
,,,4.510000000000,   0.12400,
,,,4.520000000000,   0.11600,
,,,4.530000000000,   0.11920,
,,,4.540000000000,   0.12400,
,,,4.550000000000,   0.12400,
,,,4.560000000000,   0.12640,
,,,4.570000000000,   0.12320,
,,,4.580000000000,   0.11600,
,,,4.590000000000,   0.12240,
,,,4.600000000000,   0.12320,
,,,4.610000000000,   0.11520,
,,,4.620000000000,   0.11360,
,,,4.630000000000,   0.12320,
,,,4.640000000000,   0.12640,
,,,4.650000000000,   0.12480,
,,,4.660000000000,   0.11040,
,,,4.670000000000,   0.12480,
,,,4.680000000000,   0.12480,
,,,4.690000000000,   0.11520,
,,,4.700000000000,   0.12480,
,,,4.710000000000,   0.11920,
,,,4.720000000000,   0.11840,
,,,4.730000000000,   0.12400,
,,,4.740000000000,   0.11520,
,,,4.750000000000,   0.11520,
,,,4.760000000000,   0.11680,
,,,4.770000000000,   0.11520,
,,,4.780000000000,   0.11280,
,,,4.790000000000,   0.12160,
,,,4.800000000000,   0.10400,
,,,4.810000000000,   0.11920,
,,,4.820000000000,   0.10320,
,,,4.830000000000,   0.10800,
,,,4.840000000000,   0.10960,
,,,4.850000000000,   0.12080,
,,,4.860000000000,   0.12080,
,,,4.870000000000,   0.12400,
,,,4.880000000000,   0.12320,
,,,4.890000000000,   0.10640,
,,,4.900000000000,   0.10800,
,,,4.910000000000,   0.11600,
,,,4.920000000000,   0.10880,
,,,4.930000000000,   0.11760,
,,,4.940000000000,   0.11440,
,,,4.950000000000,   0.10000,
,,,4.960000000000,   0.12160,
,,,4.970000000000,   0.11280,
,,,4.980000000000,   0.11040,
,,,4.990000000000,   0.12160,
,,,5.000000000000,   0.11680,
,,,5.010000000000,   0.11600,
,,,5.020000000000,   0.11840,
,,,5.030000000000,   0.11920,
,,,5.040000000000,   0.11520,
,,,5.050000000000,   0.12160,
,,,5.060000000000,   0.10720,
,,,5.070000000000,   0.11840,
,,,5.080000000000,   0.10960,
,,,5.090000000000,   0.11840,
,,,5.100000000000,   0.11360,
,,,5.110000000000,   0.10720,
,,,5.120000000000,   0.11200,
,,,5.130000000000,   0.12400,
,,,5.140000000000,   0.12000,
,,,5.150000000000,   0.10560,
,,,5.160000000000,   0.11440,
,,,5.170000000000,   0.11600,
,,,5.180000000000,   0.10640,
,,,5.190000000000,   0.11360,
,,,5.200000000000,   0.11200,
,,,5.210000000000,   0.12320,
,,,5.220000000000,   0.10640,
,,,5.230000000000,   0.10080,
,,,5.240000000000,   0.11440,
,,,5.250000000000,   0.10800,
,,,5.260000000000,   0.11600,
,,,5.270000000000,   0.11120,
,,,5.280000000000,   0.10960,
,,,5.290000000000,   0.10720,
,,,5.300000000000,   0.11040,
,,,5.310000000000,   0.11360,
,,,5.320000000000,   0.12080,
,,,5.330000000000,   0.10400,
,,,5.340000000000,   0.10320,
,,,5.350000000000,   0.12080,
,,,5.360000000000,   0.11600,
,,,5.370000000000,   0.10400,
,,,5.380000000000,   0.11600,
,,,5.390000000000,   0.11760,
,,,5.400000000000,   0.10080,
,,,5.410000000000,   0.10880,
,,,5.420000000000,   0.10880,
,,,5.430000000000,   0.10000,
,,,5.440000000000,   0.11040,
,,,5.450000000000,   0.12160,
,,,5.460000000000,   0.11440,
,,,5.470000000000,   0.11360,
,,,5.480000000000,   0.11600,
,,,5.490000000000,   0.11200,
,,,5.500000000000,   0.11040,
,,,5.510000000000,   0.11200,
,,,5.520000000000,   0.11600,
,,,5.530000000000,   0.11280,
,,,5.540000000000,   0.10000,
,,,5.550000000000,   0.11360,
,,,5.560000000000,   0.10320,
,,,5.570000000000,   0.10960,
,,,5.580000000000,   0.09760,
,,,5.590000000000,   0.11200,
,,,5.600000000000,   0.11440,
,,,5.610000000000,   0.10800,
,,,5.620000000000,   0.11200,
,,,5.630000000000,   0.11600,
,,,5.640000000000,   0.10560,
,,,5.650000000000,   0.10240,
,,,5.660000000000,   0.10960,
,,,5.670000000000,   0.10880,
,,,5.680000000000,   0.11120,
,,,5.690000000000,   0.10400,
,,,5.700000000000,   0.11520,
,,,5.710000000000,   0.10240,
,,,5.720000000000,   0.11840,
,,,5.730000000000,   0.10240,
,,,5.740000000000,   0.11440,
,,,5.750000000000,   0.11040,
,,,5.760000000000,   0.10320,
,,,5.770000000000,   0.10000,
,,,5.780000000000,   0.10640,
,,,5.790000000000,   0.11520,
,,,5.800000000000,   0.10480,
,,,5.810000000000,   0.11600,
,,,5.820000000000,   0.10320,
,,,5.830000000000,   0.11520,
,,,5.840000000000,   0.09600,
,,,5.850000000000,   0.10800,
,,,5.860000000000,   0.10160,
,,,5.870000000000,   0.11360,
,,,5.880000000000,   0.11520,
,,,5.890000000000,   0.10480,
,,,5.900000000000,   0.10560,
,,,5.910000000000,   0.11440,
,,,5.920000000000,   0.10800,
,,,5.930000000000,   0.11280,
,,,5.940000000000,   0.11760,
,,,5.950000000000,   0.10960,
,,,5.960000000000,   0.10640,
,,,5.970000000000,   0.11520,
,,,5.980000000000,   0.11280,
,,,5.990000000000,   0.10400,
,,,6.000000000000,   0.11680,
,,,6.010000000000,   0.10640,
,,,6.020000000000,   0.11360,
,,,6.030000000000,   0.11920,
,,,6.040000000000,   0.11680,
,,,6.050000000000,   0.10160,
,,,6.060000000000,   0.10400,
,,,6.070000000000,   0.11920,
,,,6.080000000000,   0.11680,
,,,6.090000000000,   0.09520,
,,,6.100000000000,   0.11520,
,,,6.110000000000,   0.10400,
,,,6.120000000000,   0.11040,
,,,6.130000000000,   0.11840,
,,,6.140000000000,   0.10160,
,,,6.150000000000,   0.11600,
,,,6.160000000000,   0.11600,
,,,6.170000000000,   0.10320,
,,,6.180000000000,   0.10880,
,,,6.190000000000,   0.09760,
,,,6.200000000000,   0.10240,
,,,6.210000000000,   0.11280,
,,,6.220000000000,   0.11200,
,,,6.230000000000,   0.11040,
,,,6.240000000000,   0.10800,
,,,6.250000000000,   0.10560,
,,,6.260000000000,   0.10320,
,,,6.270000000000,   0.11040,
,,,6.280000000000,   0.10640,
,,,6.290000000000,   0.11360,
,,,6.300000000000,   0.10320,
,,,6.310000000000,   0.09920,
,,,6.320000000000,   0.10160,
,,,6.330000000000,   0.11360,
,,,6.340000000000,   0.11200,
,,,6.350000000000,   0.09920,
,,,6.360000000000,   0.10640,
,,,6.370000000000,   0.10480,
,,,6.380000000000,   0.10160,
,,,6.390000000000,   0.11120,
,,,6.400000000000,   0.11280,
,,,6.410000000000,   0.09760,
,,,6.420000000000,   0.10160,
,,,6.430000000000,   0.11360,
,,,6.440000000000,   0.10000,
,,,6.450000000000,   0.10880,
,,,6.460000000000,   0.10480,
,,,6.470000000000,   0.11600,
,,,6.480000000000,   0.10240,
,,,6.490000000000,   0.10240,
,,,6.500000000000,   0.09680,
,,,6.510000000000,   0.11440,
,,,6.520000000000,   0.09920,
,,,6.530000000000,   0.11280,
