ipy_notebooks/20161031/ALL0010/F0010CH1.CSV

Record Length,2.500000e+03,,   0.000000000000,   0.16400,
Sample Interval,2.000000e-02,,   0.020000000000,   0.16080,
Trigger Point,-0.000000000000e+00,,   0.040000000000,   0.16640,
,,,   0.060000000000,   0.16640,
,,,   0.080000000000,   0.15440,
,,,   0.100000000000,   0.16960,
Source,CH1,,   0.120000000000,   0.16560,
Vertical Units,V,,   0.140000000000,   0.16720,
Vertical Scale,2.000000e-02,,   0.160000000000,   0.16480,
Vertical Offset,-1.632000e-01,,   0.180000000000,   0.16720,
Horizontal Units,s,,   0.200000000000,   0.16560,
Horizontal Scale,5.000000e+00,,   0.220000000000,   0.16240,
Pt Fmt,Y,,   0.240000000000,   0.16400,
Yzero,0.000000e+00,,   0.260000000000,   0.16480,
Probe Atten,1.000000e+00,,   0.280000000000,   0.16560,
Model Number,TBS1072B-EDU,,   0.300000000000,   0.15920,
Serial Number,C010859,,   0.320000000000,   0.15040,
Firmware Version,FV:v4.06,,   0.340000000000,   0.16560,
,,,0.360000000000,   0.16960,
,,,0.380000000000,   0.16560,
,,,0.400000000000,   0.16960,
,,,0.420000000000,   0.15840,
,,,0.440000000000,   0.16640,
,,,0.460000000000,   0.16640,
,,,0.480000000000,   0.15280,
,,,0.500000000000,   0.14960,
,,,0.520000000000,   0.15280,
,,,0.540000000000,   0.16560,
,,,0.560000000000,   0.16240,
,,,0.580000000000,   0.15680,
,,,0.600000000000,   0.15920,
,,,0.620000000000,   0.16320,
,,,0.640000000000,   0.15520,
,,,0.660000000000,   0.15440,
,,,0.680000000000,   0.16080,
,,,0.700000000000,   0.15520,
,,,0.720000000000,   0.15680,
,,,0.740000000000,   0.16160,
,,,0.760000000000,   0.15680,
,,,0.780000000000,   0.16160,
,,,0.800000000000,   0.18160,
,,,0.820000000000,   0.16480,
,,,0.840000000000,   0.15280,
,,,0.860000000000,   0.16720,
,,,0.880000000000,   0.16800,
,,,0.900000000000,   0.15920,
,,,0.920000000000,   0.16400,
,,,0.940000000000,   0.15520,
,,,0.960000000000,   0.17040,
,,,0.980000000000,   0.16400,
,,,1.000000000000,   0.16720,
,,,1.020000000000,   0.16720,
,,,1.040000000000,   0.16480,
,,,1.060000000000,   0.15920,
,,,1.080000000000,   0.16960,
,,,1.100000000000,   0.17040,
,,,1.120000000000,   0.15040,
,,,1.140000000000,   0.15280,
,,,1.160000000000,   0.15600,
,,,1.180000000000,   0.15600,
,,,1.200000000000,   0.16640,
,,,1.220000000000,   0.14960,
,,,1.240000000000,   0.15840,
,,,1.260000000000,   0.15840,
,,,1.280000000000,   0.15360,
,,,1.300000000000,   0.16080,
,,,1.320000000000,   0.15360,
,,,1.340000000000,   0.16720,
,,,1.360000000000,   0.15120,
,,,1.380000000000,   0.15120,
,,,1.400000000000,   0.16800,
,,,1.420000000000,   0.15280,
,,,1.440000000000,   0.16560,
,,,1.460000000000,   0.15920,
,,,1.480000000000,   0.15440,
,,,1.500000000000,   0.16640,
,,,1.520000000000,   0.15120,
,,,1.540000000000,   0.15440,
,,,1.560000000000,   0.16160,
,,,1.580000000000,   0.16880,
,,,1.600000000000,   0.16480,
,,,1.620000000000,   0.16240,
,,,1.640000000000,   0.16560,
,,,1.660000000000,   0.16880,
,,,1.680000000000,   0.15120,
,,,1.700000000000,   0.16320,
,,,1.720000000000,   0.17120,
,,,1.740000000000,   0.17040,
,,,1.760000000000,   0.15680,
,,,1.780000000000,   0.15280,
,,,1.800000000000,   0.16800,
,,,1.820000000000,   0.16560,
,,,1.840000000000,   0.15520,
,,,1.860000000000,   0.16720,
,,,1.880000000000,   0.16960,
,,,1.900000000000,   0.16160,
,,,1.920000000000,   0.15520,
,,,1.940000000000,   0.16160,
,,,1.960000000000,   0.16160,
,,,1.980000000000,   0.15200,
,,,2.000000000000,   0.15360,
,,,2.020000000000,   0.16960,
,,,2.040000000000,   0.16720,
,,,2.060000000000,   0.15760,
,,,2.080000000000,   0.16960,
,,,2.100000000000,   0.16640,
,,,2.120000000000,   0.15760,
,,,2.140000000000,   0.16400,
,,,2.160000000000,   0.16640,
,,,2.180000000000,   0.16240,
,,,2.200000000000,   0.15520,
,,,2.220000000000,   0.17040,
,,,2.240000000000,   0.16960,
,,,2.260000000000,   0.15920,
,,,2.280000000000,   0.17120,
,,,2.300000000000,   0.15440,
,,,2.320000000000,   0.16160,
,,,2.340000000000,   0.15440,
,,,2.360000000000,   0.16080,
,,,2.380000000000,   0.16000,
,,,2.400000000000,   0.16560,
,,,2.420000000000,   0.16000,
,,,2.440000000000,   0.16320,
,,,2.460000000000,   0.15200,
,,,2.480000000000,   0.16160,
,,,2.500000000000,   0.16720,
,,,2.520000000000,   0.16160,
,,,2.540000000000,   0.16960,
,,,2.560000000000,   0.16000,
,,,2.580000000000,   0.15440,
,,,2.600000000000,   0.15600,
,,,2.620000000000,   0.16080,
,,,2.640000000000,   0.16560,
,,,2.660000000000,   0.16720,
,,,2.680000000000,   0.16880,
,,,2.700000000000,   0.16640,
,,,2.720000000000,   0.15520,
,,,2.740000000000,   0.16160,
,,,2.760000000000,   0.16560,
,,,2.780000000000,   0.16640,
,,,2.800000000000,   0.16880,
,,,2.820000000000,   0.14960,
,,,2.840000000000,   0.16000,
,,,2.860000000000,   0.16960,
,,,2.880000000000,   0.16080,
,,,2.900000000000,   0.16240,
,,,2.920000000000,   0.16800,
,,,2.940000000000,   0.15680,
,,,2.960000000000,   0.16720,
,,,2.980000000000,   0.16240,
,,,3.000000000000,   0.16640,
,,,3.020000000000,   0.15120,
,,,3.040000000000,   0.15040,
,,,3.060000000000,   0.15040,
,,,3.080000000000,   0.16240,
,,,3.100000000000,   0.16160,
,,,3.120000000000,   0.16720,
,,,3.140000000000,   0.15360,
,,,3.160000000000,   0.15280,
,,,3.180000000000,   0.16640,
,,,3.200000000000,   0.15520,
,,,3.220000000000,   0.16560,
,,,3.240000000000,   0.16560,
,,,3.260000000000,   0.15440,
,,,3.280000000000,   0.16800,
,,,3.300000000000,   0.15040,
,,,3.320000000000,   0.16560,
,,,3.340000000000,   0.15680,
,,,3.360000000000,   0.15360,
,,,3.380000000000,   0.15920,
,,,3.400000000000,   0.16800,
,,,3.420000000000,   0.15280,
,,,3.440000000000,   0.15760,
,,,3.460000000000,   0.16720,
,,,3.480000000000,   0.15520,
,,,3.500000000000,   0.15680,
,,,3.520000000000,   0.15200,
,,,3.540000000000,   0.15680,
,,,3.560000000000,   0.15360,
,,,3.580000000000,   0.17040,
,,,3.600000000000,   0.16080,
,,,3.620000000000,   0.16320,
,,,3.640000000000,   0.15920,
,,,3.660000000000,   0.15120,
,,,3.680000000000,   0.16640,
,,,3.700000000000,   0.15680,
,,,3.720000000000,   0.15440,
,,,3.740000000000,   0.15680,
,,,3.760000000000,   0.15200,
,,,3.780000000000,   0.15520,
,,,3.800000000000,   0.16960,
,,,3.820000000000,   0.15600,
,,,3.840000000000,   0.15280,
,,,3.860000000000,   0.16800,
,,,3.880000000000,   0.16160,
,,,3.900000000000,   0.15440,
,,,3.920000000000,   0.16880,
,,,3.940000000000,   0.15600,
,,,3.960000000000,   0.16080,
,,,3.980000000000,   0.17040,
,,,4.000000000000,   0.16880,
,,,4.020000000000,   0.17120,
,,,4.040000000000,   0.16080,
,,,4.060000000000,   0.17040,
,,,4.080000000000,   0.16320,
,,,4.100000000000,   0.16560,
,,,4.120000000000,   0.17040,
,,,4.140000000000,   0.15440,
,,,4.160000000000,   0.16160,
,,,4.180000000000,   0.16880,
,,,4.200000000000,   0.16160,
,,,4.220000000000,   0.16400,
,,,4.240000000000,   0.17120,
,,,4.260000000000,   0.16880,
,,,4.280000000000,   0.17120,
,,,4.300000000000,   0.16640,
,,,4.320000000000,   0.15440,
,,,4.340000000000,   0.16240,
,,,4.360000000000,   0.15440,
,,,4.380000000000,   0.16400,
,,,4.400000000000,   0.16400,
,,,4.420000000000,   0.15280,
,,,4.440000000000,   0.16160,
,,,4.460000000000,   0.15200,
,,,4.480000000000,   0.16000,
,,,4.500000000000,   0.16640,
,,,4.520000000000,   0.16800,
,,,4.540000000000,   0.15760,
,,,4.560000000000,   0.15760,
,,,4.580000000000,   0.17040,
,,,4.600000000000,   0.16480,
,,,4.620000000000,   0.16160,
,,,4.640000000000,   0.16720,
,,,4.660000000000,   0.15920,
,,,4.680000000000,   0.17200,
,,,4.700000000000,   0.15840,
,,,4.720000000000,   0.16800,
,,,4.740000000000,   0.16640,
,,,4.760000000000,   0.16560,
,,,4.780000000000,   0.16960,
,,,4.800000000000,   0.15680,
,,,4.820000000000,   0.16800,
,,,4.840000000000,   0.16960,
,,,4.860000000000,   0.16080,
,,,4.880000000000,   0.16560,
,,,4.900000000000,   0.15920,
,,,4.920000000000,   0.15600,
,,,4.940000000000,   0.16160,
,,,4.960000000000,   0.15760,
,,,4.980000000000,   0.14960,
,,,5.000000000000,   0.15920,
,,,5.020000000000,   0.16320,
,,,5.040000000000,   0.16000,
,,,5.060000000000,   0.15680,
,,,5.080000000000,   0.17280,
,,,5.100000000000,   0.16640,
,,,5.120000000000,   0.16240,
,,,5.140000000000,   0.16880,
,,,5.160000000000,   0.16560,
,,,5.180000000000,   0.15680,
,,,5.200000000000,   0.15520,
,,,5.220000000000,   0.15760,
,,,5.240000000000,   0.16960,
,,,5.260000000000,   0.15760,
,,,5.280000000000,   0.15840,
,,,5.300000000000,   0.16240,
,,,5.320000000000,   0.15360,
,,,5.340000000000,   0.15440,
,,,5.360000000000,   0.16640,
,,,5.380000000000,   0.16880,
,,,5.400000000000,   0.15040,
,,,5.420000000000,   0.15440,
,,,5.440000000000,   0.16240,
,,,5.460000000000,   0.17040,
,,,5.480000000000,   0.16240,
,,,5.500000000000,   0.17040,
,,,5.520000000000,   0.16880,
,,,5.540000000000,   0.16240,
,,,5.560000000000,   0.16880,
,,,5.580000000000,   0.16880,
,,,5.600000000000,   0.16560,
,,,5.620000000000,   0.16240,
,,,5.640000000000,   0.15360,
,,,5.660000000000,   0.15520,
,,,5.680000000000,   0.15680,
,,,5.700000000000,   0.15760,
,,,5.720000000000,   0.17040,
,,,5.740000000000,   0.17120,
,,,5.760000000000,   0.16960,
,,,5.780000000000,   0.17360,
,,,5.800000000000,   0.15360,
,,,5.820000000000,   0.15120,
,,,5.840000000000,   0.15120,
,,,5.860000000000,   0.16080,
,,,5.880000000000,   0.16640,
,,,5.900000000000,   0.15440,
,,,5.920000000000,   0.16720,
,,,5.940000000000,   0.16640,
,,,5.960000000000,   0.16720,
,,,5.980000000000,   0.15440,
,,,6.000000000000,   0.16640,
,,,6.020000000000,   0.17280,
,,,6.040000000000,   0.16400,
,,,6.060000000000,   0.16960,
,,,6.080000000000,   0.16160,
,,,6.100000000000,   0.16800,
,,,6.120000000000,   0.16560,
,,,6.140000000000,   0.16080,
,,,6.160000000000,   0.16720,
,,,6.180000000000,   0.16560,
,,,6.200000000000,   0.16800,
,,,6.220000000000,   0.15120,
,,,6.240000000000,   0.16960,
,,,6.260000000000,   0.16320,
,,,6.280000000000,   0.16080,
,,,6.300000000000,   0.16560,
,,,6.320000000000,   0.15920,
,,,6.340000000000,   0.15360,
,,,6.360000000000,   0.15280,
,,,6.380000000000,   0.15440,
,,,6.400000000000,   0.15520,
,,,6.420000000000,   0.16240,
,,,6.440000000000,   0.16080,
,,,6.460000000000,   0.16240,
,,,6.480000000000,   0.16800,
,,,6.500000000000,   0.16160,
,,,6.520000000000,   0.15840,
,,,6.540000000000,   0.16480,
,,,6.560000000000,   0.16720,
,,,6.580000000000,   0.16640,
,,,6.600000000000,   0.15520,
,,,6.620000000000,   0.15520,
,,,6.640000000000,   0.16080,
,,,6.660000000000,   0.16640,
,,,6.680000000000,   0.16240,
,,,6.700000000000,   0.15680,
,,,6.720000000000,   0.15600,
,,,6.740000000000,   0.15760,
,,,6.760000000000,   0.16560,
,,,6.780000000000,   0.16720,
,,,6.800000000000,   0.16800,
,,,6.820000000000,   0.16240,
,,,6.840000000000,   0.15520,
,,,6.860000000000,   0.17200,
,,,6.880000000000,   0.15600,
,,,6.900000000000,   0.15440,
,,,6.920000000000,   0.16960,
,,,6.940000000000,   0.15680,
,,,6.960000000000,   0.15440,
,,,6.980000000000,   0.15920,
,,,7.000000000000,   0.15280,
,,,7.020000000000,   0.16160,
,,,7.040000000000,   0.16880,
,,,7.060000000000,   0.16640,
,,,7.080000000000,   0.15840,
,,,7.100000000000,   0.16400,
,,,7.120000000000,   0.15040,
,,,7.140000000000,   0.16720,
,,,7.160000000000,   0.16800,
,,,7.180000000000,   0.15120,
,,,7.200000000000,   0.16560,
,,,7.220000000000,   0.16240,
,,,7.240000000000,   0.16880,
,,,7.260000000000,   0.15680,
,,,7.280000000000,   0.15600,
,,,7.300000000000,   0.15600,
,,,7.320000000000,   0.17040,
,,,7.340000000000,   0.16560,
,,,7.360000000000,   0.15600,
,,,7.380000000000,   0.16800,
,,,7.400000000000,   0.16800,
,,,7.420000000000,   0.16960,
,,,7.440000000000,   0.16800,
,,,7.460000000000,   0.16640,
,,,7.480000000000,   0.16400,
,,,7.500000000000,   0.15920,
,,,7.520000000000,   0.16080,
,,,7.540000000000,   0.17360,
,,,7.560000000000,   0.16160,
,,,7.580000000000,   0.17120,
,,,7.600000000000,   0.16080,
,,,7.620000000000,   0.16480,
,,,7.640000000000,   0.17280,
,,,7.660000000000,   0.15680,
,,,7.680000000000,   0.16880,
,,,7.700000000000,   0.15520,
,,,7.720000000000,   0.15920,
,,,7.740000000000,   0.17280,
,,,7.760000000000,   0.17520,
,,,7.780000000000,   0.16480,
,,,7.800000000000,   0.16800,
,,,7.820000000000,   0.17440,
,,,7.840000000000,   0.17280,
,,,7.860000000000,   0.17520,
,,,7.880000000000,   0.18240,
,,,7.900000000000,   0.16400,
,,,7.920000000000,   0.16160,
,,,7.940000000000,   0.18080,
,,,7.960000000000,   0.16720,
,,,7.980000000000,   0.16320,
,,,8.000000000000,   0.16960,
,,,8.020000000000,   0.16160,
,,,8.040000000000,   0.17600,
,,,8.060000000000,   0.17840,
,,,8.080000000000,   0.16560,
,,,8.100000000000,   0.18400,
,,,8.120000000000,   0.17760,
,,,8.140000000000,   0.18160,
,,,8.160000000000,   0.18240,
,,,8.180000000000,   0.16800,
,,,8.200000000000,   0.17200,
,,,8.220000000000,   0.16560,
,,,8.240000000000,   0.18480,
,,,8.260000000000,   0.16960,
,,,8.280000000000,   0.17200,
,,,8.300000000000,   0.16960,
,,,8.320000000000,   0.17520,
,,,8.340000000000,   0.18560,
,,,8.360000000000,   0.16640,
,,,8.380000000000,   0.18160,
,,,8.400000000000,   0.18640,
,,,8.420000000000,   0.16880,
,,,8.440000000000,   0.18160,
,,,8.460000000000,   0.17040,
,,,8.480000000000,   0.18320,
,,,8.500000000000,   0.16800,
,,,8.520000000000,   0.17680,
,,,8.540000000000,   0.18160,
,,,8.560000000000,   0.18160,
,,,8.580000000000,   0.17360,
,,,8.600000000000,   0.17200,
,,,8.620000000000,   0.18560,
,,,8.640000000000,   0.17040,
,,,8.660000000000,   0.17840,
,,,8.680000000000,   0.17280,
,,,8.700000000000,   0.18960,
,,,8.720000000000,   0.18320,
,,,8.740000000000,   0.18720,
,,,8.760000000000,   0.17600,
,,,8.780000000000,   0.18640,
,,,8.800000000000,   0.17200,
,,,8.820000000000,   0.18400,
,,,8.840000000000,   0.18240,
,,,8.860000000000,   0.18400,
,,,8.880000000000,   0.17040,
,,,8.900000000000,   0.18640,
,,,8.920000000000,   0.18400,
,,,8.940000000000,   0.17760,
,,,8.960000000000,   0.17920,
,,,8.980000000000,   0.17840,
,,,9.000000000000,   0.16880,
,,,9.020000000000,   0.17920,
,,,9.040000000000,   0.16880,
,,,9.060000000000,   0.16480,
,,,9.080000000000,   0.16880,
,,,9.100000000000,   0.17200,
,,,9.120000000000,   0.17920,
,,,9.140000000000,   0.16960,
,,,9.160000000000,   0.18800,
,,,9.180000000000,   0.18560,
,,,9.200000000000,   0.17760,
,,,9.220000000000,   0.17440,
,,,9.240000000000,   0.18080,
,,,9.260000000000,   0.18160,
,,,9.280000000000,   0.16800,
,,,9.300000000000,   0.17360,
,,,9.320000000000,   0.18240,
,,,9.340000000000,   0.17200,
,,,9.360000000000,   0.17840,
,,,9.380000000000,   0.17200,
,,,9.400000000000,   0.17200,
,,,9.420000000000,   0.18320,
,,,9.440000000000,   0.18160,
,,,9.460000000000,   0.17600,
,,,9.480000000000,   0.17680,
,,,9.500000000000,   0.18320,
,,,9.520000000000,   0.18160,
,,,9.540000000000,   0.17920,
,,,9.560000000000,   0.17120,
,,,9.580000000000,   0.17040,
,,,9.600000000000,   0.16800,
,,,9.620000000000,   0.18320,
,,,9.640000000000,   0.18400,
,,,9.660000000000,   0.17920,
,,,9.680000000000,   0.18560,
,,,9.700000000000,   0.16560,
,,,9.720000000000,   0.18720,
,,,9.740000000000,   0.17520,
,,,9.760000000000,   0.17840,
,,,9.780000000000,   0.17680,
,,,9.800000000000,   0.17360,
,,,9.820000000000,   0.17920,
,,,9.840000000000,   0.18720,
,,,9.860000000000,   0.18400,
,,,9.880000000000,   0.18160,
,,,9.900000000000,   0.17520,
,,,9.920000000000,   0.17360,
,,,9.940000000000,   0.17040,
,,,9.960000000000,   0.18480,
,,,9.980000000000,   0.17440,
,,,10.000000000000,   0.16480,
,,,10.020000000000,   0.16880,
,,,10.040000000000,   0.17040,
,,,10.060000000000,   0.18240,
,,,10.080000000000,   0.18160,
,,,10.100000000000,   0.17440,
,,,10.120000000000,   0.16480,
,,,10.140000000000,   0.17440,
,,,10.160000000000,   0.18400,
,,,10.180000000000,   0.17680,
,,,10.200000000000,   0.18320,
,,,10.220000000000,   0.18480,
,,,10.240000000000,   0.17920,
,,,10.260000000000,   0.17440,
,,,10.280000000000,   0.17760,
,,,10.300000000000,   0.18080,
,,,10.320000000000,   0.17520,
,,,10.340000000000,   0.17280,
,,,10.360000000000,   0.16880,
,,,10.380000000000,   0.18240,
,,,10.400000000000,   0.16560,
,,,10.420000000000,   0.18320,
,,,10.440000000000,   0.17600,
,,,10.460000000000,   0.17680,
,,,10.480000000000,   0.17920,
,,,10.500000000000,   0.18720,
,,,10.520000000000,   0.18240,
,,,10.540000000000,   0.16720,
,,,10.560000000000,   0.17280,
,,,10.580000000000,   0.17360,
,,,10.600000000000,   0.17920,
,,,10.620000000000,   0.18160,
,,,10.640000000000,   0.18880,
,,,10.660000000000,   0.16560,
,,,10.680000000000,   0.17680,
,,,10.700000000000,   0.17520,
,,,10.720000000000,   0.17520,
,,,10.740000000000,   0.18160,
,,,10.760000000000,   0.16640,
,,,10.780000000000,   0.18480,
,,,10.800000000000,   0.17520,
,,,10.820000000000,   0.17280,
,,,10.840000000000,   0.18320,
,,,10.860000000000,   0.16480,
,,,10.880000000000,   0.16720,
,,,10.900000000000,   0.18080,
,,,10.920000000000,   0.17280,
,,,10.940000000000,   0.16880,
,,,10.960000000000,   0.17840,
,,,10.980000000000,   0.17040,
,,,11.000000000000,   0.18160,
,,,11.020000000000,   0.17120,
,,,11.040000000000,   0.17760,
,,,11.060000000000,   0.18400,
,,,11.080000000000,   0.17200,
,,,11.100000000000,   0.18400,
,,,11.120000000000,   0.17360,
,,,11.140000000000,   0.17760,
,,,11.160000000000,   0.16080,
,,,11.180000000000,   0.18160,
,,,11.200000000000,   0.18080,
,,,11.220000000000,   0.18000,
,,,11.240000000000,   0.17760,
,,,11.260000000000,   0.17840,
,,,11.280000000000,   0.17840,
,,,11.300000000000,   0.16880,
,,,11.320000000000,   0.17440,
,,,11.340000000000,   0.17040,
,,,11.360000000000,   0.16720,
,,,11.380000000000,   0.18320,
,,,11.400000000000,   0.18240,
,,,11.420000000000,   0.17520,
,,,11.440000000000,   0.17840,
,,,11.460000000000,   0.16000,
,,,11.480000000000,   0.17600,
,,,11.500000000000,   0.17920,
,,,11.520000000000,   0.17840,
,,,11.540000000000,   0.17840,
,,,11.560000000000,   0.17040,
,,,11.580000000000,   0.17760,
,,,11.600000000000,   0.16880,
,,,11.620000000000,   0.18160,
,,,11.640000000000,   0.17840,
,,,11.660000000000,   0.18320,
,,,11.680000000000,   0.16800,
,,,11.700000000000,   0.17120,
,,,11.720000000000,   0.16720,
,,,11.740000000000,   0.17280,
,,,11.760000000000,   0.17360,
,,,11.780000000000,   0.18320,
,,,11.800000000000,   0.17040,
,,,11.820000000000,   0.17600,
,,,11.840000000000,   0.18320,
,,,11.860000000000,   0.17200,
,,,11.880000000000,   0.17360,
,,,11.900000000000,   0.17920,
,,,11.920000000000,   0.17120,
,,,11.940000000000,   0.17920,
,,,11.960000000000,   0.16320,
,,,11.980000000000,   0.16960,
,,,12.000000000000,   0.18160,
,,,12.020000000000,   0.18080,
,,,12.040000000000,   0.16720,
,,,12.060000000000,   0.16080,
,,,12.080000000000,   0.17840,
,,,12.100000000000,   0.18000,
,,,12.120000000000,   0.16480,
,,,12.140000000000,   0.16000,
,,,12.160000000000,   0.16640,
,,,12.180000000000,   0.17600,
,,,12.200000000000,   0.17440,
,,,12.220000000000,   0.17120,
,,,12.240000000000,   0.16400,
,,,12.260000000000,   0.18240,
,,,12.280000000000,   0.16640,
,,,12.300000000000,   0.17840,
,,,12.320000000000,   0.17280,
,,,12.340000000000,   0.16560,
,,,12.360000000000,   0.17520,
,,,12.380000000000,   0.16720,
,,,12.400000000000,   0.17920,
,,,12.420000000000,   0.15920,
,,,12.440000000000,   0.16800,
,,,12.460000000000,   0.17200,
,,,12.480000000000,   0.16080,
,,,12.500000000000,   0.17200,
,,,12.520000000000,   0.16640,
,,,12.540000000000,   0.16160,
,,,12.560000000000,   0.17200,
,,,12.580000000000,   0.17280,
,,,12.600000000000,   0.16720,
,,,12.620000000000,   0.17920,
,,,12.640000000000,   0.16400,
,,,12.660000000000,   0.16160,
,,,12.680000000000,   0.16480,
,,,12.700000000000,   0.16400,
,,,12.720000000000,   0.17360,
,,,12.740000000000,   0.17280,
,,,12.760000000000,   0.17760,
,,,12.780000000000,   0.18400,
,,,12.800000000000,   0.17040,
,,,12.820000000000,   0.17840,
,,,12.840000000000,   0.16640,
,,,12.860000000000,   0.17280,
,,,12.880000000000,   0.17920,
,,,12.900000000000,   0.16960,
,,,12.920000000000,   0.16560,
,,,12.940000000000,   0.17360,
,,,12.960000000000,   0.16160,
