ipy_notebooks/20161108_noon/F0071CH1.CSV

Record Length,2.500000e+03,,   0.000000000000,   0.12000,
Sample Interval,1.000000e-02,,   0.010000000000,   0.12080,
Trigger Point,-0.000000000000e+00,,   0.020000000000,   0.10720,
,,,   0.030000000000,   0.10800,
,,,   0.040000000000,   0.11600,
,,,   0.050000000000,   0.11120,
Source,CH1,,   0.060000000000,   0.11200,
Vertical Units,V,,   0.070000000000,   0.11520,
Vertical Scale,2.000000e-02,,   0.080000000000,   0.11520,
Vertical Offset,-1.704000e-01,,   0.090000000000,   0.11840,
Horizontal Units,s,,   0.100000000000,   0.10400,
Horizontal Scale,2.500000e+00,,   0.110000000000,   0.12000,
Pt Fmt,Y,,   0.120000000000,   0.11840,
Yzero,0.000000e+00,,   0.130000000000,   0.10800,
Probe Atten,1.000000e+00,,   0.140000000000,   0.11360,
Model Number,TBS1072B-EDU,,   0.150000000000,   0.12000,
Serial Number,C010859,,   0.160000000000,   0.12160,
Firmware Version,FV:v4.06,,   0.170000000000,   0.12240,
,,,0.180000000000,   0.12160,
,,,0.190000000000,   0.10480,
,,,0.200000000000,   0.10640,
,,,0.210000000000,   0.10400,
,,,0.220000000000,   0.10560,
,,,0.230000000000,   0.10720,
,,,0.240000000000,   0.12160,
,,,0.250000000000,   0.10240,
,,,0.260000000000,   0.11600,
,,,0.270000000000,   0.10640,
,,,0.280000000000,   0.10480,
,,,0.290000000000,   0.11360,
,,,0.300000000000,   0.10640,
,,,0.310000000000,   0.12000,
,,,0.320000000000,   0.10640,
,,,0.330000000000,   0.10800,
,,,0.340000000000,   0.11280,
,,,0.350000000000,   0.11840,
,,,0.360000000000,   0.12240,
,,,0.370000000000,   0.10960,
,,,0.380000000000,   0.11600,
,,,0.390000000000,   0.10560,
,,,0.400000000000,   0.11440,
,,,0.410000000000,   0.11440,
,,,0.420000000000,   0.11760,
,,,0.430000000000,   0.11280,
,,,0.440000000000,   0.11360,
,,,0.450000000000,   0.12080,
,,,0.460000000000,   0.10640,
,,,0.470000000000,   0.11680,
,,,0.480000000000,   0.11120,
,,,0.490000000000,   0.10960,
,,,0.500000000000,   0.10720,
,,,0.510000000000,   0.11040,
,,,0.520000000000,   0.10800,
,,,0.530000000000,   0.11040,
,,,0.540000000000,   0.10800,
,,,0.550000000000,   0.10960,
,,,0.560000000000,   0.11520,
,,,0.570000000000,   0.11280,
,,,0.580000000000,   0.10400,
,,,0.590000000000,   0.11280,
,,,0.600000000000,   0.12160,
,,,0.610000000000,   0.12320,
,,,0.620000000000,   0.12080,
,,,0.630000000000,   0.12400,
,,,0.640000000000,   0.12320,
,,,0.650000000000,   0.11120,
,,,0.660000000000,   0.10400,
,,,0.670000000000,   0.11840,
,,,0.680000000000,   0.11440,
,,,0.690000000000,   0.11760,
,,,0.700000000000,   0.11760,
,,,0.710000000000,   0.11760,
,,,0.720000000000,   0.12080,
,,,0.730000000000,   0.10400,
,,,0.740000000000,   0.11520,
,,,0.750000000000,   0.12240,
,,,0.760000000000,   0.11920,
,,,0.770000000000,   0.11760,
,,,0.780000000000,   0.10800,
,,,0.790000000000,   0.11920,
,,,0.800000000000,   0.12000,
,,,0.810000000000,   0.10560,
,,,0.820000000000,   0.11360,
,,,0.830000000000,   0.12320,
,,,0.840000000000,   0.11680,
,,,0.850000000000,   0.10720,
,,,0.860000000000,   0.10640,
,,,0.870000000000,   0.11920,
,,,0.880000000000,   0.12080,
,,,0.890000000000,   0.10720,
,,,0.900000000000,   0.10320,
,,,0.910000000000,   0.10880,
,,,0.920000000000,   0.11440,
,,,0.930000000000,   0.11600,
,,,0.940000000000,   0.10800,
,,,0.950000000000,   0.11520,
,,,0.960000000000,   0.11600,
,,,0.970000000000,   0.11040,
,,,0.980000000000,   0.11120,
,,,0.990000000000,   0.11920,
,,,1.000000000000,   0.12240,
,,,1.010000000000,   0.11840,
,,,1.020000000000,   0.10800,
,,,1.030000000000,   0.10720,
,,,1.040000000000,   0.11200,
,,,1.050000000000,   0.11920,
,,,1.060000000000,   0.11920,
,,,1.070000000000,   0.10560,
,,,1.080000000000,   0.10960,
,,,1.090000000000,   0.11680,
,,,1.100000000000,   0.11600,
,,,1.110000000000,   0.12000,
,,,1.120000000000,   0.10640,
,,,1.130000000000,   0.11920,
,,,1.140000000000,   0.11760,
,,,1.150000000000,   0.11360,
,,,1.160000000000,   0.11440,
,,,1.170000000000,   0.12080,
,,,1.180000000000,   0.10640,
,,,1.190000000000,   0.12240,
,,,1.200000000000,   0.12000,
,,,1.210000000000,   0.12160,
,,,1.220000000000,   0.12160,
,,,1.230000000000,   0.11360,
,,,1.240000000000,   0.11840,
,,,1.250000000000,   0.11840,
,,,1.260000000000,   0.11600,
,,,1.270000000000,   0.11840,
,,,1.280000000000,   0.11360,
,,,1.290000000000,   0.10480,
,,,1.300000000000,   0.11920,
,,,1.310000000000,   0.11600,
,,,1.320000000000,   0.11920,
,,,1.330000000000,   0.12240,
,,,1.340000000000,   0.10800,
,,,1.350000000000,   0.11840,
,,,1.360000000000,   0.10720,
,,,1.370000000000,   0.11280,
,,,1.380000000000,   0.12080,
,,,1.390000000000,   0.10960,
,,,1.400000000000,   0.11600,
,,,1.410000000000,   0.11280,
,,,1.420000000000,   0.11600,
,,,1.430000000000,   0.12000,
,,,1.440000000000,   0.11680,
,,,1.450000000000,   0.11360,
,,,1.460000000000,   0.10880,
,,,1.470000000000,   0.12000,
,,,1.480000000000,   0.10560,
,,,1.490000000000,   0.10640,
,,,1.500000000000,   0.10640,
,,,1.510000000000,   0.12160,
,,,1.520000000000,   0.11920,
,,,1.530000000000,   0.10640,
,,,1.540000000000,   0.12000,
,,,1.550000000000,   0.10640,
,,,1.560000000000,   0.11840,
,,,1.570000000000,   0.10560,
,,,1.580000000000,   0.10960,
,,,1.590000000000,   0.10880,
,,,1.600000000000,   0.12160,
,,,1.610000000000,   0.10880,
,,,1.620000000000,   0.11120,
,,,1.630000000000,   0.11760,
,,,1.640000000000,   0.11200,
,,,1.650000000000,   0.11680,
,,,1.660000000000,   0.11360,
,,,1.670000000000,   0.11840,
,,,1.680000000000,   0.12160,
,,,1.690000000000,   0.10640,
,,,1.700000000000,   0.10720,
,,,1.710000000000,   0.12240,
,,,1.720000000000,   0.11680,
,,,1.730000000000,   0.10800,
,,,1.740000000000,   0.10800,
,,,1.750000000000,   0.10560,
,,,1.760000000000,   0.11440,
,,,1.770000000000,   0.11440,
,,,1.780000000000,   0.10640,
,,,1.790000000000,   0.10560,
,,,1.800000000000,   0.10240,
,,,1.810000000000,   0.12080,
,,,1.820000000000,   0.10240,
,,,1.830000000000,   0.11440,
,,,1.840000000000,   0.11600,
,,,1.850000000000,   0.12080,
,,,1.860000000000,   0.11120,
,,,1.870000000000,   0.10400,
,,,1.880000000000,   0.10560,
,,,1.890000000000,   0.11440,
,,,1.900000000000,   0.11760,
,,,1.910000000000,   0.11680,
,,,1.920000000000,   0.10960,
,,,1.930000000000,   0.11920,
,,,1.940000000000,   0.12080,
,,,1.950000000000,   0.12240,
,,,1.960000000000,   0.10720,
,,,1.970000000000,   0.10800,
,,,1.980000000000,   0.11520,
,,,1.990000000000,   0.11600,
,,,2.000000000000,   0.11120,
,,,2.010000000000,   0.12080,
,,,2.020000000000,   0.10880,
,,,2.030000000000,   0.11520,
,,,2.040000000000,   0.12240,
,,,2.050000000000,   0.11760,
,,,2.060000000000,   0.11280,
,,,2.070000000000,   0.11680,
,,,2.080000000000,   0.10880,
,,,2.090000000000,   0.10480,
,,,2.100000000000,   0.10960,
,,,2.110000000000,   0.11040,
,,,2.120000000000,   0.11440,
,,,2.130000000000,   0.11440,
,,,2.140000000000,   0.11280,
,,,2.150000000000,   0.11040,
,,,2.160000000000,   0.11760,
,,,2.170000000000,   0.11040,
,,,2.180000000000,   0.10720,
,,,2.190000000000,   0.10640,
,,,2.200000000000,   0.10240,
,,,2.210000000000,   0.11120,
,,,2.220000000000,   0.12080,
,,,2.230000000000,   0.10560,
,,,2.240000000000,   0.11680,
,,,2.250000000000,   0.12240,
,,,2.260000000000,   0.11680,
,,,2.270000000000,   0.10640,
,,,2.280000000000,   0.11440,
,,,2.290000000000,   0.11440,
,,,2.300000000000,   0.11760,
,,,2.310000000000,   0.10320,
,,,2.320000000000,   0.11040,
,,,2.330000000000,   0.10800,
,,,2.340000000000,   0.10800,
,,,2.350000000000,   0.11040,
,,,2.360000000000,   0.10480,
,,,2.370000000000,   0.11360,
,,,2.380000000000,   0.10720,
,,,2.390000000000,   0.10560,
,,,2.400000000000,   0.10320,
,,,2.410000000000,   0.10240,
,,,2.420000000000,   0.10480,
,,,2.430000000000,   0.11680,
,,,2.440000000000,   0.10720,
,,,2.450000000000,   0.10960,
,,,2.460000000000,   0.10720,
,,,2.470000000000,   0.11040,
,,,2.480000000000,   0.12400,
,,,2.490000000000,   0.12240,
,,,2.500000000000,   0.10720,
,,,2.510000000000,   0.12000,
,,,2.520000000000,   0.12080,
,,,2.530000000000,   0.10880,
,,,2.540000000000,   0.10880,
,,,2.550000000000,   0.11040,
,,,2.560000000000,   0.11600,
,,,2.570000000000,   0.12160,
,,,2.580000000000,   0.11520,
,,,2.590000000000,   0.11760,
,,,2.600000000000,   0.12080,
,,,2.610000000000,   0.10640,
,,,2.620000000000,   0.10320,
,,,2.630000000000,   0.10800,
,,,2.640000000000,   0.11440,
,,,2.650000000000,   0.11200,
,,,2.660000000000,   0.12080,
,,,2.670000000000,   0.11600,
,,,2.680000000000,   0.11520,
,,,2.690000000000,   0.11280,
,,,2.700000000000,   0.12240,
,,,2.710000000000,   0.10960,
,,,2.720000000000,   0.12400,
,,,2.730000000000,   0.11120,
,,,2.740000000000,   0.12160,
,,,2.750000000000,   0.12400,
,,,2.760000000000,   0.11760,
,,,2.770000000000,   0.11440,
,,,2.780000000000,   0.12640,
,,,2.790000000000,   0.13440,
,,,2.800000000000,   0.13440,
,,,2.810000000000,   0.12000,
,,,2.820000000000,   0.13280,
,,,2.830000000000,   0.11840,
,,,2.840000000000,   0.13440,
,,,2.850000000000,   0.12640,
,,,2.860000000000,   0.13040,
,,,2.870000000000,   0.13920,
,,,2.880000000000,   0.14000,
,,,2.890000000000,   0.13520,
,,,2.900000000000,   0.14080,
,,,2.910000000000,   0.13360,
,,,2.920000000000,   0.13360,
,,,2.930000000000,   0.14720,
,,,2.940000000000,   0.14080,
,,,2.950000000000,   0.13920,
,,,2.960000000000,   0.14160,
,,,2.970000000000,   0.14320,
,,,2.980000000000,   0.15280,
,,,2.990000000000,   0.14480,
,,,3.000000000000,   0.15200,
,,,3.010000000000,   0.15760,
,,,3.020000000000,   0.15040,
,,,3.030000000000,   0.14400,
,,,3.040000000000,   0.16320,
,,,3.050000000000,   0.14960,
,,,3.060000000000,   0.14960,
,,,3.070000000000,   0.16400,
,,,3.080000000000,   0.16480,
,,,3.090000000000,   0.15680,
,,,3.100000000000,   0.16960,
,,,3.110000000000,   0.15600,
,,,3.120000000000,   0.16240,
,,,3.130000000000,   0.16720,
,,,3.140000000000,   0.15440,
,,,3.150000000000,   0.15440,
,,,3.160000000000,   0.15360,
,,,3.170000000000,   0.15280,
,,,3.180000000000,   0.15760,
,,,3.190000000000,   0.16000,
,,,3.200000000000,   0.17120,
,,,3.210000000000,   0.16560,
,,,3.220000000000,   0.14960,
,,,3.230000000000,   0.15600,
,,,3.240000000000,   0.16160,
,,,3.250000000000,   0.15280,
,,,3.260000000000,   0.16080,
,,,3.270000000000,   0.16160,
,,,3.280000000000,   0.15840,
,,,3.290000000000,   0.14960,
,,,3.300000000000,   0.14800,
,,,3.310000000000,   0.15760,
,,,3.320000000000,   0.16640,
,,,3.330000000000,   0.15920,
,,,3.340000000000,   0.15760,
,,,3.350000000000,   0.15600,
,,,3.360000000000,   0.14480,
,,,3.370000000000,   0.15280,
,,,3.380000000000,   0.15840,
,,,3.390000000000,   0.15440,
,,,3.400000000000,   0.14560,
,,,3.410000000000,   0.15600,
,,,3.420000000000,   0.15920,
,,,3.430000000000,   0.15520,
,,,3.440000000000,   0.15520,
,,,3.450000000000,   0.14320,
,,,3.460000000000,   0.15600,
,,,3.470000000000,   0.14560,
,,,3.480000000000,   0.14000,
,,,3.490000000000,   0.13840,
,,,3.500000000000,   0.13840,
,,,3.510000000000,   0.15760,
,,,3.520000000000,   0.15280,
,,,3.530000000000,   0.15280,
,,,3.540000000000,   0.13280,
,,,3.550000000000,   0.15120,
,,,3.560000000000,   0.13840,
,,,3.570000000000,   0.14240,
,,,3.580000000000,   0.14640,
,,,3.590000000000,   0.14240,
,,,3.600000000000,   0.14800,
,,,3.610000000000,   0.15040,
,,,3.620000000000,   0.14720,
,,,3.630000000000,   0.13840,
,,,3.640000000000,   0.13520,
,,,3.650000000000,   0.13920,
,,,3.660000000000,   0.14080,
,,,3.670000000000,   0.14800,
,,,3.680000000000,   0.13040,
,,,3.690000000000,   0.13600,
,,,3.700000000000,   0.12880,
,,,3.710000000000,   0.13200,
,,,3.720000000000,   0.13040,
,,,3.730000000000,   0.14400,
,,,3.740000000000,   0.14000,
,,,3.750000000000,   0.13920,
,,,3.760000000000,   0.12400,
,,,3.770000000000,   0.12960,
,,,3.780000000000,   0.13760,
,,,3.790000000000,   0.13440,
,,,3.800000000000,   0.13760,
,,,3.810000000000,   0.13920,
,,,3.820000000000,   0.13760,
,,,3.830000000000,   0.12480,
,,,3.840000000000,   0.14160,
,,,3.850000000000,   0.14000,
,,,3.860000000000,   0.14160,
,,,3.870000000000,   0.13120,
,,,3.880000000000,   0.12400,
,,,3.890000000000,   0.13360,
,,,3.900000000000,   0.13920,
,,,3.910000000000,   0.13760,
,,,3.920000000000,   0.12800,
,,,3.930000000000,   0.13360,
,,,3.940000000000,   0.13520,
,,,3.950000000000,   0.13600,
,,,3.960000000000,   0.12720,
,,,3.970000000000,   0.12880,
,,,3.980000000000,   0.12400,
,,,3.990000000000,   0.13440,
,,,4.000000000000,   0.12400,
,,,4.010000000000,   0.12320,
,,,4.020000000000,   0.11840,
,,,4.030000000000,   0.12720,
,,,4.040000000000,   0.13200,
,,,4.050000000000,   0.13120,
,,,4.060000000000,   0.12160,
,,,4.070000000000,   0.13680,
,,,4.080000000000,   0.13280,
,,,4.090000000000,   0.12400,
,,,4.100000000000,   0.11600,
,,,4.110000000000,   0.12400,
,,,4.120000000000,   0.12160,
,,,4.130000000000,   0.13280,
,,,4.140000000000,   0.13440,
,,,4.150000000000,   0.12240,
,,,4.160000000000,   0.13040,
,,,4.170000000000,   0.12960,
,,,4.180000000000,   0.13120,
,,,4.190000000000,   0.11920,
,,,4.200000000000,   0.12480,
,,,4.210000000000,   0.13280,
,,,4.220000000000,   0.12960,
,,,4.230000000000,   0.12800,
,,,4.240000000000,   0.12160,
,,,4.250000000000,   0.11920,
,,,4.260000000000,   0.11920,
,,,4.270000000000,   0.12320,
,,,4.280000000000,   0.12320,
,,,4.290000000000,   0.12720,
,,,4.300000000000,   0.12160,
,,,4.310000000000,   0.12240,
,,,4.320000000000,   0.12080,
,,,4.330000000000,   0.11520,
,,,4.340000000000,   0.12000,
,,,4.350000000000,   0.12320,
,,,4.360000000000,   0.13040,
,,,4.370000000000,   0.12160,
,,,4.380000000000,   0.11040,
,,,4.390000000000,   0.13040,
,,,4.400000000000,   0.12640,
,,,4.410000000000,   0.13200,
,,,4.420000000000,   0.13040,
,,,4.430000000000,   0.12640,
,,,4.440000000000,   0.13040,
,,,4.450000000000,   0.11520,
,,,4.460000000000,   0.11040,
,,,4.470000000000,   0.11520,
,,,4.480000000000,   0.12640,
,,,4.490000000000,   0.12160,
,,,4.500000000000,   0.11440,
,,,4.510000000000,   0.11040,
,,,4.520000000000,   0.12720,
,,,4.530000000000,   0.12480,
,,,4.540000000000,   0.11440,
,,,4.550000000000,   0.11920,
,,,4.560000000000,   0.12320,
,,,4.570000000000,   0.12880,
,,,4.580000000000,   0.12000,
,,,4.590000000000,   0.11360,
,,,4.600000000000,   0.11840,
,,,4.610000000000,   0.12800,
,,,4.620000000000,   0.12800,
,,,4.630000000000,   0.11200,
,,,4.640000000000,   0.12400,
,,,4.650000000000,   0.12240,
,,,4.660000000000,   0.12560,
,,,4.670000000000,   0.12240,
,,,4.680000000000,   0.11200,
,,,4.690000000000,   0.11200,
,,,4.700000000000,   0.11360,
,,,4.710000000000,   0.11520,
,,,4.720000000000,   0.12400,
,,,4.730000000000,   0.11840,
,,,4.740000000000,   0.11200,
,,,4.750000000000,   0.11280,
,,,4.760000000000,   0.12320,
,,,4.770000000000,   0.11120,
,,,4.780000000000,   0.12160,
,,,4.790000000000,   0.11440,
,,,4.800000000000,   0.11120,
,,,4.810000000000,   0.11120,
,,,4.820000000000,   0.10640,
,,,4.830000000000,   0.12400,
,,,4.840000000000,   0.12320,
,,,4.850000000000,   0.11200,
,,,4.860000000000,   0.12400,
,,,4.870000000000,   0.12320,
,,,4.880000000000,   0.10560,
,,,4.890000000000,   0.11040,
,,,4.900000000000,   0.11120,
,,,4.910000000000,   0.11680,
,,,4.920000000000,   0.10720,
,,,4.930000000000,   0.12080,
,,,4.940000000000,   0.12320,
,,,4.950000000000,   0.11600,
,,,4.960000000000,   0.12560,
,,,4.970000000000,   0.11280,
,,,4.980000000000,   0.11040,
,,,4.990000000000,   0.12640,
,,,5.000000000000,   0.11120,
,,,5.010000000000,   0.12160,
,,,5.020000000000,   0.12400,
,,,5.030000000000,   0.10800,
,,,5.040000000000,   0.12160,
,,,5.050000000000,   0.11440,
,,,5.060000000000,   0.11920,
,,,5.070000000000,   0.12240,
,,,5.080000000000,   0.10720,
,,,5.090000000000,   0.10800,
,,,5.100000000000,   0.12160,
,,,5.110000000000,   0.12320,
,,,5.120000000000,   0.12240,
,,,5.130000000000,   0.12160,
,,,5.140000000000,   0.11520,
,,,5.150000000000,   0.12240,
,,,5.160000000000,   0.10640,
,,,5.170000000000,   0.12240,
,,,5.180000000000,   0.10640,
,,,5.190000000000,   0.12160,
,,,5.200000000000,   0.12400,
,,,5.210000000000,   0.11760,
,,,5.220000000000,   0.11040,
,,,5.230000000000,   0.12080,
,,,5.240000000000,   0.12320,
,,,5.250000000000,   0.10960,
,,,5.260000000000,   0.12240,
,,,5.270000000000,   0.11840,
,,,5.280000000000,   0.11760,
,,,5.290000000000,   0.10880,
,,,5.300000000000,   0.12480,
,,,5.310000000000,   0.11600,
,,,5.320000000000,   0.11760,
,,,5.330000000000,   0.11120,
,,,5.340000000000,   0.10560,
,,,5.350000000000,   0.11600,
,,,5.360000000000,   0.11680,
,,,5.370000000000,   0.10720,
,,,5.380000000000,   0.11120,
,,,5.390000000000,   0.11120,
,,,5.400000000000,   0.11920,
,,,5.410000000000,   0.11520,
,,,5.420000000000,   0.11680,
,,,5.430000000000,   0.11040,
,,,5.440000000000,   0.12160,
,,,5.450000000000,   0.10720,
,,,5.460000000000,   0.12080,
,,,5.470000000000,   0.11040,
,,,5.480000000000,   0.10880,
,,,5.490000000000,   0.10800,
,,,5.500000000000,   0.11040,
,,,5.510000000000,   0.10720,
,,,5.520000000000,   0.11600,
,,,5.530000000000,   0.11920,
,,,5.540000000000,   0.11040,
,,,5.550000000000,   0.11520,
,,,5.560000000000,   0.10480,
,,,5.570000000000,   0.12080,
,,,5.580000000000,   0.10960,
,,,5.590000000000,   0.11680,
,,,5.600000000000,   0.10560,
,,,5.610000000000,   0.11920,
,,,5.620000000000,   0.11200,
,,,5.630000000000,   0.10560,
,,,5.640000000000,   0.10800,
,,,5.650000000000,   0.10640,
,,,5.660000000000,   0.10400,
,,,5.670000000000,   0.11920,
,,,5.680000000000,   0.11120,
,,,5.690000000000,   0.10320,
,,,5.700000000000,   0.11520,
,,,5.710000000000,   0.11040,
,,,5.720000000000,   0.11360,
,,,5.730000000000,   0.11360,
,,,5.740000000000,   0.10800,
,,,5.750000000000,   0.10960,
,,,5.760000000000,   0.10880,
,,,5.770000000000,   0.10800,
,,,5.780000000000,   0.12080,
,,,5.790000000000,   0.10640,
,,,5.800000000000,   0.10720,
,,,5.810000000000,   0.10720,
,,,5.820000000000,   0.12160,
,,,5.830000000000,   0.11920,
,,,5.840000000000,   0.12160,
,,,5.850000000000,   0.12160,
,,,5.860000000000,   0.10240,
,,,5.870000000000,   0.10800,
,,,5.880000000000,   0.10640,
,,,5.890000000000,   0.10800,
,,,5.900000000000,   0.11680,
,,,5.910000000000,   0.11920,
,,,5.920000000000,   0.11920,
,,,5.930000000000,   0.10400,
,,,5.940000000000,   0.11520,
,,,5.950000000000,   0.11840,
,,,5.960000000000,   0.10640,
,,,5.970000000000,   0.11520,
,,,5.980000000000,   0.11600,
,,,5.990000000000,   0.12160,
,,,6.000000000000,   0.11680,
,,,6.010000000000,   0.11840,
,,,6.020000000000,   0.11520,
,,,6.030000000000,   0.11920,
,,,6.040000000000,   0.11840,
,,,6.050000000000,   0.11280,
,,,6.060000000000,   0.11440,
,,,6.070000000000,   0.11760,
,,,6.080000000000,   0.10880,
,,,6.090000000000,   0.11360,
,,,6.100000000000,   0.11280,
,,,6.110000000000,   0.10960,
,,,6.120000000000,   0.10160,
,,,6.130000000000,   0.12080,
,,,6.140000000000,   0.11040,
,,,6.150000000000,   0.11600,
,,,6.160000000000,   0.10480,
,,,6.170000000000,   0.11520,
,,,6.180000000000,   0.12000,
,,,6.190000000000,   0.11280,
,,,6.200000000000,   0.10800,
,,,6.210000000000,   0.11920,
,,,6.220000000000,   0.11440,
,,,6.230000000000,   0.10640,
,,,6.240000000000,   0.12080,
,,,6.250000000000,   0.10880,
,,,6.260000000000,   0.11920,
,,,6.270000000000,   0.11200,
,,,6.280000000000,   0.11760,
,,,6.290000000000,   0.10880,
,,,6.300000000000,   0.11760,
,,,6.310000000000,   0.10560,
,,,6.320000000000,   0.11840,
,,,6.330000000000,   0.10480,
,,,6.340000000000,   0.11920,
,,,6.350000000000,   0.11440,
,,,6.360000000000,   0.10560,
,,,6.370000000000,   0.10560,
,,,6.380000000000,   0.11760,
,,,6.390000000000,   0.11840,
,,,6.400000000000,   0.10960,
,,,6.410000000000,   0.12080,
,,,6.420000000000,   0.11760,
,,,6.430000000000,   0.11600,
,,,6.440000000000,   0.10480,
,,,6.450000000000,   0.10480,
,,,6.460000000000,   0.10800,
,,,6.470000000000,   0.11520,
,,,6.480000000000,   0.10480,
,,,6.490000000000,   0.11360,
,,,6.500000000000,   0.11760,
,,,6.510000000000,   0.10800,
,,,6.520000000000,   0.11040,
,,,6.530000000000,   0.10960,
