ipy_notebooks/20161108/ALL0046/F0046CH1.CSV

Record Length,2.500000e+03,,   0.000000000000,   0.14400,
Sample Interval,1.000000e-02,,   0.010000000000,   0.13600,
Trigger Point,-0.000000000000e+00,,   0.020000000000,   0.14800,
,,,   0.030000000000,   0.12800,
,,,   0.040000000000,   0.14800,
,,,   0.050000000000,   0.14800,
Source,CH1,,   0.060000000000,   0.14000,
Vertical Units,V,,   0.070000000000,   0.14800,
Vertical Scale,1.000000e-01,,   0.080000000000,   0.13600,
Vertical Offset,-4.080000e-01,,   0.090000000000,   0.15200,
Horizontal Units,s,,   0.100000000000,   0.14800,
Horizontal Scale,2.500000e+00,,   0.110000000000,   0.14000,
Pt Fmt,Y,,   0.120000000000,   0.14400,
Yzero,0.000000e+00,,   0.130000000000,   0.13200,
Probe Atten,1.000000e+00,,   0.140000000000,   0.14800,
Model Number,TBS1072B-EDU,,   0.150000000000,   0.14800,
Serial Number,C010859,,   0.160000000000,   0.14800,
Firmware Version,FV:v4.06,,   0.170000000000,   0.12800,
,,,0.180000000000,   0.15200,
,,,0.190000000000,   0.14800,
,,,0.200000000000,   0.13600,
,,,0.210000000000,   0.14800,
,,,0.220000000000,   0.13600,
,,,0.230000000000,   0.14800,
,,,0.240000000000,   0.14400,
,,,0.250000000000,   0.14800,
,,,0.260000000000,   0.14400,
,,,0.270000000000,   0.13600,
,,,0.280000000000,   0.14000,
,,,0.290000000000,   0.14800,
,,,0.300000000000,   0.14000,
,,,0.310000000000,   0.14400,
,,,0.320000000000,   0.14000,
,,,0.330000000000,   0.14800,
,,,0.340000000000,   0.14400,
,,,0.350000000000,   0.12800,
,,,0.360000000000,   0.13600,
,,,0.370000000000,   0.14000,
,,,0.380000000000,   0.14800,
,,,0.390000000000,   0.13200,
,,,0.400000000000,   0.12800,
,,,0.410000000000,   0.14400,
,,,0.420000000000,   0.12800,
,,,0.430000000000,   0.14000,
,,,0.440000000000,   0.13600,
,,,0.450000000000,   0.12800,
,,,0.460000000000,   0.14800,
,,,0.470000000000,   0.13600,
,,,0.480000000000,   0.12400,
,,,0.490000000000,   0.14000,
,,,0.500000000000,   0.13200,
,,,0.510000000000,   0.14800,
,,,0.520000000000,   0.13200,
,,,0.530000000000,   0.12800,
,,,0.540000000000,   0.13200,
,,,0.550000000000,   0.14000,
,,,0.560000000000,   0.13600,
,,,0.570000000000,   0.14000,
,,,0.580000000000,   0.14800,
,,,0.590000000000,   0.12800,
,,,0.600000000000,   0.13600,
,,,0.610000000000,   0.12800,
,,,0.620000000000,   0.14000,
,,,0.630000000000,   0.14400,
,,,0.640000000000,   0.12800,
,,,0.650000000000,   0.14400,
,,,0.660000000000,   0.12400,
,,,0.670000000000,   0.13200,
,,,0.680000000000,   0.13600,
,,,0.690000000000,   0.14000,
,,,0.700000000000,   0.13200,
,,,0.710000000000,   0.13200,
,,,0.720000000000,   0.12800,
,,,0.730000000000,   0.12000,
,,,0.740000000000,   0.12800,
,,,0.750000000000,   0.11600,
,,,0.760000000000,   0.13200,
,,,0.770000000000,   0.13600,
,,,0.780000000000,   0.13200,
,,,0.790000000000,   0.12800,
,,,0.800000000000,   0.14400,
,,,0.810000000000,   0.12000,
,,,0.820000000000,   0.14000,
,,,0.830000000000,   0.12000,
,,,0.840000000000,   0.14000,
,,,0.850000000000,   0.14000,
,,,0.860000000000,   0.14000,
,,,0.870000000000,   0.13200,
,,,0.880000000000,   0.13200,
,,,0.890000000000,   0.13600,
,,,0.900000000000,   0.14400,
,,,0.910000000000,   0.13600,
,,,0.920000000000,   0.12400,
,,,0.930000000000,   0.12000,
,,,0.940000000000,   0.12400,
,,,0.950000000000,   0.12800,
,,,0.960000000000,   0.14400,
,,,0.970000000000,   0.12000,
,,,0.980000000000,   0.14000,
,,,0.990000000000,   0.12400,
,,,1.000000000000,   0.13200,
,,,1.010000000000,   0.12800,
,,,1.020000000000,   0.14400,
,,,1.030000000000,   0.12400,
,,,1.040000000000,   0.13600,
,,,1.050000000000,   0.14000,
,,,1.060000000000,   0.12400,
,,,1.070000000000,   0.12800,
,,,1.080000000000,   0.13200,
,,,1.090000000000,   0.13600,
,,,1.100000000000,   0.14400,
,,,1.110000000000,   0.14000,
,,,1.120000000000,   0.14000,
,,,1.130000000000,   0.13600,
,,,1.140000000000,   0.13600,
,,,1.150000000000,   0.14400,
,,,1.160000000000,   0.14400,
,,,1.170000000000,   0.13200,
,,,1.180000000000,   0.13600,
,,,1.190000000000,   0.12400,
,,,1.200000000000,   0.14000,
,,,1.210000000000,   0.13600,
,,,1.220000000000,   0.14400,
,,,1.230000000000,   0.13200,
,,,1.240000000000,   0.12800,
,,,1.250000000000,   0.12800,
,,,1.260000000000,   0.12400,
,,,1.270000000000,   0.13200,
,,,1.280000000000,   0.13600,
,,,1.290000000000,   0.13600,
,,,1.300000000000,   0.14000,
,,,1.310000000000,   0.12800,
,,,1.320000000000,   0.13200,
,,,1.330000000000,   0.12800,
,,,1.340000000000,   0.13600,
,,,1.350000000000,   0.13600,
,,,1.360000000000,   0.14400,
,,,1.370000000000,   0.12800,
,,,1.380000000000,   0.13600,
,,,1.390000000000,   0.13600,
,,,1.400000000000,   0.14000,
,,,1.410000000000,   0.12800,
,,,1.420000000000,   0.12800,
,,,1.430000000000,   0.14000,
,,,1.440000000000,   0.12400,
,,,1.450000000000,   0.12400,
,,,1.460000000000,   0.12400,
,,,1.470000000000,   0.13600,
,,,1.480000000000,   0.13200,
,,,1.490000000000,   0.12400,
,,,1.500000000000,   0.13200,
,,,1.510000000000,   0.14400,
,,,1.520000000000,   0.12800,
,,,1.530000000000,   0.13600,
,,,1.540000000000,   0.12000,
,,,1.550000000000,   0.12400,
,,,1.560000000000,   0.12400,
,,,1.570000000000,   0.12800,
,,,1.580000000000,   0.14400,
,,,1.590000000000,   0.13600,
,,,1.600000000000,   0.12800,
,,,1.610000000000,   0.14000,
,,,1.620000000000,   0.13200,
,,,1.630000000000,   0.12000,
,,,1.640000000000,   0.12000,
,,,1.650000000000,   0.13600,
,,,1.660000000000,   0.13200,
,,,1.670000000000,   0.12800,
,,,1.680000000000,   0.14000,
,,,1.690000000000,   0.12800,
,,,1.700000000000,   0.12000,
,,,1.710000000000,   0.13600,
,,,1.720000000000,   0.12400,
,,,1.730000000000,   0.12000,
,,,1.740000000000,   0.13600,
,,,1.750000000000,   0.13600,
,,,1.760000000000,   0.13600,
,,,1.770000000000,   0.12400,
,,,1.780000000000,   0.12800,
,,,1.790000000000,   0.13200,
,,,1.800000000000,   0.14000,
,,,1.810000000000,   0.12400,
,,,1.820000000000,   0.12800,
,,,1.830000000000,   0.12000,
,,,1.840000000000,   0.13600,
,,,1.850000000000,   0.12800,
,,,1.860000000000,   0.11600,
,,,1.870000000000,   0.13200,
,,,1.880000000000,   0.12000,
,,,1.890000000000,   0.13600,
,,,1.900000000000,   0.13600,
,,,1.910000000000,   0.13200,
,,,1.920000000000,   0.14000,
,,,1.930000000000,   0.13200,
,,,1.940000000000,   0.12400,
,,,1.950000000000,   0.12400,
,,,1.960000000000,   0.13200,
,,,1.970000000000,   0.14000,
,,,1.980000000000,   0.12800,
,,,1.990000000000,   0.12400,
,,,2.000000000000,   0.13600,
,,,2.010000000000,   0.12800,
,,,2.020000000000,   0.14000,
,,,2.030000000000,   0.13600,
,,,2.040000000000,   0.14400,
,,,2.050000000000,   0.13600,
,,,2.060000000000,   0.12000,
,,,2.070000000000,   0.14400,
,,,2.080000000000,   0.12000,
,,,2.090000000000,   0.12000,
,,,2.100000000000,   0.12400,
,,,2.110000000000,   0.12800,
,,,2.120000000000,   0.13200,
,,,2.130000000000,   0.12800,
,,,2.140000000000,   0.13600,
,,,2.150000000000,   0.14000,
,,,2.160000000000,   0.12400,
,,,2.170000000000,   0.13600,
,,,2.180000000000,   0.14000,
,,,2.190000000000,   0.12400,
,,,2.200000000000,   0.12400,
,,,2.210000000000,   0.13600,
,,,2.220000000000,   0.12800,
,,,2.230000000000,   0.12000,
,,,2.240000000000,   0.13600,
,,,2.250000000000,   0.12400,
,,,2.260000000000,   0.12400,
,,,2.270000000000,   0.13600,
,,,2.280000000000,   0.13600,
,,,2.290000000000,   0.13600,
,,,2.300000000000,   0.12800,
,,,2.310000000000,   0.12000,
,,,2.320000000000,   0.13200,
,,,2.330000000000,   0.13600,
,,,2.340000000000,   0.13200,
,,,2.350000000000,   0.12400,
,,,2.360000000000,   0.13200,
,,,2.370000000000,   0.14000,
,,,2.380000000000,   0.12400,
,,,2.390000000000,   0.13600,
,,,2.400000000000,   0.14000,
,,,2.410000000000,   0.12800,
,,,2.420000000000,   0.12000,
,,,2.430000000000,   0.13600,
,,,2.440000000000,   0.12800,
,,,2.450000000000,   0.12800,
,,,2.460000000000,   0.14000,
,,,2.470000000000,   0.14000,
,,,2.480000000000,   0.12400,
,,,2.490000000000,   0.13200,
,,,2.500000000000,   0.12400,
,,,2.510000000000,   0.14000,
,,,2.520000000000,   0.14000,
,,,2.530000000000,   0.13600,
,,,2.540000000000,   0.13600,
,,,2.550000000000,   0.13600,
,,,2.560000000000,   0.12000,
,,,2.570000000000,   0.13200,
,,,2.580000000000,   0.12800,
,,,2.590000000000,   0.12000,
,,,2.600000000000,   0.12400,
,,,2.610000000000,   0.12800,
,,,2.620000000000,   0.12800,
,,,2.630000000000,   0.13600,
,,,2.640000000000,   0.13600,
,,,2.650000000000,   0.13600,
,,,2.660000000000,   0.12400,
,,,2.670000000000,   0.14000,
,,,2.680000000000,   0.13200,
,,,2.690000000000,   0.12800,
,,,2.700000000000,   0.12000,
,,,2.710000000000,   0.14000,
,,,2.720000000000,   0.12400,
,,,2.730000000000,   0.12400,
,,,2.740000000000,   0.12000,
,,,2.750000000000,   0.12800,
,,,2.760000000000,   0.13200,
,,,2.770000000000,   0.13600,
,,,2.780000000000,   0.13200,
,,,2.790000000000,   0.13200,
,,,2.800000000000,   0.12800,
,,,2.810000000000,   0.13600,
,,,2.820000000000,   0.12800,
,,,2.830000000000,   0.14400,
,,,2.840000000000,   0.14000,
,,,2.850000000000,   0.14000,
,,,2.860000000000,   0.12800,
,,,2.870000000000,   0.12400,
,,,2.880000000000,   0.12400,
,,,2.890000000000,   0.12800,
,,,2.900000000000,   0.12000,
,,,2.910000000000,   0.13200,
,,,2.920000000000,   0.13600,
,,,2.930000000000,   0.13600,
,,,2.940000000000,   0.14000,
,,,2.950000000000,   0.12400,
,,,2.960000000000,   0.14000,
,,,2.970000000000,   0.14400,
,,,2.980000000000,   0.14000,
,,,2.990000000000,   0.12400,
,,,3.000000000000,   0.13200,
,,,3.010000000000,   0.12000,
,,,3.020000000000,   0.12400,
,,,3.030000000000,   0.13600,
,,,3.040000000000,   0.14000,
,,,3.050000000000,   0.13200,
,,,3.060000000000,   0.12400,
,,,3.070000000000,   0.12800,
,,,3.080000000000,   0.12000,
,,,3.090000000000,   0.12800,
,,,3.100000000000,   0.12400,
,,,3.110000000000,   0.12800,
,,,3.120000000000,   0.13600,
,,,3.130000000000,   0.13200,
,,,3.140000000000,   0.13200,
,,,3.150000000000,   0.12400,
,,,3.160000000000,   0.13200,
,,,3.170000000000,   0.12800,
,,,3.180000000000,   0.13600,
,,,3.190000000000,   0.12400,
,,,3.200000000000,   0.13200,
,,,3.210000000000,   0.13200,
,,,3.220000000000,   0.14000,
,,,3.230000000000,   0.13600,
,,,3.240000000000,   0.13600,
,,,3.250000000000,   0.12400,
,,,3.260000000000,   0.13200,
,,,3.270000000000,   0.12800,
,,,3.280000000000,   0.13600,
,,,3.290000000000,   0.12400,
,,,3.300000000000,   0.12400,
,,,3.310000000000,   0.13600,
,,,3.320000000000,   0.12400,
,,,3.330000000000,   0.12400,
,,,3.340000000000,   0.13600,
,,,3.350000000000,   0.14000,
,,,3.360000000000,   0.12400,
,,,3.370000000000,   0.12800,
,,,3.380000000000,   0.12400,
,,,3.390000000000,   0.11600,
,,,3.400000000000,   0.14000,
,,,3.410000000000,   0.12400,
,,,3.420000000000,   0.13600,
,,,3.430000000000,   0.14000,
,,,3.440000000000,   0.13600,
,,,3.450000000000,   0.12800,
,,,3.460000000000,   0.13600,
,,,3.470000000000,   0.13600,
,,,3.480000000000,   0.12800,
,,,3.490000000000,   0.12800,
,,,3.500000000000,   0.12400,
,,,3.510000000000,   0.12400,
,,,3.520000000000,   0.13600,
,,,3.530000000000,   0.13200,
,,,3.540000000000,   0.13600,
,,,3.550000000000,   0.12800,
,,,3.560000000000,   0.12800,
,,,3.570000000000,   0.13600,
,,,3.580000000000,   0.12800,
,,,3.590000000000,   0.14000,
,,,3.600000000000,   0.13600,
,,,3.610000000000,   0.12400,
,,,3.620000000000,   0.13200,
,,,3.630000000000,   0.14000,
,,,3.640000000000,   0.12800,
,,,3.650000000000,   0.13600,
,,,3.660000000000,   0.14000,
,,,3.670000000000,   0.13600,
,,,3.680000000000,   0.13600,
,,,3.690000000000,   0.13200,
,,,3.700000000000,   0.13600,
,,,3.710000000000,   0.14000,
,,,3.720000000000,   0.13600,
,,,3.730000000000,   0.12400,
,,,3.740000000000,   0.13600,
,,,3.750000000000,   0.12400,
,,,3.760000000000,   0.13200,
,,,3.770000000000,   0.12400,
,,,3.780000000000,   0.13200,
,,,3.790000000000,   0.13200,
,,,3.800000000000,   0.12400,
,,,3.810000000000,   0.13600,
,,,3.820000000000,   0.12400,
,,,3.830000000000,   0.12800,
,,,3.840000000000,   0.13600,
,,,3.850000000000,   0.14800,
,,,3.860000000000,   0.14800,
,,,3.870000000000,   0.13600,
,,,3.880000000000,   0.13600,
,,,3.890000000000,   0.14800,
,,,3.900000000000,   0.14800,
,,,3.910000000000,   0.20800,
,,,3.920000000000,   0.21200,
,,,3.930000000000,   0.26000,
,,,3.940000000000,   0.30400,
,,,3.950000000000,   0.27200,
,,,3.960000000000,   0.32800,
,,,3.970000000000,   0.47600,
,,,3.980000000000,   0.44800,
,,,3.990000000000,   0.25200,
,,,4.000000000000,   0.32800,
,,,4.010000000000,   0.62800,
,,,4.020000000000,   0.54000,
,,,4.030000000000,   0.25600,
,,,4.040000000000,   0.21600,
,,,4.050000000000,   0.27200,
,,,4.060000000000,   0.57600,
,,,4.070000000000,   0.75600,
,,,4.080000000000,   0.75200,
,,,4.090000000000,   0.51600,
,,,4.100000000000,   0.39600,
,,,4.110000000000,   0.31600,
,,,4.120000000000,   0.46400,
,,,4.130000000000,   0.52800,
,,,4.140000000000,   0.32400,
,,,4.150000000000,   0.62800,
,,,4.160000000000,   0.38400,
,,,4.170000000000,   0.26400,
,,,4.180000000000,   0.45200,
,,,4.190000000000,   0.74800,
,,,4.200000000000,   0.73200,
,,,4.210000000000,   0.58000,
,,,4.220000000000,   0.56000,
,,,4.230000000000,   0.48400,
,,,4.240000000000,   0.90800,
,,,4.250000000000,   0.91600,
,,,4.260000000000,   0.88800,
,,,4.270000000000,   0.73600,
,,,4.280000000000,   0.91600,
,,,4.290000000000,   0.91600,
,,,4.300000000000,   0.50800,
,,,4.310000000000,   0.33600,
,,,4.320000000000,   0.58000,
,,,4.330000000000,   0.53600,
,,,4.340000000000,   0.57200,
,,,4.350000000000,   0.91600,
,,,4.360000000000,   0.91600,
,,,4.370000000000,   0.72000,
,,,4.380000000000,   0.58800,
,,,4.390000000000,   0.51200,
,,,4.400000000000,   0.64800,
,,,4.410000000000,   0.64000,
,,,4.420000000000,   0.74800,
,,,4.430000000000,   0.68800,
,,,4.440000000000,   0.65600,
,,,4.450000000000,   0.64800,
,,,4.460000000000,   0.70800,
,,,4.470000000000,   0.69600,
,,,4.480000000000,   0.73200,
,,,4.490000000000,   0.74400,
,,,4.500000000000,   0.56400,
,,,4.510000000000,   0.76800,
,,,4.520000000000,   0.76800,
,,,4.530000000000,   0.79200,
,,,4.540000000000,   0.76400,
,,,4.550000000000,   0.60000,
,,,4.560000000000,   0.48800,
,,,4.570000000000,   0.70000,
,,,4.580000000000,   0.72400,
,,,4.590000000000,   0.43600,
,,,4.600000000000,   0.48800,
,,,4.610000000000,   0.47600,
,,,4.620000000000,   0.61200,
,,,4.630000000000,   0.54000,
,,,4.640000000000,   0.67600,
,,,4.650000000000,   0.33600,
,,,4.660000000000,   0.39200,
,,,4.670000000000,   0.35600,
,,,4.680000000000,   0.32000,
,,,4.690000000000,   0.45600,
,,,4.700000000000,   0.55600,
,,,4.710000000000,   0.56800,
,,,4.720000000000,   0.64800,
,,,4.730000000000,   0.46400,
,,,4.740000000000,   0.39200,
,,,4.750000000000,   0.50000,
,,,4.760000000000,   0.45600,
,,,4.770000000000,   0.50000,
,,,4.780000000000,   0.50800,
,,,4.790000000000,   0.42800,
,,,4.800000000000,   0.54000,
,,,4.810000000000,   0.52000,
,,,4.820000000000,   0.39600,
,,,4.830000000000,   0.32400,
,,,4.840000000000,   0.26800,
,,,4.850000000000,   0.31200,
,,,4.860000000000,   0.40000,
,,,4.870000000000,   0.46400,
,,,4.880000000000,   0.66400,
,,,4.890000000000,   0.62400,
,,,4.900000000000,   0.34000,
,,,4.910000000000,   0.34400,
,,,4.920000000000,   0.28000,
,,,4.930000000000,   0.37600,
,,,4.940000000000,   0.26000,
,,,4.950000000000,   0.30400,
,,,4.960000000000,   0.26400,
,,,4.970000000000,   0.54800,
,,,4.980000000000,   0.50400,
,,,4.990000000000,   0.41200,
,,,5.000000000000,   0.48000,
,,,5.010000000000,   0.28000,
,,,5.020000000000,   0.48800,
,,,5.030000000000,   0.36000,
,,,5.040000000000,   0.24400,
,,,5.050000000000,   0.23600,
,,,5.060000000000,   0.29600,
,,,5.070000000000,   0.22400,
,,,5.080000000000,   0.22800,
,,,5.090000000000,   0.28800,
,,,5.100000000000,   0.21600,
,,,5.110000000000,   0.19200,
,,,5.120000000000,   0.19200,
,,,5.130000000000,   0.19200,
,,,5.140000000000,   0.20400,
,,,5.150000000000,   0.20400,
,,,5.160000000000,   0.22800,
,,,5.170000000000,   0.29200,
,,,5.180000000000,   0.28800,
,,,5.190000000000,   0.32400,
,,,5.200000000000,   0.30800,
,,,5.210000000000,   0.27600,
,,,5.220000000000,   0.28000,
,,,5.230000000000,   0.43200,
,,,5.240000000000,   0.40000,
,,,5.250000000000,   0.39200,
,,,5.260000000000,   0.46000,
,,,5.270000000000,   0.42800,
,,,5.280000000000,   0.32800,
,,,5.290000000000,   0.29600,
,,,5.300000000000,   0.28000,
,,,5.310000000000,   0.34400,
,,,5.320000000000,   0.25600,
,,,5.330000000000,   0.32400,
,,,5.340000000000,   0.25600,
,,,5.350000000000,   0.21600,
,,,5.360000000000,   0.20400,
,,,5.370000000000,   0.25200,
,,,5.380000000000,   0.22400,
,,,5.390000000000,   0.25200,
,,,5.400000000000,   0.26800,
,,,5.410000000000,   0.30400,
,,,5.420000000000,   0.24000,
,,,5.430000000000,   0.22400,
,,,5.440000000000,   0.23600,
,,,5.450000000000,   0.25200,
,,,5.460000000000,   0.26800,
,,,5.470000000000,   0.42000,
,,,5.480000000000,   0.43200,
,,,5.490000000000,   0.25200,
,,,5.500000000000,   0.18800,
,,,5.510000000000,   0.16800,
,,,5.520000000000,   0.25600,
,,,5.530000000000,   0.25200,
,,,5.540000000000,   0.24800,
,,,5.550000000000,   0.26800,
,,,5.560000000000,   0.20800,
,,,5.570000000000,   0.20800,
,,,5.580000000000,   0.24800,
,,,5.590000000000,   0.30400,
,,,5.600000000000,   0.30000,
,,,5.610000000000,   0.31200,
,,,5.620000000000,   0.27600,
,,,5.630000000000,   0.19200,
,,,5.640000000000,   0.12800,
,,,5.650000000000,   0.13200,
,,,5.660000000000,   0.20400,
,,,5.670000000000,   0.20000,
,,,5.680000000000,   0.28400,
,,,5.690000000000,   0.25600,
,,,5.700000000000,   0.23600,
,,,5.710000000000,   0.17200,
,,,5.720000000000,   0.22400,
,,,5.730000000000,   0.26400,
,,,5.740000000000,   0.21600,
,,,5.750000000000,   0.17200,
,,,5.760000000000,   0.16800,
,,,5.770000000000,   0.22800,
,,,5.780000000000,   0.19600,
,,,5.790000000000,   0.19600,
,,,5.800000000000,   0.15200,
,,,5.810000000000,   0.15600,
,,,5.820000000000,   0.16400,
,,,5.830000000000,   0.16400,
,,,5.840000000000,   0.17600,
,,,5.850000000000,   0.17600,
,,,5.860000000000,   0.18800,
,,,5.870000000000,   0.18800,
,,,5.880000000000,   0.18000,
,,,5.890000000000,   0.18400,
,,,5.900000000000,   0.28800,
,,,5.910000000000,   0.28000,
,,,5.920000000000,   0.27600,
,,,5.930000000000,   0.26000,
,,,5.940000000000,   0.24400,
,,,5.950000000000,   0.21600,
,,,5.960000000000,   0.21200,
,,,5.970000000000,   0.24400,
,,,5.980000000000,   0.24400,
,,,5.990000000000,   0.18400,
,,,6.000000000000,   0.18800,
,,,6.010000000000,   0.21600,
,,,6.020000000000,   0.18800,
,,,6.030000000000,   0.18800,
,,,6.040000000000,   0.17600,
,,,6.050000000000,   0.14800,
,,,6.060000000000,   0.15600,
,,,6.070000000000,   0.28000,
,,,6.080000000000,   0.17600,
,,,6.090000000000,   0.15200,
,,,6.100000000000,   0.20400,
,,,6.110000000000,   0.23200,
,,,6.120000000000,   0.25200,
,,,6.130000000000,   0.19200,
,,,6.140000000000,   0.19200,
,,,6.150000000000,   0.17600,
,,,6.160000000000,   0.25200,
,,,6.170000000000,   0.19600,
,,,6.180000000000,   0.18000,
,,,6.190000000000,   0.17600,
,,,6.200000000000,   0.17600,
,,,6.210000000000,   0.23600,
,,,6.220000000000,   0.22400,
,,,6.230000000000,   0.19600,
,,,6.240000000000,   0.20000,
,,,6.250000000000,   0.18400,
,,,6.260000000000,   0.17200,
,,,6.270000000000,   0.18400,
,,,6.280000000000,   0.16000,
,,,6.290000000000,   0.13600,
,,,6.300000000000,   0.12800,
,,,6.310000000000,   0.14800,
,,,6.320000000000,   0.16800,
,,,6.330000000000,   0.14400,
,,,6.340000000000,   0.15600,
,,,6.350000000000,   0.16400,
,,,6.360000000000,   0.23200,
,,,6.370000000000,   0.22000,
,,,6.380000000000,   0.18800,
,,,6.390000000000,   0.16800,
,,,6.400000000000,   0.16400,
,,,6.410000000000,   0.15600,
,,,6.420000000000,   0.20000,
,,,6.430000000000,   0.19600,
,,,6.440000000000,   0.20800,
,,,6.450000000000,   0.22400,
,,,6.460000000000,   0.17600,
,,,6.470000000000,   0.16800,
,,,6.480000000000,   0.17200,
,,,6.490000000000,   0.21600,
,,,6.500000000000,   0.17600,
,,,6.510000000000,   0.23200,
,,,6.520000000000,   0.16000,
,,,6.530000000000,   0.17200,
