ipy_notebooks/20161031/ALL0015/F0015CH1.CSV

Record Length,2.500000e+03,,   0.000000000000,   0.12000,
Sample Interval,2.000000e-02,,   0.020000000000,   0.13280,
Trigger Point,-0.000000000000e+00,,   0.040000000000,   0.12400,
,,,   0.060000000000,   0.11440,
,,,   0.080000000000,   0.12640,
,,,   0.100000000000,   0.13360,
Source,CH1,,   0.120000000000,   0.12640,
Vertical Units,V,,   0.140000000000,   0.13280,
Vertical Scale,2.000000e-02,,   0.160000000000,   0.11840,
Vertical Offset,-1.424000e-01,,   0.180000000000,   0.12320,
Horizontal Units,s,,   0.200000000000,   0.11840,
Horizontal Scale,5.000000e+00,,   0.220000000000,   0.11680,
Pt Fmt,Y,,   0.240000000000,   0.12880,
Yzero,0.000000e+00,,   0.260000000000,   0.12720,
Probe Atten,1.000000e+00,,   0.280000000000,   0.12400,
Model Number,TBS1072B-EDU,,   0.300000000000,   0.12640,
Serial Number,C010859,,   0.320000000000,   0.11840,
Firmware Version,FV:v4.06,,   0.340000000000,   0.12400,
,,,0.360000000000,   0.12480,
,,,0.380000000000,   0.12320,
,,,0.400000000000,   0.11600,
,,,0.420000000000,   0.13440,
,,,0.440000000000,   0.12640,
,,,0.460000000000,   0.12480,
,,,0.480000000000,   0.12480,
,,,0.500000000000,   0.12960,
,,,0.520000000000,   0.13040,
,,,0.540000000000,   0.13120,
,,,0.560000000000,   0.13200,
,,,0.580000000000,   0.11360,
,,,0.600000000000,   0.12000,
,,,0.620000000000,   0.11680,
,,,0.640000000000,   0.12880,
,,,0.660000000000,   0.11360,
,,,0.680000000000,   0.12960,
,,,0.700000000000,   0.13360,
,,,0.720000000000,   0.11760,
,,,0.740000000000,   0.12320,
,,,0.760000000000,   0.13280,
,,,0.780000000000,   0.11760,
,,,0.800000000000,   0.11680,
,,,0.820000000000,   0.11840,
,,,0.840000000000,   0.11680,
,,,0.860000000000,   0.12640,
,,,0.880000000000,   0.13360,
,,,0.900000000000,   0.13200,
,,,0.920000000000,   0.12240,
,,,0.940000000000,   0.12400,
,,,0.960000000000,   0.12960,
,,,0.980000000000,   0.13200,
,,,1.000000000000,   0.12320,
,,,1.020000000000,   0.12000,
,,,1.040000000000,   0.11440,
,,,1.060000000000,   0.11440,
,,,1.080000000000,   0.12480,
,,,1.100000000000,   0.13200,
,,,1.120000000000,   0.12720,
,,,1.140000000000,   0.12400,
,,,1.160000000000,   0.11760,
,,,1.180000000000,   0.12320,
,,,1.200000000000,   0.11920,
,,,1.220000000000,   0.11840,
,,,1.240000000000,   0.13440,
,,,1.260000000000,   0.11680,
,,,1.280000000000,   0.13440,
,,,1.300000000000,   0.12560,
,,,1.320000000000,   0.13360,
,,,1.340000000000,   0.12640,
,,,1.360000000000,   0.13440,
,,,1.380000000000,   0.13200,
,,,1.400000000000,   0.12160,
,,,1.420000000000,   0.12960,
,,,1.440000000000,   0.12480,
,,,1.460000000000,   0.11840,
,,,1.480000000000,   0.13280,
,,,1.500000000000,   0.13200,
,,,1.520000000000,   0.13280,
,,,1.540000000000,   0.12400,
,,,1.560000000000,   0.12880,
,,,1.580000000000,   0.12720,
,,,1.600000000000,   0.12000,
,,,1.620000000000,   0.12080,
,,,1.640000000000,   0.11840,
,,,1.660000000000,   0.13120,
,,,1.680000000000,   0.13360,
,,,1.700000000000,   0.11360,
,,,1.720000000000,   0.13120,
,,,1.740000000000,   0.12400,
,,,1.760000000000,   0.12640,
,,,1.780000000000,   0.12320,
,,,1.800000000000,   0.12400,
,,,1.820000000000,   0.13200,
,,,1.840000000000,   0.12000,
,,,1.860000000000,   0.13200,
,,,1.880000000000,   0.13120,
,,,1.900000000000,   0.12560,
,,,1.920000000000,   0.11760,
,,,1.940000000000,   0.11840,
,,,1.960000000000,   0.13120,
,,,1.980000000000,   0.12160,
,,,2.000000000000,   0.12960,
,,,2.020000000000,   0.12240,
,,,2.040000000000,   0.13200,
,,,2.060000000000,   0.13280,
,,,2.080000000000,   0.12800,
,,,2.100000000000,   0.12640,
,,,2.120000000000,   0.11760,
,,,2.140000000000,   0.12640,
,,,2.160000000000,   0.11840,
,,,2.180000000000,   0.12000,
,,,2.200000000000,   0.11680,
,,,2.220000000000,   0.13440,
,,,2.240000000000,   0.11760,
,,,2.260000000000,   0.12160,
,,,2.280000000000,   0.12000,
,,,2.300000000000,   0.12080,
,,,2.320000000000,   0.13360,
,,,2.340000000000,   0.12000,
,,,2.360000000000,   0.12400,
,,,2.380000000000,   0.12000,
,,,2.400000000000,   0.12000,
,,,2.420000000000,   0.11920,
,,,2.440000000000,   0.11680,
,,,2.460000000000,   0.11280,
,,,2.480000000000,   0.13520,
,,,2.500000000000,   0.11920,
,,,2.520000000000,   0.12160,
,,,2.540000000000,   0.12640,
,,,2.560000000000,   0.12480,
,,,2.580000000000,   0.13040,
,,,2.600000000000,   0.12960,
,,,2.620000000000,   0.12480,
,,,2.640000000000,   0.12560,
,,,2.660000000000,   0.13120,
,,,2.680000000000,   0.13360,
,,,2.700000000000,   0.12240,
,,,2.720000000000,   0.12640,
,,,2.740000000000,   0.12080,
,,,2.760000000000,   0.11920,
,,,2.780000000000,   0.12480,
,,,2.800000000000,   0.13200,
,,,2.820000000000,   0.13520,
,,,2.840000000000,   0.11920,
,,,2.860000000000,   0.12320,
,,,2.880000000000,   0.12960,
,,,2.900000000000,   0.11600,
,,,2.920000000000,   0.12080,
,,,2.940000000000,   0.13040,
,,,2.960000000000,   0.11920,
,,,2.980000000000,   0.13040,
,,,3.000000000000,   0.12640,
,,,3.020000000000,   0.12480,
,,,3.040000000000,   0.13040,
,,,3.060000000000,   0.12640,
,,,3.080000000000,   0.13120,
,,,3.100000000000,   0.13120,
,,,3.120000000000,   0.12880,
,,,3.140000000000,   0.12000,
,,,3.160000000000,   0.13360,
,,,3.180000000000,   0.12480,
,,,3.200000000000,   0.13600,
,,,3.220000000000,   0.12880,
,,,3.240000000000,   0.12720,
,,,3.260000000000,   0.11440,
,,,3.280000000000,   0.12560,
,,,3.300000000000,   0.12000,
,,,3.320000000000,   0.11840,
,,,3.340000000000,   0.13360,
,,,3.360000000000,   0.12560,
,,,3.380000000000,   0.12560,
,,,3.400000000000,   0.13040,
,,,3.420000000000,   0.12240,
,,,3.440000000000,   0.13120,
,,,3.460000000000,   0.12000,
,,,3.480000000000,   0.12960,
,,,3.500000000000,   0.12640,
,,,3.520000000000,   0.13520,
,,,3.540000000000,   0.12560,
,,,3.560000000000,   0.12240,
,,,3.580000000000,   0.12960,
,,,3.600000000000,   0.13120,
,,,3.620000000000,   0.11920,
,,,3.640000000000,   0.13680,
,,,3.660000000000,   0.12720,
,,,3.680000000000,   0.11920,
,,,3.700000000000,   0.13360,
,,,3.720000000000,   0.12080,
,,,3.740000000000,   0.11680,
,,,3.760000000000,   0.12640,
,,,3.780000000000,   0.13200,
,,,3.800000000000,   0.12880,
,,,3.820000000000,   0.11600,
,,,3.840000000000,   0.11440,
,,,3.860000000000,   0.12000,
,,,3.880000000000,   0.11760,
,,,3.900000000000,   0.12640,
,,,3.920000000000,   0.11600,
,,,3.940000000000,   0.11520,
,,,3.960000000000,   0.12640,
,,,3.980000000000,   0.13440,
,,,4.000000000000,   0.12160,
,,,4.020000000000,   0.13440,
,,,4.040000000000,   0.12000,
,,,4.060000000000,   0.12240,
,,,4.080000000000,   0.12560,
,,,4.100000000000,   0.12720,
,,,4.120000000000,   0.12160,
,,,4.140000000000,   0.13280,
,,,4.160000000000,   0.11440,
,,,4.180000000000,   0.13200,
,,,4.200000000000,   0.12960,
,,,4.220000000000,   0.12720,
,,,4.240000000000,   0.13200,
,,,4.260000000000,   0.11840,
,,,4.280000000000,   0.13360,
,,,4.300000000000,   0.12720,
,,,4.320000000000,   0.12480,
,,,4.340000000000,   0.12080,
,,,4.360000000000,   0.13440,
,,,4.380000000000,   0.13280,
,,,4.400000000000,   0.12320,
,,,4.420000000000,   0.11920,
,,,4.440000000000,   0.12240,
,,,4.460000000000,   0.11760,
,,,4.480000000000,   0.12640,
,,,4.500000000000,   0.12000,
,,,4.520000000000,   0.11440,
,,,4.540000000000,   0.12320,
,,,4.560000000000,   0.12240,
,,,4.580000000000,   0.13520,
,,,4.600000000000,   0.12960,
,,,4.620000000000,   0.13200,
,,,4.640000000000,   0.12000,
,,,4.660000000000,   0.12960,
,,,4.680000000000,   0.13360,
,,,4.700000000000,   0.13200,
,,,4.720000000000,   0.12240,
,,,4.740000000000,   0.13200,
,,,4.760000000000,   0.13520,
,,,4.780000000000,   0.13120,
,,,4.800000000000,   0.13440,
,,,4.820000000000,   0.13600,
,,,4.840000000000,   0.13600,
,,,4.860000000000,   0.13440,
,,,4.880000000000,   0.13520,
,,,4.900000000000,   0.13040,
,,,4.920000000000,   0.13520,
,,,4.940000000000,   0.12560,
,,,4.960000000000,   0.11920,
,,,4.980000000000,   0.12480,
,,,5.000000000000,   0.13120,
,,,5.020000000000,   0.12800,
,,,5.040000000000,   0.11920,
,,,5.060000000000,   0.12000,
,,,5.080000000000,   0.12800,
,,,5.100000000000,   0.12720,
,,,5.120000000000,   0.12560,
,,,5.140000000000,   0.12080,
,,,5.160000000000,   0.12160,
,,,5.180000000000,   0.11840,
,,,5.200000000000,   0.13520,
,,,5.220000000000,   0.13120,
,,,5.240000000000,   0.12800,
,,,5.260000000000,   0.12000,
,,,5.280000000000,   0.13360,
,,,5.300000000000,   0.12560,
,,,5.320000000000,   0.12800,
,,,5.340000000000,   0.12080,
,,,5.360000000000,   0.12080,
,,,5.380000000000,   0.13120,
,,,5.400000000000,   0.12960,
,,,5.420000000000,   0.13040,
,,,5.440000000000,   0.12560,
,,,5.460000000000,   0.12720,
,,,5.480000000000,   0.13120,
,,,5.500000000000,   0.13520,
,,,5.520000000000,   0.12720,
,,,5.540000000000,   0.13360,
,,,5.560000000000,   0.11920,
,,,5.580000000000,   0.12880,
,,,5.600000000000,   0.12000,
,,,5.620000000000,   0.12800,
,,,5.640000000000,   0.13200,
,,,5.660000000000,   0.13040,
,,,5.680000000000,   0.12880,
,,,5.700000000000,   0.12320,
,,,5.720000000000,   0.12160,
,,,5.740000000000,   0.13520,
,,,5.760000000000,   0.12560,
,,,5.780000000000,   0.12240,
,,,5.800000000000,   0.11920,
,,,5.820000000000,   0.13040,
,,,5.840000000000,   0.12000,
,,,5.860000000000,   0.12640,
,,,5.880000000000,   0.13520,
,,,5.900000000000,   0.13600,
,,,5.920000000000,   0.11840,
,,,5.940000000000,   0.13200,
,,,5.960000000000,   0.13440,
,,,5.980000000000,   0.11680,
,,,6.000000000000,   0.12560,
,,,6.020000000000,   0.13200,
,,,6.040000000000,   0.12640,
,,,6.060000000000,   0.13200,
,,,6.080000000000,   0.13040,
,,,6.100000000000,   0.13040,
,,,6.120000000000,   0.13120,
,,,6.140000000000,   0.12960,
,,,6.160000000000,   0.11600,
,,,6.180000000000,   0.13040,
,,,6.200000000000,   0.12400,
,,,6.220000000000,   0.12240,
,,,6.240000000000,   0.12960,
,,,6.260000000000,   0.13040,
,,,6.280000000000,   0.12720,
,,,6.300000000000,   0.12160,
,,,6.320000000000,   0.13600,
,,,6.340000000000,   0.13360,
,,,6.360000000000,   0.13360,
,,,6.380000000000,   0.12720,
,,,6.400000000000,   0.11680,
,,,6.420000000000,   0.12800,
,,,6.440000000000,   0.13360,
,,,6.460000000000,   0.11440,
,,,6.480000000000,   0.12080,
,,,6.500000000000,   0.12640,
,,,6.520000000000,   0.12640,
,,,6.540000000000,   0.11840,
,,,6.560000000000,   0.11840,
,,,6.580000000000,   0.12880,
,,,6.600000000000,   0.13040,
,,,6.620000000000,   0.12480,
,,,6.640000000000,   0.13120,
,,,6.660000000000,   0.12640,
,,,6.680000000000,   0.12080,
,,,6.700000000000,   0.12080,
,,,6.720000000000,   0.12080,
,,,6.740000000000,   0.11760,
,,,6.760000000000,   0.11520,
,,,6.780000000000,   0.12480,
,,,6.800000000000,   0.11840,
,,,6.820000000000,   0.12400,
,,,6.840000000000,   0.12640,
,,,6.860000000000,   0.12000,
,,,6.880000000000,   0.13200,
,,,6.900000000000,   0.13360,
,,,6.920000000000,   0.11520,
,,,6.940000000000,   0.11680,
,,,6.960000000000,   0.13120,
,,,6.980000000000,   0.12720,
,,,7.000000000000,   0.12080,
,,,7.020000000000,   0.12320,
,,,7.040000000000,   0.13200,
,,,7.060000000000,   0.12080,
,,,7.080000000000,   0.13360,
,,,7.100000000000,   0.13040,
,,,7.120000000000,   0.12800,
,,,7.140000000000,   0.12320,
,,,7.160000000000,   0.11920,
,,,7.180000000000,   0.12320,
,,,7.200000000000,   0.13440,
,,,7.220000000000,   0.13840,
,,,7.240000000000,   0.12320,
,,,7.260000000000,   0.12880,
,,,7.280000000000,   0.12320,
,,,7.300000000000,   0.13520,
,,,7.320000000000,   0.12800,
,,,7.340000000000,   0.12400,
,,,7.360000000000,   0.13280,
,,,7.380000000000,   0.12960,
,,,7.400000000000,   0.14160,
,,,7.420000000000,   0.13040,
,,,7.440000000000,   0.12560,
,,,7.460000000000,   0.13920,
,,,7.480000000000,   0.14320,
,,,7.500000000000,   0.13120,
,,,7.520000000000,   0.13280,
,,,7.540000000000,   0.14640,
,,,7.560000000000,   0.14240,
,,,7.580000000000,   0.13200,
,,,7.600000000000,   0.13360,
,,,7.620000000000,   0.14400,
,,,7.640000000000,   0.13440,
,,,7.660000000000,   0.13760,
,,,7.680000000000,   0.13920,
,,,7.700000000000,   0.13280,
,,,7.720000000000,   0.12880,
,,,7.740000000000,   0.14960,
,,,7.760000000000,   0.14000,
,,,7.780000000000,   0.14000,
,,,7.800000000000,   0.13040,
,,,7.820000000000,   0.14240,
,,,7.840000000000,   0.14400,
,,,7.860000000000,   0.14320,
,,,7.880000000000,   0.13520,
,,,7.900000000000,   0.13600,
,,,7.920000000000,   0.14640,
,,,7.940000000000,   0.14000,
,,,7.960000000000,   0.14000,
,,,7.980000000000,   0.14960,
,,,8.000000000000,   0.14560,
,,,8.020000000000,   0.14160,
,,,8.040000000000,   0.15600,
,,,8.060000000000,   0.15200,
,,,8.080000000000,   0.15360,
,,,8.100000000000,   0.15600,
,,,8.120000000000,   0.15040,
,,,8.140000000000,   0.14080,
,,,8.160000000000,   0.13520,
,,,8.180000000000,   0.13920,
,,,8.200000000000,   0.15120,
,,,8.220000000000,   0.14960,
,,,8.240000000000,   0.14640,
,,,8.260000000000,   0.15920,
,,,8.280000000000,   0.15600,
,,,8.300000000000,   0.15280,
,,,8.320000000000,   0.15600,
,,,8.340000000000,   0.14960,
,,,8.360000000000,   0.14640,
,,,8.380000000000,   0.13520,
,,,8.400000000000,   0.15440,
,,,8.420000000000,   0.13520,
,,,8.440000000000,   0.14960,
,,,8.460000000000,   0.13520,
,,,8.480000000000,   0.14560,
,,,8.500000000000,   0.15520,
,,,8.520000000000,   0.15120,
,,,8.540000000000,   0.13760,
,,,8.560000000000,   0.14160,
,,,8.580000000000,   0.14240,
,,,8.600000000000,   0.13680,
,,,8.620000000000,   0.15120,
,,,8.640000000000,   0.13680,
,,,8.660000000000,   0.13920,
,,,8.680000000000,   0.13840,
,,,8.700000000000,   0.14080,
,,,8.720000000000,   0.13760,
,,,8.740000000000,   0.15600,
,,,8.760000000000,   0.14400,
,,,8.780000000000,   0.15440,
,,,8.800000000000,   0.14880,
,,,8.820000000000,   0.15200,
,,,8.840000000000,   0.13760,
,,,8.860000000000,   0.14560,
,,,8.880000000000,   0.14160,
,,,8.900000000000,   0.13040,
,,,8.920000000000,   0.14160,
,,,8.940000000000,   0.13600,
,,,8.960000000000,   0.15120,
,,,8.980000000000,   0.14160,
,,,9.000000000000,   0.15200,
,,,9.020000000000,   0.14320,
,,,9.040000000000,   0.15040,
,,,9.060000000000,   0.14080,
,,,9.080000000000,   0.14000,
,,,9.100000000000,   0.15200,
,,,9.120000000000,   0.14960,
,,,9.140000000000,   0.14000,
,,,9.160000000000,   0.13840,
,,,9.180000000000,   0.14640,
,,,9.200000000000,   0.13520,
,,,9.220000000000,   0.14640,
,,,9.240000000000,   0.15360,
,,,9.260000000000,   0.14800,
,,,9.280000000000,   0.13760,
,,,9.300000000000,   0.15280,
,,,9.320000000000,   0.13600,
,,,9.340000000000,   0.14160,
,,,9.360000000000,   0.14400,
,,,9.380000000000,   0.15120,
,,,9.400000000000,   0.14720,
,,,9.420000000000,   0.13840,
,,,9.440000000000,   0.15120,
,,,9.460000000000,   0.15040,
,,,9.480000000000,   0.14400,
,,,9.500000000000,   0.14320,
,,,9.520000000000,   0.15120,
,,,9.540000000000,   0.15360,
,,,9.560000000000,   0.15200,
,,,9.580000000000,   0.15360,
,,,9.600000000000,   0.15520,
,,,9.620000000000,   0.13920,
,,,9.640000000000,   0.13600,
,,,9.660000000000,   0.14240,
,,,9.680000000000,   0.14160,
,,,9.700000000000,   0.14240,
,,,9.720000000000,   0.13360,
,,,9.740000000000,   0.14080,
,,,9.760000000000,   0.14960,
,,,9.780000000000,   0.15680,
,,,9.800000000000,   0.13680,
,,,9.820000000000,   0.14000,
,,,9.840000000000,   0.13920,
,,,9.860000000000,   0.14480,
,,,9.880000000000,   0.14640,
,,,9.900000000000,   0.14400,
,,,9.920000000000,   0.13600,
,,,9.940000000000,   0.14480,
,,,9.960000000000,   0.13360,
,,,9.980000000000,   0.14000,
,,,10.000000000000,   0.14400,
,,,10.020000000000,   0.15120,
,,,10.040000000000,   0.13760,
,,,10.060000000000,   0.14080,
,,,10.080000000000,   0.13600,
,,,10.100000000000,   0.13680,
,,,10.120000000000,   0.15440,
,,,10.140000000000,   0.14400,
,,,10.160000000000,   0.13360,
,,,10.180000000000,   0.14960,
,,,10.200000000000,   0.15040,
,,,10.220000000000,   0.14000,
,,,10.240000000000,   0.12880,
,,,10.260000000000,   0.13920,
,,,10.280000000000,   0.13760,
,,,10.300000000000,   0.13600,
,,,10.320000000000,   0.13440,
,,,10.340000000000,   0.14080,
,,,10.360000000000,   0.13600,
,,,10.380000000000,   0.14960,
,,,10.400000000000,   0.12800,
,,,10.420000000000,   0.13280,
,,,10.440000000000,   0.13680,
,,,10.460000000000,   0.14080,
,,,10.480000000000,   0.13520,
,,,10.500000000000,   0.13840,
,,,10.520000000000,   0.13120,
,,,10.540000000000,   0.14480,
,,,10.560000000000,   0.13440,
,,,10.580000000000,   0.13520,
,,,10.600000000000,   0.14160,
,,,10.620000000000,   0.15120,
,,,10.640000000000,   0.13440,
,,,10.660000000000,   0.13120,
,,,10.680000000000,   0.15040,
,,,10.700000000000,   0.15360,
,,,10.720000000000,   0.15280,
,,,10.740000000000,   0.14400,
,,,10.760000000000,   0.14640,
,,,10.780000000000,   0.14800,
,,,10.800000000000,   0.13600,
,,,10.820000000000,   0.13840,
,,,10.840000000000,   0.14320,
,,,10.860000000000,   0.13600,
,,,10.880000000000,   0.13760,
,,,10.900000000000,   0.12800,
,,,10.920000000000,   0.13200,
,,,10.940000000000,   0.12960,
,,,10.960000000000,   0.15040,
,,,10.980000000000,   0.13760,
,,,11.000000000000,   0.14400,
,,,11.020000000000,   0.13840,
,,,11.040000000000,   0.14560,
,,,11.060000000000,   0.14000,
,,,11.080000000000,   0.14640,
,,,11.100000000000,   0.14080,
,,,11.120000000000,   0.14240,
,,,11.140000000000,   0.15200,
,,,11.160000000000,   0.13440,
,,,11.180000000000,   0.13920,
,,,11.200000000000,   0.13520,
,,,11.220000000000,   0.14640,
,,,11.240000000000,   0.12960,
,,,11.260000000000,   0.14320,
,,,11.280000000000,   0.13920,
,,,11.300000000000,   0.12720,
,,,11.320000000000,   0.12880,
,,,11.340000000000,   0.14320,
,,,11.360000000000,   0.14080,
,,,11.380000000000,   0.14960,
,,,11.400000000000,   0.14000,
,,,11.420000000000,   0.14320,
,,,11.440000000000,   0.14000,
,,,11.460000000000,   0.14080,
,,,11.480000000000,   0.14880,
,,,11.500000000000,   0.13200,
,,,11.520000000000,   0.14160,
,,,11.540000000000,   0.12960,
,,,11.560000000000,   0.15360,
,,,11.580000000000,   0.12960,
,,,11.600000000000,   0.14000,
,,,11.620000000000,   0.13840,
,,,11.640000000000,   0.13920,
,,,11.660000000000,   0.14480,
,,,11.680000000000,   0.13760,
,,,11.700000000000,   0.14320,
,,,11.720000000000,   0.14240,
,,,11.740000000000,   0.13120,
,,,11.760000000000,   0.14400,
,,,11.780000000000,   0.13920,
,,,11.800000000000,   0.14080,
,,,11.820000000000,   0.13200,
,,,11.840000000000,   0.13680,
,,,11.860000000000,   0.13520,
,,,11.880000000000,   0.13680,
,,,11.900000000000,   0.13360,
,,,11.920000000000,   0.13040,
,,,11.940000000000,   0.13520,
,,,11.960000000000,   0.13200,
,,,11.980000000000,   0.14080,
,,,12.000000000000,   0.12960,
,,,12.020000000000,   0.12640,
,,,12.040000000000,   0.13600,
,,,12.060000000000,   0.13200,
,,,12.080000000000,   0.12880,
,,,12.100000000000,   0.13520,
,,,12.120000000000,   0.12960,
,,,12.140000000000,   0.13120,
,,,12.160000000000,   0.12880,
,,,12.180000000000,   0.12320,
,,,12.200000000000,   0.13840,
,,,12.220000000000,   0.14720,
,,,12.240000000000,   0.14320,
,,,12.260000000000,   0.14720,
,,,12.280000000000,   0.13760,
,,,12.300000000000,   0.12960,
,,,12.320000000000,   0.14000,
,,,12.340000000000,   0.13200,
,,,12.360000000000,   0.14000,
,,,12.380000000000,   0.14560,
,,,12.400000000000,   0.13040,
,,,12.420000000000,   0.14320,
,,,12.440000000000,   0.13360,
,,,12.460000000000,   0.12640,
,,,12.480000000000,   0.12160,
,,,12.500000000000,   0.13200,
,,,12.520000000000,   0.12480,
,,,12.540000000000,   0.13680,
,,,12.560000000000,   0.14000,
,,,12.580000000000,   0.14000,
,,,12.600000000000,   0.12960,
,,,12.620000000000,   0.13200,
,,,12.640000000000,   0.13840,
,,,12.660000000000,   0.13360,
,,,12.680000000000,   0.13280,
,,,12.700000000000,   0.14080,
,,,12.720000000000,   0.13040,
,,,12.740000000000,   0.14400,
,,,12.760000000000,   0.14320,
,,,12.780000000000,   0.13760,
,,,12.800000000000,   0.13680,
,,,12.820000000000,   0.13360,
,,,12.840000000000,   0.14000,
,,,12.860000000000,   0.12880,
,,,12.880000000000,   0.13120,
,,,12.900000000000,   0.14160,
,,,12.920000000000,   0.13920,
,,,12.940000000000,   0.13280,
,,,12.960000000000,   0.13360,
