ipy_notebooks/GC/20161031/F0011CH1.CSV

Record Length,2.500000e+03,,   0.000000000000,   0.27120,
Sample Interval,2.000000e-02,,   0.020000000000,   0.27920,
Trigger Point,-0.000000000000e+00,,   0.040000000000,   0.27040,
,,,   0.060000000000,   0.27440,
,,,   0.080000000000,   0.26720,
,,,   0.100000000000,   0.27600,
Source,CH1,,   0.120000000000,   0.27680,
Vertical Units,V,,   0.140000000000,   0.26880,
Vertical Scale,2.000000e-02,,   0.160000000000,   0.27760,
Vertical Offset,-3.144000e-01,,   0.180000000000,   0.28160,
Horizontal Units,s,,   0.200000000000,   0.28080,
Horizontal Scale,5.000000e+00,,   0.220000000000,   0.27120,
Pt Fmt,Y,,   0.240000000000,   0.27520,
Yzero,0.000000e+00,,   0.260000000000,   0.28560,
Probe Atten,1.000000e+00,,   0.280000000000,   0.28400,
Model Number,TBS1072B-EDU,,   0.300000000000,   0.26800,
Serial Number,C010859,,   0.320000000000,   0.27680,
Firmware Version,FV:v4.06,,   0.340000000000,   0.27040,
,,,0.360000000000,   0.28160,
,,,0.380000000000,   0.27680,
,,,0.400000000000,   0.28080,
,,,0.420000000000,   0.28160,
,,,0.440000000000,   0.28160,
,,,0.460000000000,   0.26880,
,,,0.480000000000,   0.28160,
,,,0.500000000000,   0.28320,
,,,0.520000000000,   0.26800,
,,,0.540000000000,   0.27520,
,,,0.560000000000,   0.28080,
,,,0.580000000000,   0.27200,
,,,0.600000000000,   0.28080,
,,,0.620000000000,   0.27200,
,,,0.640000000000,   0.27040,
,,,0.660000000000,   0.26880,
,,,0.680000000000,   0.28480,
,,,0.700000000000,   0.27040,
,,,0.720000000000,   0.28000,
,,,0.740000000000,   0.26880,
,,,0.760000000000,   0.26800,
,,,0.780000000000,   0.27040,
,,,0.800000000000,   0.27280,
,,,0.820000000000,   0.28160,
,,,0.840000000000,   0.28160,
,,,0.860000000000,   0.26960,
,,,0.880000000000,   0.28160,
,,,0.900000000000,   0.26320,
,,,0.920000000000,   0.27920,
,,,0.940000000000,   0.27920,
,,,0.960000000000,   0.27600,
,,,0.980000000000,   0.27840,
,,,1.000000000000,   0.27440,
,,,1.020000000000,   0.27840,
,,,1.040000000000,   0.28000,
,,,1.060000000000,   0.27920,
,,,1.080000000000,   0.28000,
,,,1.100000000000,   0.28240,
,,,1.120000000000,   0.26720,
,,,1.140000000000,   0.27920,
,,,1.160000000000,   0.27600,
,,,1.180000000000,   0.27040,
,,,1.200000000000,   0.28400,
,,,1.220000000000,   0.26480,
,,,1.240000000000,   0.26960,
,,,1.260000000000,   0.26720,
,,,1.280000000000,   0.26880,
,,,1.300000000000,   0.27920,
,,,1.320000000000,   0.27680,
,,,1.340000000000,   0.27360,
,,,1.360000000000,   0.26960,
,,,1.380000000000,   0.27600,
,,,1.400000000000,   0.27280,
,,,1.420000000000,   0.28160,
,,,1.440000000000,   0.28320,
,,,1.460000000000,   0.27520,
,,,1.480000000000,   0.28080,
,,,1.500000000000,   0.28400,
,,,1.520000000000,   0.26960,
,,,1.540000000000,   0.28160,
,,,1.560000000000,   0.27520,
,,,1.580000000000,   0.28080,
,,,1.600000000000,   0.26960,
,,,1.620000000000,   0.26960,
,,,1.640000000000,   0.26640,
,,,1.660000000000,   0.27920,
,,,1.680000000000,   0.28080,
,,,1.700000000000,   0.27680,
,,,1.720000000000,   0.28160,
,,,1.740000000000,   0.27680,
,,,1.760000000000,   0.26560,
,,,1.780000000000,   0.28240,
,,,1.800000000000,   0.28000,
,,,1.820000000000,   0.26880,
,,,1.840000000000,   0.27840,
,,,1.860000000000,   0.27840,
,,,1.880000000000,   0.26960,
,,,1.900000000000,   0.28160,
,,,1.920000000000,   0.28240,
,,,1.940000000000,   0.26640,
,,,1.960000000000,   0.27520,
,,,1.980000000000,   0.28160,
,,,2.000000000000,   0.27360,
,,,2.020000000000,   0.27440,
,,,2.040000000000,   0.27920,
,,,2.060000000000,   0.26800,
,,,2.080000000000,   0.27280,
,,,2.100000000000,   0.26720,
,,,2.120000000000,   0.27920,
,,,2.140000000000,   0.27840,
,,,2.160000000000,   0.26480,
,,,2.180000000000,   0.26880,
,,,2.200000000000,   0.27360,
,,,2.220000000000,   0.26880,
,,,2.240000000000,   0.26560,
,,,2.260000000000,   0.26960,
,,,2.280000000000,   0.26880,
,,,2.300000000000,   0.28080,
,,,2.320000000000,   0.27920,
,,,2.340000000000,   0.27200,
,,,2.360000000000,   0.26800,
,,,2.380000000000,   0.26560,
,,,2.400000000000,   0.26320,
,,,2.420000000000,   0.27520,
,,,2.440000000000,   0.27680,
,,,2.460000000000,   0.26640,
,,,2.480000000000,   0.27360,
,,,2.500000000000,   0.27520,
,,,2.520000000000,   0.27840,
,,,2.540000000000,   0.28080,
,,,2.560000000000,   0.27840,
,,,2.580000000000,   0.26720,
,,,2.600000000000,   0.28080,
,,,2.620000000000,   0.27760,
,,,2.640000000000,   0.28160,
,,,2.660000000000,   0.28160,
,,,2.680000000000,   0.26880,
,,,2.700000000000,   0.27840,
,,,2.720000000000,   0.28160,
,,,2.740000000000,   0.26400,
,,,2.760000000000,   0.26160,
,,,2.780000000000,   0.28080,
,,,2.800000000000,   0.26560,
,,,2.820000000000,   0.27920,
,,,2.840000000000,   0.26560,
,,,2.860000000000,   0.27600,
,,,2.880000000000,   0.27440,
,,,2.900000000000,   0.27920,
,,,2.920000000000,   0.26560,
,,,2.940000000000,   0.27200,
,,,2.960000000000,   0.26400,
,,,2.980000000000,   0.27200,
,,,3.000000000000,   0.26560,
,,,3.020000000000,   0.27040,
,,,3.040000000000,   0.26640,
,,,3.060000000000,   0.27760,
,,,3.080000000000,   0.28000,
,,,3.100000000000,   0.27040,
,,,3.120000000000,   0.27840,
,,,3.140000000000,   0.26080,
,,,3.160000000000,   0.26480,
,,,3.180000000000,   0.26720,
,,,3.200000000000,   0.27600,
,,,3.220000000000,   0.27760,
,,,3.240000000000,   0.26480,
,,,3.260000000000,   0.27040,
,,,3.280000000000,   0.27280,
,,,3.300000000000,   0.26880,
,,,3.320000000000,   0.28240,
,,,3.340000000000,   0.27680,
,,,3.360000000000,   0.26080,
,,,3.380000000000,   0.27760,
,,,3.400000000000,   0.26640,
,,,3.420000000000,   0.27440,
,,,3.440000000000,   0.26640,
,,,3.460000000000,   0.27280,
,,,3.480000000000,   0.26320,
,,,3.500000000000,   0.27680,
,,,3.520000000000,   0.26720,
,,,3.540000000000,   0.28240,
,,,3.560000000000,   0.27680,
,,,3.580000000000,   0.26480,
,,,3.600000000000,   0.26720,
,,,3.620000000000,   0.28160,
,,,3.640000000000,   0.26240,
,,,3.660000000000,   0.27360,
,,,3.680000000000,   0.26800,
,,,3.700000000000,   0.27120,
,,,3.720000000000,   0.26560,
,,,3.740000000000,   0.26800,
,,,3.760000000000,   0.26800,
,,,3.780000000000,   0.27680,
,,,3.800000000000,   0.27600,
,,,3.820000000000,   0.27200,
,,,3.840000000000,   0.26160,
,,,3.860000000000,   0.28160,
,,,3.880000000000,   0.27360,
,,,3.900000000000,   0.26400,
,,,3.920000000000,   0.27920,
,,,3.940000000000,   0.27680,
,,,3.960000000000,   0.27680,
,,,3.980000000000,   0.26560,
,,,4.000000000000,   0.26640,
,,,4.020000000000,   0.26800,
,,,4.040000000000,   0.26480,
,,,4.060000000000,   0.27760,
,,,4.080000000000,   0.27840,
,,,4.100000000000,   0.26960,
,,,4.120000000000,   0.26160,
,,,4.140000000000,   0.26800,
,,,4.160000000000,   0.26960,
,,,4.180000000000,   0.28160,
,,,4.200000000000,   0.26720,
,,,4.220000000000,   0.26480,
,,,4.240000000000,   0.26560,
,,,4.260000000000,   0.27920,
,,,4.280000000000,   0.27840,
,,,4.300000000000,   0.27600,
,,,4.320000000000,   0.28160,
,,,4.340000000000,   0.26800,
,,,4.360000000000,   0.27040,
,,,4.380000000000,   0.28000,
,,,4.400000000000,   0.27600,
,,,4.420000000000,   0.27440,
,,,4.440000000000,   0.27760,
,,,4.460000000000,   0.27760,
,,,4.480000000000,   0.27120,
,,,4.500000000000,   0.27920,
,,,4.520000000000,   0.27200,
,,,4.540000000000,   0.26000,
,,,4.560000000000,   0.26480,
,,,4.580000000000,   0.28080,
,,,4.600000000000,   0.27200,
,,,4.620000000000,   0.27680,
,,,4.640000000000,   0.28080,
,,,4.660000000000,   0.27600,
,,,4.680000000000,   0.27680,
,,,4.700000000000,   0.26880,
,,,4.720000000000,   0.26080,
,,,4.740000000000,   0.27680,
,,,4.760000000000,   0.26320,
,,,4.780000000000,   0.27200,
,,,4.800000000000,   0.27200,
,,,4.820000000000,   0.27040,
,,,4.840000000000,   0.28160,
,,,4.860000000000,   0.27200,
,,,4.880000000000,   0.26560,
,,,4.900000000000,   0.27360,
,,,4.920000000000,   0.28000,
,,,4.940000000000,   0.27440,
,,,4.960000000000,   0.26640,
,,,4.980000000000,   0.26640,
,,,5.000000000000,   0.27920,
,,,5.020000000000,   0.26720,
,,,5.040000000000,   0.27280,
,,,5.060000000000,   0.27280,
,,,5.080000000000,   0.27280,
,,,5.100000000000,   0.27440,
,,,5.120000000000,   0.27840,
,,,5.140000000000,   0.28080,
,,,5.160000000000,   0.27920,
,,,5.180000000000,   0.27360,
,,,5.200000000000,   0.27280,
,,,5.220000000000,   0.26560,
,,,5.240000000000,   0.26480,
,,,5.260000000000,   0.28240,
,,,5.280000000000,   0.27440,
,,,5.300000000000,   0.27920,
,,,5.320000000000,   0.27440,
,,,5.340000000000,   0.28160,
,,,5.360000000000,   0.27200,
,,,5.380000000000,   0.27920,
,,,5.400000000000,   0.27280,
,,,5.420000000000,   0.27840,
,,,5.440000000000,   0.26960,
,,,5.460000000000,   0.26560,
,,,5.480000000000,   0.26240,
,,,5.500000000000,   0.28160,
,,,5.520000000000,   0.27520,
,,,5.540000000000,   0.27920,
,,,5.560000000000,   0.27680,
,,,5.580000000000,   0.27680,
,,,5.600000000000,   0.27600,
,,,5.620000000000,   0.27040,
,,,5.640000000000,   0.27040,
,,,5.660000000000,   0.25840,
,,,5.680000000000,   0.27120,
,,,5.700000000000,   0.27280,
,,,5.720000000000,   0.26080,
,,,5.740000000000,   0.27600,
,,,5.760000000000,   0.26480,
,,,5.780000000000,   0.27440,
,,,5.800000000000,   0.26560,
,,,5.820000000000,   0.27280,
,,,5.840000000000,   0.27680,
,,,5.860000000000,   0.27920,
,,,5.880000000000,   0.26400,
,,,5.900000000000,   0.27520,
,,,5.920000000000,   0.26320,
,,,5.940000000000,   0.28000,
,,,5.960000000000,   0.26560,
,,,5.980000000000,   0.26320,
,,,6.000000000000,   0.26160,
,,,6.020000000000,   0.27760,
,,,6.040000000000,   0.27120,
,,,6.060000000000,   0.26560,
,,,6.080000000000,   0.27840,
,,,6.100000000000,   0.27040,
,,,6.120000000000,   0.27600,
,,,6.140000000000,   0.27680,
,,,6.160000000000,   0.26080,
,,,6.180000000000,   0.27360,
,,,6.200000000000,   0.27760,
,,,6.220000000000,   0.27120,
,,,6.240000000000,   0.27760,
,,,6.260000000000,   0.27600,
,,,6.280000000000,   0.27760,
,,,6.300000000000,   0.27440,
,,,6.320000000000,   0.27600,
,,,6.340000000000,   0.27680,
,,,6.360000000000,   0.27360,
,,,6.380000000000,   0.27600,
,,,6.400000000000,   0.27520,
,,,6.420000000000,   0.26960,
,,,6.440000000000,   0.27040,
,,,6.460000000000,   0.26080,
,,,6.480000000000,   0.27200,
,,,6.500000000000,   0.25840,
,,,6.520000000000,   0.26320,
,,,6.540000000000,   0.27040,
,,,6.560000000000,   0.27440,
,,,6.580000000000,   0.27040,
,,,6.600000000000,   0.27520,
,,,6.620000000000,   0.26720,
,,,6.640000000000,   0.27280,
,,,6.660000000000,   0.28080,
,,,6.680000000000,   0.27200,
,,,6.700000000000,   0.27760,
,,,6.720000000000,   0.28000,
,,,6.740000000000,   0.26240,
,,,6.760000000000,   0.27680,
,,,6.780000000000,   0.27040,
,,,6.800000000000,   0.27520,
,,,6.820000000000,   0.26960,
,,,6.840000000000,   0.27040,
,,,6.860000000000,   0.27920,
,,,6.880000000000,   0.27520,
,,,6.900000000000,   0.26960,
,,,6.920000000000,   0.26320,
,,,6.940000000000,   0.27440,
,,,6.960000000000,   0.27600,
,,,6.980000000000,   0.26800,
,,,7.000000000000,   0.27440,
,,,7.020000000000,   0.26480,
,,,7.040000000000,   0.26640,
,,,7.060000000000,   0.26320,
,,,7.080000000000,   0.27040,
,,,7.100000000000,   0.26320,
,,,7.120000000000,   0.27760,
,,,7.140000000000,   0.27440,
,,,7.160000000000,   0.26560,
,,,7.180000000000,   0.26080,
,,,7.200000000000,   0.27600,
,,,7.220000000000,   0.27040,
,,,7.240000000000,   0.27920,
,,,7.260000000000,   0.27920,
,,,7.280000000000,   0.26000,
,,,7.300000000000,   0.26560,
,,,7.320000000000,   0.27200,
,,,7.340000000000,   0.26560,
,,,7.360000000000,   0.26640,
,,,7.380000000000,   0.26400,
,,,7.400000000000,   0.27440,
,,,7.420000000000,   0.26960,
,,,7.440000000000,   0.27840,
,,,7.460000000000,   0.27200,
,,,7.480000000000,   0.25920,
,,,7.500000000000,   0.27440,
,,,7.520000000000,   0.26160,
,,,7.540000000000,   0.27040,
,,,7.560000000000,   0.28000,
,,,7.580000000000,   0.26240,
,,,7.600000000000,   0.27440,
,,,7.620000000000,   0.26240,
,,,7.640000000000,   0.26960,
,,,7.660000000000,   0.27440,
,,,7.680000000000,   0.26320,
,,,7.700000000000,   0.27600,
,,,7.720000000000,   0.26960,
,,,7.740000000000,   0.26800,
,,,7.760000000000,   0.26320,
,,,7.780000000000,   0.27760,
,,,7.800000000000,   0.26320,
,,,7.820000000000,   0.27040,
,,,7.840000000000,   0.27520,
,,,7.860000000000,   0.27840,
,,,7.880000000000,   0.26160,
,,,7.900000000000,   0.27680,
,,,7.920000000000,   0.26640,
,,,7.940000000000,   0.26640,
,,,7.960000000000,   0.26800,
,,,7.980000000000,   0.27520,
,,,8.000000000000,   0.27760,
,,,8.020000000000,   0.26640,
,,,8.040000000000,   0.26960,
,,,8.060000000000,   0.28000,
,,,8.080000000000,   0.27680,
,,,8.100000000000,   0.27200,
,,,8.120000000000,   0.26880,
,,,8.140000000000,   0.27360,
,,,8.160000000000,   0.27600,
,,,8.180000000000,   0.27120,
,,,8.200000000000,   0.28160,
,,,8.220000000000,   0.27280,
,,,8.240000000000,   0.26480,
,,,8.260000000000,   0.27200,
,,,8.280000000000,   0.26400,
,,,8.300000000000,   0.28080,
,,,8.320000000000,   0.26080,
,,,8.340000000000,   0.27040,
,,,8.360000000000,   0.28080,
,,,8.380000000000,   0.26480,
,,,8.400000000000,   0.27200,
,,,8.420000000000,   0.26320,
,,,8.440000000000,   0.26480,
,,,8.460000000000,   0.27120,
,,,8.480000000000,   0.26400,
,,,8.500000000000,   0.27840,
,,,8.520000000000,   0.26560,
,,,8.540000000000,   0.27600,
,,,8.560000000000,   0.27840,
,,,8.580000000000,   0.27280,
,,,8.600000000000,   0.27840,
,,,8.620000000000,   0.27760,
,,,8.640000000000,   0.27680,
,,,8.660000000000,   0.26640,
,,,8.680000000000,   0.27600,
,,,8.700000000000,   0.27200,
,,,8.720000000000,   0.27760,
,,,8.740000000000,   0.26960,
,,,8.760000000000,   0.27760,
,,,8.780000000000,   0.27440,
,,,8.800000000000,   0.27760,
,,,8.820000000000,   0.26400,
,,,8.840000000000,   0.27840,
,,,8.860000000000,   0.27920,
,,,8.880000000000,   0.27440,
,,,8.900000000000,   0.27200,
,,,8.920000000000,   0.27040,
,,,8.940000000000,   0.27840,
,,,8.960000000000,   0.27120,
,,,8.980000000000,   0.27600,
,,,9.000000000000,   0.27600,
,,,9.020000000000,   0.26720,
,,,9.040000000000,   0.26400,
,,,9.060000000000,   0.27680,
,,,9.080000000000,   0.27600,
,,,9.100000000000,   0.26240,
,,,9.120000000000,   0.26240,
,,,9.140000000000,   0.27200,
,,,9.160000000000,   0.27520,
,,,9.180000000000,   0.27760,
,,,9.200000000000,   0.26720,
,,,9.220000000000,   0.27600,
,,,9.240000000000,   0.27680,
,,,9.260000000000,   0.26400,
,,,9.280000000000,   0.27600,
,,,9.300000000000,   0.27920,
,,,9.320000000000,   0.26560,
,,,9.340000000000,   0.27600,
,,,9.360000000000,   0.27280,
,,,9.380000000000,   0.27040,
,,,9.400000000000,   0.27440,
,,,9.420000000000,   0.26560,
,,,9.440000000000,   0.27520,
,,,9.460000000000,   0.26880,
,,,9.480000000000,   0.27200,
,,,9.500000000000,   0.27920,
,,,9.520000000000,   0.26960,
,,,9.540000000000,   0.27280,
,,,9.560000000000,   0.26160,
,,,9.580000000000,   0.26080,
,,,9.600000000000,   0.27680,
,,,9.620000000000,   0.27200,
,,,9.640000000000,   0.27760,
,,,9.660000000000,   0.27600,
,,,9.680000000000,   0.27680,
,,,9.700000000000,   0.27360,
,,,9.720000000000,   0.27200,
,,,9.740000000000,   0.27440,
,,,9.760000000000,   0.27760,
,,,9.780000000000,   0.27680,
,,,9.800000000000,   0.27840,
,,,9.820000000000,   0.26960,
,,,9.840000000000,   0.27120,
,,,9.860000000000,   0.27280,
,,,9.880000000000,   0.26640,
,,,9.900000000000,   0.26240,
,,,9.920000000000,   0.27440,
,,,9.940000000000,   0.27920,
,,,9.960000000000,   0.27520,
,,,9.980000000000,   0.26400,
,,,10.000000000000,   0.26560,
,,,10.020000000000,   0.27680,
,,,10.040000000000,   0.26800,
,,,10.060000000000,   0.27280,
,,,10.080000000000,   0.26560,
,,,10.100000000000,   0.26960,
,,,10.120000000000,   0.26480,
,,,10.140000000000,   0.26560,
,,,10.160000000000,   0.26400,
,,,10.180000000000,   0.27360,
,,,10.200000000000,   0.26960,
,,,10.220000000000,   0.27520,
,,,10.240000000000,   0.27440,
,,,10.260000000000,   0.27840,
,,,10.280000000000,   0.27680,
,,,10.300000000000,   0.26640,
,,,10.320000000000,   0.27680,
,,,10.340000000000,   0.26080,
,,,10.360000000000,   0.26400,
,,,10.380000000000,   0.28080,
,,,10.400000000000,   0.26880,
,,,10.420000000000,   0.26400,
,,,10.440000000000,   0.27040,
,,,10.460000000000,   0.26400,
,,,10.480000000000,   0.27600,
,,,10.500000000000,   0.26960,
,,,10.520000000000,   0.26560,
,,,10.540000000000,   0.27280,
,,,10.560000000000,   0.26720,
,,,10.580000000000,   0.26480,
,,,10.600000000000,   0.27920,
,,,10.620000000000,   0.26320,
,,,10.640000000000,   0.27680,
,,,10.660000000000,   0.27760,
,,,10.680000000000,   0.26560,
,,,10.700000000000,   0.27600,
,,,10.720000000000,   0.27600,
,,,10.740000000000,   0.27760,
,,,10.760000000000,   0.26240,
,,,10.780000000000,   0.27440,
,,,10.800000000000,   0.27040,
,,,10.820000000000,   0.27200,
,,,10.840000000000,   0.27840,
,,,10.860000000000,   0.26400,
,,,10.880000000000,   0.27040,
,,,10.900000000000,   0.27520,
,,,10.920000000000,   0.27040,
,,,10.940000000000,   0.27200,
,,,10.960000000000,   0.26960,
,,,10.980000000000,   0.27120,
,,,11.000000000000,   0.26160,
,,,11.020000000000,   0.26000,
,,,11.040000000000,   0.27600,
,,,11.060000000000,   0.27280,
,,,11.080000000000,   0.26160,
,,,11.100000000000,   0.27920,
,,,11.120000000000,   0.27040,
,,,11.140000000000,   0.27920,
,,,11.160000000000,   0.27280,
,,,11.180000000000,   0.27440,
,,,11.200000000000,   0.26960,
,,,11.220000000000,   0.26400,
,,,11.240000000000,   0.27040,
,,,11.260000000000,   0.26160,
,,,11.280000000000,   0.26960,
,,,11.300000000000,   0.27840,
,,,11.320000000000,   0.26240,
,,,11.340000000000,   0.26880,
,,,11.360000000000,   0.26160,
,,,11.380000000000,   0.26560,
,,,11.400000000000,   0.27280,
,,,11.420000000000,   0.26800,
,,,11.440000000000,   0.27440,
,,,11.460000000000,   0.26560,
,,,11.480000000000,   0.26320,
,,,11.500000000000,   0.27280,
,,,11.520000000000,   0.27040,
,,,11.540000000000,   0.26240,
,,,11.560000000000,   0.26480,
,,,11.580000000000,   0.26400,
,,,11.600000000000,   0.26320,
,,,11.620000000000,   0.27360,
,,,11.640000000000,   0.26480,
,,,11.660000000000,   0.26960,
,,,11.680000000000,   0.26800,
,,,11.700000000000,   0.26880,
,,,11.720000000000,   0.27440,
,,,11.740000000000,   0.27040,
,,,11.760000000000,   0.26160,
,,,11.780000000000,   0.26800,
,,,11.800000000000,   0.26320,
,,,11.820000000000,   0.27760,
,,,11.840000000000,   0.27760,
,,,11.860000000000,   0.27040,
,,,11.880000000000,   0.27360,
,,,11.900000000000,   0.26240,
,,,11.920000000000,   0.26560,
,,,11.940000000000,   0.27120,
,,,11.960000000000,   0.26480,
,,,11.980000000000,   0.26320,
,,,12.000000000000,   0.27680,
,,,12.020000000000,   0.27120,
,,,12.040000000000,   0.27680,
,,,12.060000000000,   0.26400,
,,,12.080000000000,   0.27520,
,,,12.100000000000,   0.27120,
,,,12.120000000000,   0.27440,
,,,12.140000000000,   0.26960,
,,,12.160000000000,   0.26240,
,,,12.180000000000,   0.26320,
,,,12.200000000000,   0.26400,
,,,12.220000000000,   0.26240,
,,,12.240000000000,   0.28000,
,,,12.260000000000,   0.27440,
,,,12.280000000000,   0.27520,
,,,12.300000000000,   0.26480,
,,,12.320000000000,   0.26800,
,,,12.340000000000,   0.27680,
,,,12.360000000000,   0.27440,
,,,12.380000000000,   0.26480,
,,,12.400000000000,   0.28000,
,,,12.420000000000,   0.26560,
,,,12.440000000000,   0.27040,
,,,12.460000000000,   0.27280,
,,,12.480000000000,   0.27520,
,,,12.500000000000,   0.27440,
,,,12.520000000000,   0.26880,
,,,12.540000000000,   0.27440,
,,,12.560000000000,   0.28080,
,,,12.580000000000,   0.27040,
,,,12.600000000000,   0.26720,
,,,12.620000000000,   0.28160,
,,,12.640000000000,   0.27360,
,,,12.660000000000,   0.26720,
,,,12.680000000000,   0.26240,
,,,12.700000000000,   0.26720,
,,,12.720000000000,   0.27040,
,,,12.740000000000,   0.27840,
,,,12.760000000000,   0.27440,
,,,12.780000000000,   0.27840,
,,,12.800000000000,   0.27440,
,,,12.820000000000,   0.27040,
,,,12.840000000000,   0.27680,
,,,12.860000000000,   0.27920,
,,,12.880000000000,   0.27680,
,,,12.900000000000,   0.28160,
,,,12.920000000000,   0.28240,
,,,12.940000000000,   0.28080,
,,,12.960000000000,   0.27680,
