ipy_notebooks/GC/20161108_noon/F0065CH1.CSV

Record Length,2.500000e+03,,   0.000000000000,   0.11040,
Sample Interval,1.000000e-02,,   0.010000000000,   0.10800,
Trigger Point,-0.000000000000e+00,,   0.020000000000,   0.10320,
,,,   0.030000000000,   0.11280,
,,,   0.040000000000,   0.11600,
,,,   0.050000000000,   0.10960,
Source,CH1,,   0.060000000000,   0.10800,
Vertical Units,V,,   0.070000000000,   0.10160,
Vertical Scale,2.000000e-02,,   0.080000000000,   0.11280,
Vertical Offset,-1.704000e-01,,   0.090000000000,   0.10560,
Horizontal Units,s,,   0.100000000000,   0.12320,
Horizontal Scale,2.500000e+00,,   0.110000000000,   0.11760,
Pt Fmt,Y,,   0.120000000000,   0.11760,
Yzero,0.000000e+00,,   0.130000000000,   0.10800,
Probe Atten,1.000000e+00,,   0.140000000000,   0.10000,
Model Number,TBS1072B-EDU,,   0.150000000000,   0.11680,
Serial Number,C010859,,   0.160000000000,   0.10800,
Firmware Version,FV:v4.06,,   0.170000000000,   0.10800,
,,,0.180000000000,   0.10720,
,,,0.190000000000,   0.10560,
,,,0.200000000000,   0.10160,
,,,0.210000000000,   0.11120,
,,,0.220000000000,   0.11600,
,,,0.230000000000,   0.11040,
,,,0.240000000000,   0.11840,
,,,0.250000000000,   0.11360,
,,,0.260000000000,   0.10400,
,,,0.270000000000,   0.10240,
,,,0.280000000000,   0.11680,
,,,0.290000000000,   0.11600,
,,,0.300000000000,   0.10880,
,,,0.310000000000,   0.10160,
,,,0.320000000000,   0.09600,
,,,0.330000000000,   0.10880,
,,,0.340000000000,   0.10320,
,,,0.350000000000,   0.10320,
,,,0.360000000000,   0.10560,
,,,0.370000000000,   0.11120,
,,,0.380000000000,   0.10560,
,,,0.390000000000,   0.10960,
,,,0.400000000000,   0.11280,
,,,0.410000000000,   0.09600,
,,,0.420000000000,   0.10400,
,,,0.430000000000,   0.10960,
,,,0.440000000000,   0.10400,
,,,0.450000000000,   0.11280,
,,,0.460000000000,   0.11360,
,,,0.470000000000,   0.10400,
,,,0.480000000000,   0.11200,
,,,0.490000000000,   0.11360,
,,,0.500000000000,   0.09760,
,,,0.510000000000,   0.09680,
,,,0.520000000000,   0.10080,
,,,0.530000000000,   0.10640,
,,,0.540000000000,   0.10320,
,,,0.550000000000,   0.10400,
,,,0.560000000000,   0.11360,
,,,0.570000000000,   0.11600,
,,,0.580000000000,   0.11520,
,,,0.590000000000,   0.11760,
,,,0.600000000000,   0.10160,
,,,0.610000000000,   0.10480,
,,,0.620000000000,   0.10640,
,,,0.630000000000,   0.10560,
,,,0.640000000000,   0.11440,
,,,0.650000000000,   0.10400,
,,,0.660000000000,   0.10480,
,,,0.670000000000,   0.10800,
,,,0.680000000000,   0.10480,
,,,0.690000000000,   0.10240,
,,,0.700000000000,   0.11040,
,,,0.710000000000,   0.10000,
,,,0.720000000000,   0.10960,
,,,0.730000000000,   0.11600,
,,,0.740000000000,   0.11280,
,,,0.750000000000,   0.10240,
,,,0.760000000000,   0.10560,
,,,0.770000000000,   0.11440,
,,,0.780000000000,   0.10080,
,,,0.790000000000,   0.10960,
,,,0.800000000000,   0.11040,
,,,0.810000000000,   0.10480,
,,,0.820000000000,   0.11280,
,,,0.830000000000,   0.10880,
,,,0.840000000000,   0.11040,
,,,0.850000000000,   0.09920,
,,,0.860000000000,   0.11360,
,,,0.870000000000,   0.10000,
,,,0.880000000000,   0.10480,
,,,0.890000000000,   0.10960,
,,,0.900000000000,   0.11600,
,,,0.910000000000,   0.10160,
,,,0.920000000000,   0.10800,
,,,0.930000000000,   0.10640,
,,,0.940000000000,   0.11920,
,,,0.950000000000,   0.11600,
,,,0.960000000000,   0.11440,
,,,0.970000000000,   0.10960,
,,,0.980000000000,   0.10880,
,,,0.990000000000,   0.10720,
,,,1.000000000000,   0.11360,
,,,1.010000000000,   0.10800,
,,,1.020000000000,   0.10000,
,,,1.030000000000,   0.10400,
,,,1.040000000000,   0.10160,
,,,1.050000000000,   0.11120,
,,,1.060000000000,   0.10400,
,,,1.070000000000,   0.11040,
,,,1.080000000000,   0.10240,
,,,1.090000000000,   0.10400,
,,,1.100000000000,   0.10240,
,,,1.110000000000,   0.11600,
,,,1.120000000000,   0.10160,
,,,1.130000000000,   0.10000,
,,,1.140000000000,   0.10720,
,,,1.150000000000,   0.10080,
,,,1.160000000000,   0.11040,
,,,1.170000000000,   0.09840,
,,,1.180000000000,   0.10560,
,,,1.190000000000,   0.11440,
,,,1.200000000000,   0.11680,
,,,1.210000000000,   0.11840,
,,,1.220000000000,   0.11840,
,,,1.230000000000,   0.11120,
,,,1.240000000000,   0.10880,
,,,1.250000000000,   0.10160,
,,,1.260000000000,   0.11680,
,,,1.270000000000,   0.11120,
,,,1.280000000000,   0.11440,
,,,1.290000000000,   0.11040,
,,,1.300000000000,   0.10400,
,,,1.310000000000,   0.11040,
,,,1.320000000000,   0.10880,
,,,1.330000000000,   0.10000,
,,,1.340000000000,   0.10800,
,,,1.350000000000,   0.09840,
,,,1.360000000000,   0.10480,
,,,1.370000000000,   0.11280,
,,,1.380000000000,   0.11600,
,,,1.390000000000,   0.10080,
,,,1.400000000000,   0.09920,
,,,1.410000000000,   0.11360,
,,,1.420000000000,   0.10720,
,,,1.430000000000,   0.10960,
,,,1.440000000000,   0.11600,
,,,1.450000000000,   0.10320,
,,,1.460000000000,   0.09840,
,,,1.470000000000,   0.09840,
,,,1.480000000000,   0.11280,
,,,1.490000000000,   0.10320,
,,,1.500000000000,   0.11600,
,,,1.510000000000,   0.10320,
,,,1.520000000000,   0.10800,
,,,1.530000000000,   0.10320,
,,,1.540000000000,   0.10240,
,,,1.550000000000,   0.11360,
,,,1.560000000000,   0.11280,
,,,1.570000000000,   0.10080,
,,,1.580000000000,   0.10400,
,,,1.590000000000,   0.10080,
,,,1.600000000000,   0.10240,
,,,1.610000000000,   0.10880,
,,,1.620000000000,   0.11120,
,,,1.630000000000,   0.10640,
,,,1.640000000000,   0.11520,
,,,1.650000000000,   0.10800,
,,,1.660000000000,   0.10000,
,,,1.670000000000,   0.10320,
,,,1.680000000000,   0.10800,
,,,1.690000000000,   0.10960,
,,,1.700000000000,   0.09920,
,,,1.710000000000,   0.11360,
,,,1.720000000000,   0.11520,
,,,1.730000000000,   0.10160,
,,,1.740000000000,   0.11360,
,,,1.750000000000,   0.11040,
,,,1.760000000000,   0.11200,
,,,1.770000000000,   0.11280,
,,,1.780000000000,   0.11200,
,,,1.790000000000,   0.10480,
,,,1.800000000000,   0.09600,
,,,1.810000000000,   0.10800,
,,,1.820000000000,   0.10480,
,,,1.830000000000,   0.11520,
,,,1.840000000000,   0.10880,
,,,1.850000000000,   0.10480,
,,,1.860000000000,   0.10960,
,,,1.870000000000,   0.10640,
,,,1.880000000000,   0.10000,
,,,1.890000000000,   0.09680,
,,,1.900000000000,   0.10560,
,,,1.910000000000,   0.11600,
,,,1.920000000000,   0.11840,
,,,1.930000000000,   0.11600,
,,,1.940000000000,   0.12160,
,,,1.950000000000,   0.10160,
,,,1.960000000000,   0.11760,
,,,1.970000000000,   0.11360,
,,,1.980000000000,   0.09840,
,,,1.990000000000,   0.10320,
,,,2.000000000000,   0.11520,
,,,2.010000000000,   0.09920,
,,,2.020000000000,   0.11280,
,,,2.030000000000,   0.11360,
,,,2.040000000000,   0.11200,
,,,2.050000000000,   0.10880,
,,,2.060000000000,   0.10320,
,,,2.070000000000,   0.11360,
,,,2.080000000000,   0.11840,
,,,2.090000000000,   0.11760,
,,,2.100000000000,   0.11440,
,,,2.110000000000,   0.11760,
,,,2.120000000000,   0.10160,
,,,2.130000000000,   0.10960,
,,,2.140000000000,   0.10320,
,,,2.150000000000,   0.10720,
,,,2.160000000000,   0.10560,
,,,2.170000000000,   0.09680,
,,,2.180000000000,   0.10240,
,,,2.190000000000,   0.11680,
,,,2.200000000000,   0.11200,
,,,2.210000000000,   0.11200,
,,,2.220000000000,   0.10240,
,,,2.230000000000,   0.10720,
,,,2.240000000000,   0.10640,
,,,2.250000000000,   0.10800,
,,,2.260000000000,   0.11120,
,,,2.270000000000,   0.10000,
,,,2.280000000000,   0.11360,
,,,2.290000000000,   0.10320,
,,,2.300000000000,   0.11200,
,,,2.310000000000,   0.10720,
,,,2.320000000000,   0.10800,
,,,2.330000000000,   0.10320,
,,,2.340000000000,   0.11600,
,,,2.350000000000,   0.10480,
,,,2.360000000000,   0.10480,
,,,2.370000000000,   0.10720,
,,,2.380000000000,   0.10160,
,,,2.390000000000,   0.10880,
,,,2.400000000000,   0.11200,
,,,2.410000000000,   0.10800,
,,,2.420000000000,   0.11360,
,,,2.430000000000,   0.10800,
,,,2.440000000000,   0.11280,
,,,2.450000000000,   0.10320,
,,,2.460000000000,   0.10000,
,,,2.470000000000,   0.10640,
,,,2.480000000000,   0.10800,
,,,2.490000000000,   0.10000,
,,,2.500000000000,   0.10240,
,,,2.510000000000,   0.11520,
,,,2.520000000000,   0.10320,
,,,2.530000000000,   0.10720,
,,,2.540000000000,   0.11520,
,,,2.550000000000,   0.11200,
,,,2.560000000000,   0.11200,
,,,2.570000000000,   0.10400,
,,,2.580000000000,   0.10080,
,,,2.590000000000,   0.10800,
,,,2.600000000000,   0.10400,
,,,2.610000000000,   0.10800,
,,,2.620000000000,   0.11600,
,,,2.630000000000,   0.09760,
,,,2.640000000000,   0.10960,
,,,2.650000000000,   0.11200,
,,,2.660000000000,   0.11120,
,,,2.670000000000,   0.10800,
,,,2.680000000000,   0.11200,
,,,2.690000000000,   0.10800,
,,,2.700000000000,   0.10880,
,,,2.710000000000,   0.10160,
,,,2.720000000000,   0.10080,
,,,2.730000000000,   0.10640,
,,,2.740000000000,   0.10720,
,,,2.750000000000,   0.11440,
,,,2.760000000000,   0.10480,
,,,2.770000000000,   0.09600,
,,,2.780000000000,   0.10640,
,,,2.790000000000,   0.10720,
,,,2.800000000000,   0.11440,
,,,2.810000000000,   0.11600,
,,,2.820000000000,   0.11680,
,,,2.830000000000,   0.11520,
,,,2.840000000000,   0.10800,
,,,2.850000000000,   0.10000,
,,,2.860000000000,   0.10800,
,,,2.870000000000,   0.11200,
,,,2.880000000000,   0.10480,
,,,2.890000000000,   0.11680,
,,,2.900000000000,   0.10400,
,,,2.910000000000,   0.10800,
,,,2.920000000000,   0.11600,
,,,2.930000000000,   0.09920,
,,,2.940000000000,   0.10080,
,,,2.950000000000,   0.10160,
,,,2.960000000000,   0.11440,
,,,2.970000000000,   0.11040,
,,,2.980000000000,   0.09920,
,,,2.990000000000,   0.12000,
,,,3.000000000000,   0.10160,
,,,3.010000000000,   0.11280,
,,,3.020000000000,   0.11520,
,,,3.030000000000,   0.11280,
,,,3.040000000000,   0.09920,
,,,3.050000000000,   0.10560,
,,,3.060000000000,   0.10960,
,,,3.070000000000,   0.11360,
,,,3.080000000000,   0.10160,
,,,3.090000000000,   0.10640,
,,,3.100000000000,   0.10240,
,,,3.110000000000,   0.09840,
,,,3.120000000000,   0.10480,
,,,3.130000000000,   0.10720,
,,,3.140000000000,   0.11040,
,,,3.150000000000,   0.10400,
,,,3.160000000000,   0.10800,
,,,3.170000000000,   0.10160,
,,,3.180000000000,   0.11680,
,,,3.190000000000,   0.11840,
,,,3.200000000000,   0.09920,
,,,3.210000000000,   0.10000,
,,,3.220000000000,   0.11760,
,,,3.230000000000,   0.10400,
,,,3.240000000000,   0.11680,
,,,3.250000000000,   0.10400,
,,,3.260000000000,   0.10400,
,,,3.270000000000,   0.12000,
,,,3.280000000000,   0.10720,
,,,3.290000000000,   0.11600,
,,,3.300000000000,   0.10160,
,,,3.310000000000,   0.10960,
,,,3.320000000000,   0.10880,
,,,3.330000000000,   0.10880,
,,,3.340000000000,   0.10640,
,,,3.350000000000,   0.10080,
,,,3.360000000000,   0.10720,
,,,3.370000000000,   0.10640,
,,,3.380000000000,   0.11280,
,,,3.390000000000,   0.10640,
,,,3.400000000000,   0.10320,
,,,3.410000000000,   0.11840,
,,,3.420000000000,   0.10080,
,,,3.430000000000,   0.10720,
,,,3.440000000000,   0.11280,
,,,3.450000000000,   0.09920,
,,,3.460000000000,   0.10400,
,,,3.470000000000,   0.10960,
,,,3.480000000000,   0.10000,
,,,3.490000000000,   0.11680,
,,,3.500000000000,   0.11040,
,,,3.510000000000,   0.11040,
,,,3.520000000000,   0.10400,
,,,3.530000000000,   0.10560,
,,,3.540000000000,   0.09520,
,,,3.550000000000,   0.11200,
,,,3.560000000000,   0.11120,
,,,3.570000000000,   0.10240,
,,,3.580000000000,   0.10800,
,,,3.590000000000,   0.11360,
,,,3.600000000000,   0.12400,
,,,3.610000000000,   0.09600,
,,,3.620000000000,   0.10800,
,,,3.630000000000,   0.10560,
,,,3.640000000000,   0.11760,
,,,3.650000000000,   0.11040,
,,,3.660000000000,   0.10400,
,,,3.670000000000,   0.10800,
,,,3.680000000000,   0.10960,
,,,3.690000000000,   0.11280,
,,,3.700000000000,   0.10800,
,,,3.710000000000,   0.11600,
,,,3.720000000000,   0.11280,
,,,3.730000000000,   0.11840,
,,,3.740000000000,   0.10640,
,,,3.750000000000,   0.11920,
,,,3.760000000000,   0.11200,
,,,3.770000000000,   0.12640,
,,,3.780000000000,   0.11440,
,,,3.790000000000,   0.12640,
,,,3.800000000000,   0.12640,
,,,3.810000000000,   0.11360,
,,,3.820000000000,   0.12960,
,,,3.830000000000,   0.12560,
,,,3.840000000000,   0.12880,
,,,3.850000000000,   0.12880,
,,,3.860000000000,   0.13200,
,,,3.870000000000,   0.13600,
,,,3.880000000000,   0.13280,
,,,3.890000000000,   0.13200,
,,,3.900000000000,   0.14400,
,,,3.910000000000,   0.13840,
,,,3.920000000000,   0.15280,
,,,3.930000000000,   0.15520,
,,,3.940000000000,   0.14960,
,,,3.950000000000,   0.14240,
,,,3.960000000000,   0.15520,
,,,3.970000000000,   0.14240,
,,,3.980000000000,   0.14720,
,,,3.990000000000,   0.14880,
,,,4.000000000000,   0.15760,
,,,4.010000000000,   0.16080,
,,,4.020000000000,   0.16400,
,,,4.030000000000,   0.15360,
,,,4.040000000000,   0.15280,
,,,4.050000000000,   0.16640,
,,,4.060000000000,   0.15520,
,,,4.070000000000,   0.15840,
,,,4.080000000000,   0.15040,
,,,4.090000000000,   0.15920,
,,,4.100000000000,   0.14880,
,,,4.110000000000,   0.15840,
,,,4.120000000000,   0.15840,
,,,4.130000000000,   0.14960,
,,,4.140000000000,   0.15120,
,,,4.150000000000,   0.15040,
,,,4.160000000000,   0.14480,
,,,4.170000000000,   0.16720,
,,,4.180000000000,   0.15920,
,,,4.190000000000,   0.14880,
,,,4.200000000000,   0.16480,
,,,4.210000000000,   0.14640,
,,,4.220000000000,   0.15760,
,,,4.230000000000,   0.15600,
,,,4.240000000000,   0.14640,
,,,4.250000000000,   0.15760,
,,,4.260000000000,   0.15600,
,,,4.270000000000,   0.14560,
,,,4.280000000000,   0.14960,
,,,4.290000000000,   0.14720,
,,,4.300000000000,   0.15280,
,,,4.310000000000,   0.15520,
,,,4.320000000000,   0.14640,
,,,4.330000000000,   0.15760,
,,,4.340000000000,   0.14400,
,,,4.350000000000,   0.13760,
,,,4.360000000000,   0.15200,
,,,4.370000000000,   0.15680,
,,,4.380000000000,   0.15040,
,,,4.390000000000,   0.14800,
,,,4.400000000000,   0.15200,
,,,4.410000000000,   0.14160,
,,,4.420000000000,   0.15200,
,,,4.430000000000,   0.14000,
,,,4.440000000000,   0.14960,
,,,4.450000000000,   0.14640,
,,,4.460000000000,   0.13840,
,,,4.470000000000,   0.13200,
,,,4.480000000000,   0.14720,
,,,4.490000000000,   0.14640,
,,,4.500000000000,   0.14240,
,,,4.510000000000,   0.12640,
,,,4.520000000000,   0.13920,
,,,4.530000000000,   0.14720,
,,,4.540000000000,   0.13040,
,,,4.550000000000,   0.13360,
,,,4.560000000000,   0.13440,
,,,4.570000000000,   0.13440,
,,,4.580000000000,   0.14560,
,,,4.590000000000,   0.14480,
,,,4.600000000000,   0.14560,
,,,4.610000000000,   0.13520,
,,,4.620000000000,   0.13760,
,,,4.630000000000,   0.13520,
,,,4.640000000000,   0.13600,
,,,4.650000000000,   0.13760,
,,,4.660000000000,   0.14320,
,,,4.670000000000,   0.12560,
,,,4.680000000000,   0.13040,
,,,4.690000000000,   0.12000,
,,,4.700000000000,   0.13120,
,,,4.710000000000,   0.12400,
,,,4.720000000000,   0.13200,
,,,4.730000000000,   0.13760,
,,,4.740000000000,   0.12960,
,,,4.750000000000,   0.12320,
,,,4.760000000000,   0.13280,
,,,4.770000000000,   0.13760,
,,,4.780000000000,   0.12720,
,,,4.790000000000,   0.12880,
,,,4.800000000000,   0.13280,
,,,4.810000000000,   0.13360,
,,,4.820000000000,   0.13600,
,,,4.830000000000,   0.12640,
,,,4.840000000000,   0.12880,
,,,4.850000000000,   0.11760,
,,,4.860000000000,   0.12960,
,,,4.870000000000,   0.12720,
,,,4.880000000000,   0.13600,
,,,4.890000000000,   0.12960,
,,,4.900000000000,   0.13200,
,,,4.910000000000,   0.12720,
,,,4.920000000000,   0.13440,
,,,4.930000000000,   0.13360,
,,,4.940000000000,   0.11280,
,,,4.950000000000,   0.13040,
,,,4.960000000000,   0.11760,
,,,4.970000000000,   0.11680,
,,,4.980000000000,   0.13040,
,,,4.990000000000,   0.13120,
,,,5.000000000000,   0.12960,
,,,5.010000000000,   0.12880,
,,,5.020000000000,   0.12160,
,,,5.030000000000,   0.13200,
,,,5.040000000000,   0.12960,
,,,5.050000000000,   0.12880,
,,,5.060000000000,   0.12240,
,,,5.070000000000,   0.11760,
,,,5.080000000000,   0.12240,
,,,5.090000000000,   0.12320,
,,,5.100000000000,   0.12160,
,,,5.110000000000,   0.11200,
,,,5.120000000000,   0.12880,
,,,5.130000000000,   0.12640,
,,,5.140000000000,   0.11280,
,,,5.150000000000,   0.11600,
,,,5.160000000000,   0.11840,
,,,5.170000000000,   0.11520,
,,,5.180000000000,   0.12160,
,,,5.190000000000,   0.11280,
,,,5.200000000000,   0.11600,
,,,5.210000000000,   0.10960,
,,,5.220000000000,   0.12560,
,,,5.230000000000,   0.11920,
,,,5.240000000000,   0.11280,
,,,5.250000000000,   0.11680,
,,,5.260000000000,   0.12240,
,,,5.270000000000,   0.11520,
,,,5.280000000000,   0.12320,
,,,5.290000000000,   0.12000,
,,,5.300000000000,   0.12320,
,,,5.310000000000,   0.12000,
,,,5.320000000000,   0.11200,
,,,5.330000000000,   0.11600,
,,,5.340000000000,   0.11120,
,,,5.350000000000,   0.11840,
,,,5.360000000000,   0.12400,
,,,5.370000000000,   0.12320,
,,,5.380000000000,   0.11520,
,,,5.390000000000,   0.10960,
,,,5.400000000000,   0.11280,
,,,5.410000000000,   0.11360,
,,,5.420000000000,   0.11680,
,,,5.430000000000,   0.12080,
,,,5.440000000000,   0.11280,
,,,5.450000000000,   0.12160,
,,,5.460000000000,   0.10400,
,,,5.470000000000,   0.11760,
,,,5.480000000000,   0.11920,
,,,5.490000000000,   0.11120,
,,,5.500000000000,   0.11600,
,,,5.510000000000,   0.10800,
,,,5.520000000000,   0.10640,
,,,5.530000000000,   0.11040,
,,,5.540000000000,   0.12160,
,,,5.550000000000,   0.11200,
,,,5.560000000000,   0.11040,
,,,5.570000000000,   0.10240,
,,,5.580000000000,   0.12480,
,,,5.590000000000,   0.12160,
,,,5.600000000000,   0.11360,
,,,5.610000000000,   0.11040,
,,,5.620000000000,   0.11920,
,,,5.630000000000,   0.11440,
,,,5.640000000000,   0.11200,
,,,5.650000000000,   0.12240,
,,,5.660000000000,   0.11600,
,,,5.670000000000,   0.12000,
,,,5.680000000000,   0.11680,
,,,5.690000000000,   0.11920,
,,,5.700000000000,   0.11840,
,,,5.710000000000,   0.10640,
,,,5.720000000000,   0.10960,
,,,5.730000000000,   0.10960,
,,,5.740000000000,   0.12400,
,,,5.750000000000,   0.10720,
,,,5.760000000000,   0.10880,
,,,5.770000000000,   0.12000,
,,,5.780000000000,   0.11040,
,,,5.790000000000,   0.11120,
,,,5.800000000000,   0.10560,
,,,5.810000000000,   0.12160,
,,,5.820000000000,   0.10400,
,,,5.830000000000,   0.10720,
,,,5.840000000000,   0.11680,
,,,5.850000000000,   0.12240,
,,,5.860000000000,   0.11120,
,,,5.870000000000,   0.12000,
,,,5.880000000000,   0.10800,
,,,5.890000000000,   0.10320,
,,,5.900000000000,   0.10240,
,,,5.910000000000,   0.11360,
,,,5.920000000000,   0.11200,
,,,5.930000000000,   0.11760,
,,,5.940000000000,   0.10480,
,,,5.950000000000,   0.10240,
,,,5.960000000000,   0.11040,
,,,5.970000000000,   0.11040,
,,,5.980000000000,   0.10720,
,,,5.990000000000,   0.11520,
,,,6.000000000000,   0.11840,
,,,6.010000000000,   0.10320,
,,,6.020000000000,   0.11600,
,,,6.030000000000,   0.10960,
,,,6.040000000000,   0.11360,
,,,6.050000000000,   0.11200,
,,,6.060000000000,   0.10400,
,,,6.070000000000,   0.10560,
,,,6.080000000000,   0.10720,
,,,6.090000000000,   0.11280,
,,,6.100000000000,   0.11040,
,,,6.110000000000,   0.10720,
,,,6.120000000000,   0.09920,
,,,6.130000000000,   0.10400,
,,,6.140000000000,   0.11680,
,,,6.150000000000,   0.10080,
,,,6.160000000000,   0.11760,
,,,6.170000000000,   0.10720,
,,,6.180000000000,   0.11600,
,,,6.190000000000,   0.10160,
,,,6.200000000000,   0.09920,
,,,6.210000000000,   0.11760,
,,,6.220000000000,   0.11680,
,,,6.230000000000,   0.10240,
,,,6.240000000000,   0.10720,
,,,6.250000000000,   0.11920,
,,,6.260000000000,   0.11440,
,,,6.270000000000,   0.11840,
,,,6.280000000000,   0.11760,
,,,6.290000000000,   0.11440,
,,,6.300000000000,   0.11680,
,,,6.310000000000,   0.11280,
,,,6.320000000000,   0.11200,
,,,6.330000000000,   0.11760,
,,,6.340000000000,   0.10480,
,,,6.350000000000,   0.11120,
,,,6.360000000000,   0.11440,
,,,6.370000000000,   0.10960,
,,,6.380000000000,   0.10880,
,,,6.390000000000,   0.09840,
,,,6.400000000000,   0.10640,
,,,6.410000000000,   0.10000,
,,,6.420000000000,   0.11280,
,,,6.430000000000,   0.11040,
,,,6.440000000000,   0.11040,
,,,6.450000000000,   0.10800,
,,,6.460000000000,   0.11360,
,,,6.470000000000,   0.10640,
,,,6.480000000000,   0.10560,
,,,6.490000000000,   0.10880,
,,,6.500000000000,   0.10160,
,,,6.510000000000,   0.10240,
,,,6.520000000000,   0.11360,
,,,6.530000000000,   0.11120,
