ipy_notebooks/GC/20161101_HIGH/F0033CH1.CSV

Record Length,2.500000e+03,,   0.000000000000,   0.14000,
Sample Interval,2.000000e-02,,   0.020000000000,   0.15200,
Trigger Point,-0.000000000000e+00,,   0.040000000000,   0.14800,
,,,   0.060000000000,   0.15200,
,,,   0.080000000000,   0.15200,
,,,   0.100000000000,   0.15600,
Source,CH1,,   0.120000000000,   0.14400,
Vertical Units,V,,   0.140000000000,   0.16000,
Vertical Scale,1.000000e-01,,   0.160000000000,   0.14400,
Vertical Offset,-3.280000e-01,,   0.180000000000,   0.14800,
Horizontal Units,s,,   0.200000000000,   0.15600,
Horizontal Scale,5.000000e+00,,   0.220000000000,   0.15600,
Pt Fmt,Y,,   0.240000000000,   0.14800,
Yzero,0.000000e+00,,   0.260000000000,   0.15600,
Probe Atten,1.000000e+00,,   0.280000000000,   0.13600,
Model Number,TBS1072B-EDU,,   0.300000000000,   0.14800,
Serial Number,C010859,,   0.320000000000,   0.14000,
Firmware Version,FV:v4.06,,   0.340000000000,   0.15200,
,,,0.360000000000,   0.14800,
,,,0.380000000000,   0.15600,
,,,0.400000000000,   0.15200,
,,,0.420000000000,   0.15600,
,,,0.440000000000,   0.15600,
,,,0.460000000000,   0.14400,
,,,0.480000000000,   0.15200,
,,,0.500000000000,   0.14800,
,,,0.520000000000,   0.14800,
,,,0.540000000000,   0.14800,
,,,0.560000000000,   0.15600,
,,,0.580000000000,   0.14800,
,,,0.600000000000,   0.14400,
,,,0.620000000000,   0.14400,
,,,0.640000000000,   0.14400,
,,,0.660000000000,   0.14400,
,,,0.680000000000,   0.13600,
,,,0.700000000000,   0.15200,
,,,0.720000000000,   0.15600,
,,,0.740000000000,   0.14400,
,,,0.760000000000,   0.13600,
,,,0.780000000000,   0.14000,
,,,0.800000000000,   0.14800,
,,,0.820000000000,   0.15600,
,,,0.840000000000,   0.14400,
,,,0.860000000000,   0.14000,
,,,0.880000000000,   0.15200,
,,,0.900000000000,   0.14800,
,,,0.920000000000,   0.14400,
,,,0.940000000000,   0.15600,
,,,0.960000000000,   0.15600,
,,,0.980000000000,   0.15200,
,,,1.000000000000,   0.14800,
,,,1.020000000000,   0.14400,
,,,1.040000000000,   0.15600,
,,,1.060000000000,   0.14800,
,,,1.080000000000,   0.13600,
,,,1.100000000000,   0.15600,
,,,1.120000000000,   0.14400,
,,,1.140000000000,   0.15200,
,,,1.160000000000,   0.14400,
,,,1.180000000000,   0.14400,
,,,1.200000000000,   0.15200,
,,,1.220000000000,   0.15600,
,,,1.240000000000,   0.14400,
,,,1.260000000000,   0.14800,
,,,1.280000000000,   0.15200,
,,,1.300000000000,   0.13600,
,,,1.320000000000,   0.14400,
,,,1.340000000000,   0.14400,
,,,1.360000000000,   0.15600,
,,,1.380000000000,   0.14400,
,,,1.400000000000,   0.14800,
,,,1.420000000000,   0.15600,
,,,1.440000000000,   0.15600,
,,,1.460000000000,   0.13600,
,,,1.480000000000,   0.15600,
,,,1.500000000000,   0.14000,
,,,1.520000000000,   0.15200,
,,,1.540000000000,   0.15600,
,,,1.560000000000,   0.14400,
,,,1.580000000000,   0.15200,
,,,1.600000000000,   0.15200,
,,,1.620000000000,   0.14400,
,,,1.640000000000,   0.15200,
,,,1.660000000000,   0.15200,
,,,1.680000000000,   0.14400,
,,,1.700000000000,   0.14800,
,,,1.720000000000,   0.14800,
,,,1.740000000000,   0.15200,
,,,1.760000000000,   0.14000,
,,,1.780000000000,   0.15600,
,,,1.800000000000,   0.15200,
,,,1.820000000000,   0.15200,
,,,1.840000000000,   0.15200,
,,,1.860000000000,   0.13600,
,,,1.880000000000,   0.14800,
,,,1.900000000000,   0.14400,
,,,1.920000000000,   0.13600,
,,,1.940000000000,   0.14800,
,,,1.960000000000,   0.13600,
,,,1.980000000000,   0.14400,
,,,2.000000000000,   0.14400,
,,,2.020000000000,   0.15200,
,,,2.040000000000,   0.15600,
,,,2.060000000000,   0.15200,
,,,2.080000000000,   0.15600,
,,,2.100000000000,   0.15600,
,,,2.120000000000,   0.15600,
,,,2.140000000000,   0.14000,
,,,2.160000000000,   0.13600,
,,,2.180000000000,   0.15200,
,,,2.200000000000,   0.15200,
,,,2.220000000000,   0.14000,
,,,2.240000000000,   0.15600,
,,,2.260000000000,   0.15600,
,,,2.280000000000,   0.14400,
,,,2.300000000000,   0.14400,
,,,2.320000000000,   0.15200,
,,,2.340000000000,   0.14800,
,,,2.360000000000,   0.14000,
,,,2.380000000000,   0.14000,
,,,2.400000000000,   0.14000,
,,,2.420000000000,   0.15200,
,,,2.440000000000,   0.14000,
,,,2.460000000000,   0.14800,
,,,2.480000000000,   0.15200,
,,,2.500000000000,   0.15600,
,,,2.520000000000,   0.15600,
,,,2.540000000000,   0.15200,
,,,2.560000000000,   0.13600,
,,,2.580000000000,   0.15600,
,,,2.600000000000,   0.15200,
,,,2.620000000000,   0.15600,
,,,2.640000000000,   0.14800,
,,,2.660000000000,   0.14800,
,,,2.680000000000,   0.15600,
,,,2.700000000000,   0.15600,
,,,2.720000000000,   0.14400,
,,,2.740000000000,   0.14000,
,,,2.760000000000,   0.14000,
,,,2.780000000000,   0.15600,
,,,2.800000000000,   0.16000,
,,,2.820000000000,   0.15600,
,,,2.840000000000,   0.15600,
,,,2.860000000000,   0.15600,
,,,2.880000000000,   0.15600,
,,,2.900000000000,   0.14800,
,,,2.920000000000,   0.14800,
,,,2.940000000000,   0.15600,
,,,2.960000000000,   0.15200,
,,,2.980000000000,   0.14800,
,,,3.000000000000,   0.15200,
,,,3.020000000000,   0.13600,
,,,3.040000000000,   0.14800,
,,,3.060000000000,   0.15600,
,,,3.080000000000,   0.14400,
,,,3.100000000000,   0.14000,
,,,3.120000000000,   0.16000,
,,,3.140000000000,   0.13600,
,,,3.160000000000,   0.14000,
,,,3.180000000000,   0.14400,
,,,3.200000000000,   0.16000,
,,,3.220000000000,   0.14400,
,,,3.240000000000,   0.14800,
,,,3.260000000000,   0.14800,
,,,3.280000000000,   0.15600,
,,,3.300000000000,   0.14400,
,,,3.320000000000,   0.15200,
,,,3.340000000000,   0.14400,
,,,3.360000000000,   0.14400,
,,,3.380000000000,   0.14800,
,,,3.400000000000,   0.14400,
,,,3.420000000000,   0.15600,
,,,3.440000000000,   0.14800,
,,,3.460000000000,   0.14000,
,,,3.480000000000,   0.14400,
,,,3.500000000000,   0.14800,
,,,3.520000000000,   0.15600,
,,,3.540000000000,   0.15200,
,,,3.560000000000,   0.15600,
,,,3.580000000000,   0.14800,
,,,3.600000000000,   0.14400,
,,,3.620000000000,   0.16000,
,,,3.640000000000,   0.14400,
,,,3.660000000000,   0.15600,
,,,3.680000000000,   0.16000,
,,,3.700000000000,   0.15200,
,,,3.720000000000,   0.15200,
,,,3.740000000000,   0.15200,
,,,3.760000000000,   0.15200,
,,,3.780000000000,   0.14400,
,,,3.800000000000,   0.15600,
,,,3.820000000000,   0.16000,
,,,3.840000000000,   0.15600,
,,,3.860000000000,   0.14400,
,,,3.880000000000,   0.15600,
,,,3.900000000000,   0.14400,
,,,3.920000000000,   0.15200,
,,,3.940000000000,   0.15200,
,,,3.960000000000,   0.15200,
,,,3.980000000000,   0.14800,
,,,4.000000000000,   0.15200,
,,,4.020000000000,   0.16000,
,,,4.040000000000,   0.15200,
,,,4.060000000000,   0.15600,
,,,4.080000000000,   0.15600,
,,,4.100000000000,   0.15600,
,,,4.120000000000,   0.15600,
,,,4.140000000000,   0.14000,
,,,4.160000000000,   0.15200,
,,,4.180000000000,   0.15200,
,,,4.200000000000,   0.14000,
,,,4.220000000000,   0.14400,
,,,4.240000000000,   0.14400,
,,,4.260000000000,   0.14000,
,,,4.280000000000,   0.15600,
,,,4.300000000000,   0.14800,
,,,4.320000000000,   0.14800,
,,,4.340000000000,   0.15600,
,,,4.360000000000,   0.13600,
,,,4.380000000000,   0.14000,
,,,4.400000000000,   0.15200,
,,,4.420000000000,   0.15600,
,,,4.440000000000,   0.15600,
,,,4.460000000000,   0.16000,
,,,4.480000000000,   0.15200,
,,,4.500000000000,   0.15200,
,,,4.520000000000,   0.14400,
,,,4.540000000000,   0.15200,
,,,4.560000000000,   0.15600,
,,,4.580000000000,   0.16000,
,,,4.600000000000,   0.15600,
,,,4.620000000000,   0.14400,
,,,4.640000000000,   0.15600,
,,,4.660000000000,   0.14000,
,,,4.680000000000,   0.14400,
,,,4.700000000000,   0.15200,
,,,4.720000000000,   0.15600,
,,,4.740000000000,   0.15600,
,,,4.760000000000,   0.14400,
,,,4.780000000000,   0.15200,
,,,4.800000000000,   0.14000,
,,,4.820000000000,   0.14000,
,,,4.840000000000,   0.15200,
,,,4.860000000000,   0.15200,
,,,4.880000000000,   0.15200,
,,,4.900000000000,   0.15200,
,,,4.920000000000,   0.15200,
,,,4.940000000000,   0.14400,
,,,4.960000000000,   0.14000,
,,,4.980000000000,   0.13600,
,,,5.000000000000,   0.15200,
,,,5.020000000000,   0.14400,
,,,5.040000000000,   0.14000,
,,,5.060000000000,   0.14800,
,,,5.080000000000,   0.16000,
,,,5.100000000000,   0.15600,
,,,5.120000000000,   0.15600,
,,,5.140000000000,   0.14800,
,,,5.160000000000,   0.14000,
,,,5.180000000000,   0.14800,
,,,5.200000000000,   0.14800,
,,,5.220000000000,   0.15600,
,,,5.240000000000,   0.15600,
,,,5.260000000000,   0.15600,
,,,5.280000000000,   0.14400,
,,,5.300000000000,   0.14000,
,,,5.320000000000,   0.15600,
,,,5.340000000000,   0.14400,
,,,5.360000000000,   0.14000,
,,,5.380000000000,   0.13600,
,,,5.400000000000,   0.15200,
,,,5.420000000000,   0.14800,
,,,5.440000000000,   0.15600,
,,,5.460000000000,   0.14800,
,,,5.480000000000,   0.14400,
,,,5.500000000000,   0.14400,
,,,5.520000000000,   0.15600,
,,,5.540000000000,   0.14400,
,,,5.560000000000,   0.15200,
,,,5.580000000000,   0.14800,
,,,5.600000000000,   0.16400,
,,,5.620000000000,   0.14400,
,,,5.640000000000,   0.15600,
,,,5.660000000000,   0.14400,
,,,5.680000000000,   0.14400,
,,,5.700000000000,   0.15600,
,,,5.720000000000,   0.14000,
,,,5.740000000000,   0.14800,
,,,5.760000000000,   0.14800,
,,,5.780000000000,   0.14800,
,,,5.800000000000,   0.14000,
,,,5.820000000000,   0.14800,
,,,5.840000000000,   0.14400,
,,,5.860000000000,   0.13600,
,,,5.880000000000,   0.15600,
,,,5.900000000000,   0.14800,
,,,5.920000000000,   0.15200,
,,,5.940000000000,   0.14400,
,,,5.960000000000,   0.15200,
,,,5.980000000000,   0.14000,
,,,6.000000000000,   0.15600,
,,,6.020000000000,   0.14800,
,,,6.040000000000,   0.15600,
,,,6.060000000000,   0.15200,
,,,6.080000000000,   0.15600,
,,,6.100000000000,   0.14000,
,,,6.120000000000,   0.15200,
,,,6.140000000000,   0.14800,
,,,6.160000000000,   0.13600,
,,,6.180000000000,   0.13600,
,,,6.200000000000,   0.15200,
,,,6.220000000000,   0.16000,
,,,6.240000000000,   0.15200,
,,,6.260000000000,   0.16000,
,,,6.280000000000,   0.14800,
,,,6.300000000000,   0.15600,
,,,6.320000000000,   0.15600,
,,,6.340000000000,   0.15200,
,,,6.360000000000,   0.14000,
,,,6.380000000000,   0.14000,
,,,6.400000000000,   0.14800,
,,,6.420000000000,   0.15600,
,,,6.440000000000,   0.14400,
,,,6.460000000000,   0.15600,
,,,6.480000000000,   0.14000,
,,,6.500000000000,   0.14400,
,,,6.520000000000,   0.15200,
,,,6.540000000000,   0.14800,
,,,6.560000000000,   0.14800,
,,,6.580000000000,   0.15200,
,,,6.600000000000,   0.15200,
,,,6.620000000000,   0.14400,
,,,6.640000000000,   0.14400,
,,,6.660000000000,   0.15200,
,,,6.680000000000,   0.14800,
,,,6.700000000000,   0.15600,
,,,6.720000000000,   0.16000,
,,,6.740000000000,   0.13600,
,,,6.760000000000,   0.15600,
,,,6.780000000000,   0.15200,
,,,6.800000000000,   0.14400,
,,,6.820000000000,   0.15200,
,,,6.840000000000,   0.13600,
,,,6.860000000000,   0.15200,
,,,6.880000000000,   0.13600,
,,,6.900000000000,   0.15200,
,,,6.920000000000,   0.14800,
,,,6.940000000000,   0.15200,
,,,6.960000000000,   0.14800,
,,,6.980000000000,   0.14400,
,,,7.000000000000,   0.14800,
,,,7.020000000000,   0.14400,
,,,7.040000000000,   0.13600,
,,,7.060000000000,   0.15600,
,,,7.080000000000,   0.15600,
,,,7.100000000000,   0.15600,
,,,7.120000000000,   0.14000,
,,,7.140000000000,   0.13600,
,,,7.160000000000,   0.15200,
,,,7.180000000000,   0.15200,
,,,7.200000000000,   0.15600,
,,,7.220000000000,   0.14400,
,,,7.240000000000,   0.14400,
,,,7.260000000000,   0.15200,
,,,7.280000000000,   0.16000,
,,,7.300000000000,   0.14400,
,,,7.320000000000,   0.15600,
,,,7.340000000000,   0.15600,
,,,7.360000000000,   0.15200,
,,,7.380000000000,   0.15600,
,,,7.400000000000,   0.14400,
,,,7.420000000000,   0.16000,
,,,7.440000000000,   0.14400,
,,,7.460000000000,   0.15600,
,,,7.480000000000,   0.15600,
,,,7.500000000000,   0.14000,
,,,7.520000000000,   0.15600,
,,,7.540000000000,   0.16000,
,,,7.560000000000,   0.16000,
,,,7.580000000000,   0.14400,
,,,7.600000000000,   0.15600,
,,,7.620000000000,   0.15600,
,,,7.640000000000,   0.15600,
,,,7.660000000000,   0.14400,
,,,7.680000000000,   0.14000,
,,,7.700000000000,   0.14800,
,,,7.720000000000,   0.14800,
,,,7.740000000000,   0.14000,
,,,7.760000000000,   0.14000,
,,,7.780000000000,   0.14000,
,,,7.800000000000,   0.15200,
,,,7.820000000000,   0.15200,
,,,7.840000000000,   0.14400,
,,,7.860000000000,   0.14800,
,,,7.880000000000,   0.15200,
,,,7.900000000000,   0.14400,
,,,7.920000000000,   0.15200,
,,,7.940000000000,   0.15600,
,,,7.960000000000,   0.14400,
,,,7.980000000000,   0.14800,
,,,8.000000000000,   0.15600,
,,,8.020000000000,   0.14400,
,,,8.040000000000,   0.14400,
,,,8.060000000000,   0.14800,
,,,8.080000000000,   0.15600,
,,,8.100000000000,   0.15200,
,,,8.120000000000,   0.14000,
,,,8.140000000000,   0.16000,
,,,8.160000000000,   0.15200,
,,,8.180000000000,   0.14000,
,,,8.200000000000,   0.15200,
,,,8.220000000000,   0.14400,
,,,8.240000000000,   0.15600,
,,,8.260000000000,   0.15600,
,,,8.280000000000,   0.14800,
,,,8.300000000000,   0.14800,
,,,8.320000000000,   0.14800,
,,,8.340000000000,   0.15200,
,,,8.360000000000,   0.15600,
,,,8.380000000000,   0.14000,
,,,8.400000000000,   0.14400,
,,,8.420000000000,   0.15600,
,,,8.440000000000,   0.14400,
,,,8.460000000000,   0.14000,
,,,8.480000000000,   0.15200,
,,,8.500000000000,   0.14800,
,,,8.520000000000,   0.14000,
,,,8.540000000000,   0.15600,
,,,8.560000000000,   0.14800,
,,,8.580000000000,   0.14000,
,,,8.600000000000,   0.14400,
,,,8.620000000000,   0.15600,
,,,8.640000000000,   0.13600,
,,,8.660000000000,   0.16000,
,,,8.680000000000,   0.14400,
,,,8.700000000000,   0.14800,
,,,8.720000000000,   0.15600,
,,,8.740000000000,   0.14800,
,,,8.760000000000,   0.14800,
,,,8.780000000000,   0.14400,
,,,8.800000000000,   0.14400,
,,,8.820000000000,   0.15600,
,,,8.840000000000,   0.14400,
,,,8.860000000000,   0.15600,
,,,8.880000000000,   0.14400,
,,,8.900000000000,   0.15600,
,,,8.920000000000,   0.14400,
,,,8.940000000000,   0.15200,
,,,8.960000000000,   0.14800,
,,,8.980000000000,   0.15600,
,,,9.000000000000,   0.15600,
,,,9.020000000000,   0.16000,
,,,9.040000000000,   0.14400,
,,,9.060000000000,   0.14800,
,,,9.080000000000,   0.14000,
,,,9.100000000000,   0.15200,
,,,9.120000000000,   0.14400,
,,,9.140000000000,   0.14000,
,,,9.160000000000,   0.15200,
,,,9.180000000000,   0.15200,
,,,9.200000000000,   0.15600,
,,,9.220000000000,   0.14000,
,,,9.240000000000,   0.15200,
,,,9.260000000000,   0.14800,
,,,9.280000000000,   0.15200,
,,,9.300000000000,   0.15200,
,,,9.320000000000,   0.15200,
,,,9.340000000000,   0.13600,
,,,9.360000000000,   0.14400,
,,,9.380000000000,   0.15600,
,,,9.400000000000,   0.15200,
,,,9.420000000000,   0.15600,
,,,9.440000000000,   0.14400,
,,,9.460000000000,   0.14400,
,,,9.480000000000,   0.15200,
,,,9.500000000000,   0.14400,
,,,9.520000000000,   0.14800,
,,,9.540000000000,   0.15600,
,,,9.560000000000,   0.15200,
,,,9.580000000000,   0.15200,
,,,9.600000000000,   0.15200,
,,,9.620000000000,   0.15200,
,,,9.640000000000,   0.13600,
,,,9.660000000000,   0.15200,
,,,9.680000000000,   0.15600,
,,,9.700000000000,   0.14000,
,,,9.720000000000,   0.14400,
,,,9.740000000000,   0.15200,
,,,9.760000000000,   0.15200,
,,,9.780000000000,   0.14400,
,,,9.800000000000,   0.15600,
,,,9.820000000000,   0.15600,
,,,9.840000000000,   0.15200,
,,,9.860000000000,   0.14800,
,,,9.880000000000,   0.15600,
,,,9.900000000000,   0.15600,
,,,9.920000000000,   0.14000,
,,,9.940000000000,   0.16000,
,,,9.960000000000,   0.14400,
,,,9.980000000000,   0.14400,
,,,10.000000000000,   0.15600,
,,,10.020000000000,   0.16000,
,,,10.040000000000,   0.14400,
,,,10.060000000000,   0.15600,
,,,10.080000000000,   0.15200,
,,,10.100000000000,   0.15200,
,,,10.120000000000,   0.14800,
,,,10.140000000000,   0.14800,
,,,10.160000000000,   0.14000,
,,,10.180000000000,   0.14400,
,,,10.200000000000,   0.15200,
,,,10.220000000000,   0.15600,
,,,10.240000000000,   0.14000,
,,,10.260000000000,   0.15600,
,,,10.280000000000,   0.15200,
,,,10.300000000000,   0.15200,
,,,10.320000000000,   0.15200,
,,,10.340000000000,   0.15200,
,,,10.360000000000,   0.15200,
,,,10.380000000000,   0.16000,
,,,10.400000000000,   0.14800,
,,,10.420000000000,   0.14800,
,,,10.440000000000,   0.14000,
,,,10.460000000000,   0.15200,
,,,10.480000000000,   0.15600,
,,,10.500000000000,   0.15600,
,,,10.520000000000,   0.14800,
,,,10.540000000000,   0.15600,
,,,10.560000000000,   0.14800,
,,,10.580000000000,   0.15600,
,,,10.600000000000,   0.14800,
,,,10.620000000000,   0.15600,
,,,10.640000000000,   0.15200,
,,,10.660000000000,   0.15200,
,,,10.680000000000,   0.14000,
,,,10.700000000000,   0.15600,
,,,10.720000000000,   0.15600,
,,,10.740000000000,   0.14800,
,,,10.760000000000,   0.15200,
,,,10.780000000000,   0.15200,
,,,10.800000000000,   0.15200,
,,,10.820000000000,   0.15200,
,,,10.840000000000,   0.14400,
,,,10.860000000000,   0.15200,
,,,10.880000000000,   0.15200,
,,,10.900000000000,   0.15200,
,,,10.920000000000,   0.14000,
,,,10.940000000000,   0.14800,
,,,10.960000000000,   0.14800,
,,,10.980000000000,   0.15600,
,,,11.000000000000,   0.14400,
,,,11.020000000000,   0.15600,
,,,11.040000000000,   0.15600,
,,,11.060000000000,   0.14400,
,,,11.080000000000,   0.14800,
,,,11.100000000000,   0.15600,
,,,11.120000000000,   0.15600,
,,,11.140000000000,   0.14800,
,,,11.160000000000,   0.14400,
,,,11.180000000000,   0.16000,
,,,11.200000000000,   0.14400,
,,,11.220000000000,   0.15200,
,,,11.240000000000,   0.14000,
,,,11.260000000000,   0.14800,
,,,11.280000000000,   0.15200,
,,,11.300000000000,   0.14400,
,,,11.320000000000,   0.15600,
,,,11.340000000000,   0.14400,
,,,11.360000000000,   0.14400,
,,,11.380000000000,   0.16000,
,,,11.400000000000,   0.14800,
,,,11.420000000000,   0.15600,
,,,11.440000000000,   0.16000,
,,,11.460000000000,   0.15200,
,,,11.480000000000,   0.14800,
,,,11.500000000000,   0.15600,
,,,11.520000000000,   0.16000,
,,,11.540000000000,   0.15600,
,,,11.560000000000,   0.15200,
,,,11.580000000000,   0.14800,
,,,11.600000000000,   0.16000,
,,,11.620000000000,   0.15200,
,,,11.640000000000,   0.15600,
,,,11.660000000000,   0.16000,
,,,11.680000000000,   0.14000,
,,,11.700000000000,   0.15200,
,,,11.720000000000,   0.16000,
,,,11.740000000000,   0.14400,
,,,11.760000000000,   0.15200,
,,,11.780000000000,   0.15600,
,,,11.800000000000,   0.15600,
,,,11.820000000000,   0.15200,
,,,11.840000000000,   0.15600,
,,,11.860000000000,   0.14400,
,,,11.880000000000,   0.15600,
,,,11.900000000000,   0.15200,
,,,11.920000000000,   0.14400,
,,,11.940000000000,   0.15200,
,,,11.960000000000,   0.14800,
,,,11.980000000000,   0.15600,
,,,12.000000000000,   0.14400,
,,,12.020000000000,   0.16000,
,,,12.040000000000,   0.14400,
,,,12.060000000000,   0.14000,
,,,12.080000000000,   0.14400,
,,,12.100000000000,   0.14400,
,,,12.120000000000,   0.15600,
,,,12.140000000000,   0.16000,
,,,12.160000000000,   0.13600,
,,,12.180000000000,   0.14400,
,,,12.200000000000,   0.14400,
,,,12.220000000000,   0.15200,
,,,12.240000000000,   0.16000,
,,,12.260000000000,   0.15600,
,,,12.280000000000,   0.14800,
,,,12.300000000000,   0.15200,
,,,12.320000000000,   0.16000,
,,,12.340000000000,   0.15600,
,,,12.360000000000,   0.16000,
,,,12.380000000000,   0.13600,
,,,12.400000000000,   0.16000,
,,,12.420000000000,   0.16400,
,,,12.440000000000,   0.15600,
,,,12.460000000000,   0.14800,
,,,12.480000000000,   0.15600,
,,,12.500000000000,   0.15600,
,,,12.520000000000,   0.16000,
,,,12.540000000000,   0.15600,
,,,12.560000000000,   0.16000,
,,,12.580000000000,   0.15600,
,,,12.600000000000,   0.14800,
,,,12.620000000000,   0.14400,
,,,12.640000000000,   0.16000,
,,,12.660000000000,   0.14800,
,,,12.680000000000,   0.15600,
,,,12.700000000000,   0.14400,
,,,12.720000000000,   0.14400,
,,,12.740000000000,   0.15600,
,,,12.760000000000,   0.14800,
,,,12.780000000000,   0.15600,
,,,12.800000000000,   0.15600,
,,,12.820000000000,   0.14000,
,,,12.840000000000,   0.15200,
,,,12.860000000000,   0.15200,
,,,12.880000000000,   0.14800,
,,,12.900000000000,   0.14400,
,,,12.920000000000,   0.14800,
,,,12.940000000000,   0.15600,
,,,12.960000000000,   0.16000,
