ipy_notebooks/GC/20161101_HIGH/F0031CH1.CSV

Record Length,2.500000e+03,,   0.000000000000,   0.11600,
Sample Interval,2.000000e-02,,   0.020000000000,   0.11200,
Trigger Point,-0.000000000000e+00,,   0.040000000000,   0.11600,
,,,   0.060000000000,   0.11600,
,,,   0.080000000000,   0.11200,
,,,   0.100000000000,   0.11600,
Source,CH1,,   0.120000000000,   0.11200,
Vertical Units,V,,   0.140000000000,   0.10400,
Vertical Scale,1.000000e-01,,   0.160000000000,   0.10800,
Vertical Offset,-3.280000e-01,,   0.180000000000,   0.10400,
Horizontal Units,s,,   0.200000000000,   0.10400,
Horizontal Scale,5.000000e+00,,   0.220000000000,   0.11600,
Pt Fmt,Y,,   0.240000000000,   0.12000,
Yzero,0.000000e+00,,   0.260000000000,   0.11200,
Probe Atten,1.000000e+00,,   0.280000000000,   0.11200,
Model Number,TBS1072B-EDU,,   0.300000000000,   0.11600,
Serial Number,C010859,,   0.320000000000,   0.11200,
Firmware Version,FV:v4.06,,   0.340000000000,   0.11200,
,,,0.360000000000,   0.10800,
,,,0.380000000000,   0.10800,
,,,0.400000000000,   0.10000,
,,,0.420000000000,   0.11600,
,,,0.440000000000,   0.11600,
,,,0.460000000000,   0.10800,
,,,0.480000000000,   0.10400,
,,,0.500000000000,   0.11600,
,,,0.520000000000,   0.10800,
,,,0.540000000000,   0.10400,
,,,0.560000000000,   0.10000,
,,,0.580000000000,   0.11600,
,,,0.600000000000,   0.10400,
,,,0.620000000000,   0.10000,
,,,0.640000000000,   0.10800,
,,,0.660000000000,   0.10400,
,,,0.680000000000,   0.10000,
,,,0.700000000000,   0.10800,
,,,0.720000000000,   0.10400,
,,,0.740000000000,   0.11600,
,,,0.760000000000,   0.10400,
,,,0.780000000000,   0.12000,
,,,0.800000000000,   0.12000,
,,,0.820000000000,   0.10800,
,,,0.840000000000,   0.10800,
,,,0.860000000000,   0.11600,
,,,0.880000000000,   0.10800,
,,,0.900000000000,   0.10000,
,,,0.920000000000,   0.11600,
,,,0.940000000000,   0.10400,
,,,0.960000000000,   0.10400,
,,,0.980000000000,   0.10400,
,,,1.000000000000,   0.11200,
,,,1.020000000000,   0.10800,
,,,1.040000000000,   0.10400,
,,,1.060000000000,   0.10800,
,,,1.080000000000,   0.10000,
,,,1.100000000000,   0.11200,
,,,1.120000000000,   0.10000,
,,,1.140000000000,   0.10400,
,,,1.160000000000,   0.10800,
,,,1.180000000000,   0.10800,
,,,1.200000000000,   0.11600,
,,,1.220000000000,   0.11200,
,,,1.240000000000,   0.11200,
,,,1.260000000000,   0.12000,
,,,1.280000000000,   0.11600,
,,,1.300000000000,   0.11200,
,,,1.320000000000,   0.11200,
,,,1.340000000000,   0.10800,
,,,1.360000000000,   0.11600,
,,,1.380000000000,   0.10400,
,,,1.400000000000,   0.10000,
,,,1.420000000000,   0.10800,
,,,1.440000000000,   0.09600,
,,,1.460000000000,   0.09600,
,,,1.480000000000,   0.11600,
,,,1.500000000000,   0.10800,
,,,1.520000000000,   0.10800,
,,,1.540000000000,   0.10800,
,,,1.560000000000,   0.11200,
,,,1.580000000000,   0.10400,
,,,1.600000000000,   0.10000,
,,,1.620000000000,   0.11600,
,,,1.640000000000,   0.11200,
,,,1.660000000000,   0.12000,
,,,1.680000000000,   0.11200,
,,,1.700000000000,   0.11200,
,,,1.720000000000,   0.11600,
,,,1.740000000000,   0.11600,
,,,1.760000000000,   0.10800,
,,,1.780000000000,   0.11200,
,,,1.800000000000,   0.10400,
,,,1.820000000000,   0.10400,
,,,1.840000000000,   0.10000,
,,,1.860000000000,   0.11600,
,,,1.880000000000,   0.11200,
,,,1.900000000000,   0.10800,
,,,1.920000000000,   0.10000,
,,,1.940000000000,   0.10400,
,,,1.960000000000,   0.10800,
,,,1.980000000000,   0.10400,
,,,2.000000000000,   0.12000,
,,,2.020000000000,   0.10800,
,,,2.040000000000,   0.11600,
,,,2.060000000000,   0.11600,
,,,2.080000000000,   0.10800,
,,,2.100000000000,   0.11600,
,,,2.120000000000,   0.10800,
,,,2.140000000000,   0.10000,
,,,2.160000000000,   0.10000,
,,,2.180000000000,   0.11600,
,,,2.200000000000,   0.10400,
,,,2.220000000000,   0.11600,
,,,2.240000000000,   0.10000,
,,,2.260000000000,   0.10400,
,,,2.280000000000,   0.12000,
,,,2.300000000000,   0.11600,
,,,2.320000000000,   0.10400,
,,,2.340000000000,   0.10400,
,,,2.360000000000,   0.10400,
,,,2.380000000000,   0.12000,
,,,2.400000000000,   0.10000,
,,,2.420000000000,   0.10400,
,,,2.440000000000,   0.11200,
,,,2.460000000000,   0.11200,
,,,2.480000000000,   0.11600,
,,,2.500000000000,   0.10400,
,,,2.520000000000,   0.11200,
,,,2.540000000000,   0.12000,
,,,2.560000000000,   0.10400,
,,,2.580000000000,   0.10400,
,,,2.600000000000,   0.10800,
,,,2.620000000000,   0.11200,
,,,2.640000000000,   0.10000,
,,,2.660000000000,   0.11200,
,,,2.680000000000,   0.11600,
,,,2.700000000000,   0.10400,
,,,2.720000000000,   0.11200,
,,,2.740000000000,   0.11600,
,,,2.760000000000,   0.11600,
,,,2.780000000000,   0.10400,
,,,2.800000000000,   0.12000,
,,,2.820000000000,   0.11200,
,,,2.840000000000,   0.10800,
,,,2.860000000000,   0.10800,
,,,2.880000000000,   0.10800,
,,,2.900000000000,   0.10800,
,,,2.920000000000,   0.10800,
,,,2.940000000000,   0.11200,
,,,2.960000000000,   0.10800,
,,,2.980000000000,   0.11600,
,,,3.000000000000,   0.11200,
,,,3.020000000000,   0.09600,
,,,3.040000000000,   0.10400,
,,,3.060000000000,   0.11600,
,,,3.080000000000,   0.10000,
,,,3.100000000000,   0.10800,
,,,3.120000000000,   0.11600,
,,,3.140000000000,   0.10800,
,,,3.160000000000,   0.11600,
,,,3.180000000000,   0.11600,
,,,3.200000000000,   0.10400,
,,,3.220000000000,   0.10400,
,,,3.240000000000,   0.11200,
,,,3.260000000000,   0.11600,
,,,3.280000000000,   0.11200,
,,,3.300000000000,   0.10800,
,,,3.320000000000,   0.11200,
,,,3.340000000000,   0.10800,
,,,3.360000000000,   0.10400,
,,,3.380000000000,   0.10400,
,,,3.400000000000,   0.10800,
,,,3.420000000000,   0.10800,
,,,3.440000000000,   0.10800,
,,,3.460000000000,   0.10000,
,,,3.480000000000,   0.10800,
,,,3.500000000000,   0.11600,
,,,3.520000000000,   0.10800,
,,,3.540000000000,   0.11600,
,,,3.560000000000,   0.10000,
,,,3.580000000000,   0.11600,
,,,3.600000000000,   0.10800,
,,,3.620000000000,   0.10000,
,,,3.640000000000,   0.11600,
,,,3.660000000000,   0.11600,
,,,3.680000000000,   0.11600,
,,,3.700000000000,   0.10000,
,,,3.720000000000,   0.10800,
,,,3.740000000000,   0.11600,
,,,3.760000000000,   0.10000,
,,,3.780000000000,   0.10000,
,,,3.800000000000,   0.11600,
,,,3.820000000000,   0.09600,
,,,3.840000000000,   0.10000,
,,,3.860000000000,   0.10800,
,,,3.880000000000,   0.10000,
,,,3.900000000000,   0.11200,
,,,3.920000000000,   0.11200,
,,,3.940000000000,   0.09600,
,,,3.960000000000,   0.11600,
,,,3.980000000000,   0.11600,
,,,4.000000000000,   0.10800,
,,,4.020000000000,   0.10400,
,,,4.040000000000,   0.11200,
,,,4.060000000000,   0.11200,
,,,4.080000000000,   0.10800,
,,,4.100000000000,   0.10800,
,,,4.120000000000,   0.11600,
,,,4.140000000000,   0.10000,
,,,4.160000000000,   0.10800,
,,,4.180000000000,   0.11200,
,,,4.200000000000,   0.10000,
,,,4.220000000000,   0.10400,
,,,4.240000000000,   0.10800,
,,,4.260000000000,   0.10400,
,,,4.280000000000,   0.10400,
,,,4.300000000000,   0.10800,
,,,4.320000000000,   0.10400,
,,,4.340000000000,   0.10000,
,,,4.360000000000,   0.12000,
,,,4.380000000000,   0.10000,
,,,4.400000000000,   0.10000,
,,,4.420000000000,   0.11600,
,,,4.440000000000,   0.10400,
,,,4.460000000000,   0.11200,
,,,4.480000000000,   0.10400,
,,,4.500000000000,   0.09600,
,,,4.520000000000,   0.11200,
,,,4.540000000000,   0.10800,
,,,4.560000000000,   0.10800,
,,,4.580000000000,   0.10800,
,,,4.600000000000,   0.11600,
,,,4.620000000000,   0.12000,
,,,4.640000000000,   0.10800,
,,,4.660000000000,   0.10800,
,,,4.680000000000,   0.10800,
,,,4.700000000000,   0.10800,
,,,4.720000000000,   0.10400,
,,,4.740000000000,   0.10800,
,,,4.760000000000,   0.09200,
,,,4.780000000000,   0.09600,
,,,4.800000000000,   0.10000,
,,,4.820000000000,   0.10400,
,,,4.840000000000,   0.10800,
,,,4.860000000000,   0.11600,
,,,4.880000000000,   0.10800,
,,,4.900000000000,   0.11600,
,,,4.920000000000,   0.10400,
,,,4.940000000000,   0.11200,
,,,4.960000000000,   0.10800,
,,,4.980000000000,   0.10800,
,,,5.000000000000,   0.09600,
,,,5.020000000000,   0.12000,
,,,5.040000000000,   0.11600,
,,,5.060000000000,   0.11200,
,,,5.080000000000,   0.11600,
,,,5.100000000000,   0.11200,
,,,5.120000000000,   0.10800,
,,,5.140000000000,   0.10400,
,,,5.160000000000,   0.10800,
,,,5.180000000000,   0.10800,
,,,5.200000000000,   0.10800,
,,,5.220000000000,   0.10800,
,,,5.240000000000,   0.10000,
,,,5.260000000000,   0.10000,
,,,5.280000000000,   0.10800,
,,,5.300000000000,   0.10400,
,,,5.320000000000,   0.11200,
,,,5.340000000000,   0.10400,
,,,5.360000000000,   0.11600,
,,,5.380000000000,   0.10000,
,,,5.400000000000,   0.11200,
,,,5.420000000000,   0.10800,
,,,5.440000000000,   0.10400,
,,,5.460000000000,   0.12000,
,,,5.480000000000,   0.10400,
,,,5.500000000000,   0.11600,
,,,5.520000000000,   0.10000,
,,,5.540000000000,   0.10000,
,,,5.560000000000,   0.11600,
,,,5.580000000000,   0.10400,
,,,5.600000000000,   0.11200,
,,,5.620000000000,   0.10800,
,,,5.640000000000,   0.10000,
,,,5.660000000000,   0.10800,
,,,5.680000000000,   0.10400,
,,,5.700000000000,   0.11600,
,,,5.720000000000,   0.10800,
,,,5.740000000000,   0.10400,
,,,5.760000000000,   0.10800,
,,,5.780000000000,   0.10800,
,,,5.800000000000,   0.10400,
,,,5.820000000000,   0.11200,
,,,5.840000000000,   0.10800,
,,,5.860000000000,   0.10800,
,,,5.880000000000,   0.10400,
,,,5.900000000000,   0.10400,
,,,5.920000000000,   0.10800,
,,,5.940000000000,   0.11600,
,,,5.960000000000,   0.11200,
,,,5.980000000000,   0.10400,
,,,6.000000000000,   0.11600,
,,,6.020000000000,   0.10800,
,,,6.040000000000,   0.11200,
,,,6.060000000000,   0.10800,
,,,6.080000000000,   0.11600,
,,,6.100000000000,   0.10000,
,,,6.120000000000,   0.10000,
,,,6.140000000000,   0.11200,
,,,6.160000000000,   0.11600,
,,,6.180000000000,   0.10800,
,,,6.200000000000,   0.10800,
,,,6.220000000000,   0.11200,
,,,6.240000000000,   0.09600,
,,,6.260000000000,   0.10800,
,,,6.280000000000,   0.10800,
,,,6.300000000000,   0.10400,
,,,6.320000000000,   0.11600,
,,,6.340000000000,   0.10400,
,,,6.360000000000,   0.10800,
,,,6.380000000000,   0.11600,
,,,6.400000000000,   0.10800,
,,,6.420000000000,   0.09600,
,,,6.440000000000,   0.11600,
,,,6.460000000000,   0.11600,
,,,6.480000000000,   0.10000,
,,,6.500000000000,   0.11200,
,,,6.520000000000,   0.10000,
,,,6.540000000000,   0.11200,
,,,6.560000000000,   0.10800,
,,,6.580000000000,   0.11200,
,,,6.600000000000,   0.11200,
,,,6.620000000000,   0.10400,
,,,6.640000000000,   0.09600,
,,,6.660000000000,   0.10800,
,,,6.680000000000,   0.11600,
,,,6.700000000000,   0.11600,
,,,6.720000000000,   0.10400,
,,,6.740000000000,   0.10000,
,,,6.760000000000,   0.11600,
,,,6.780000000000,   0.10000,
,,,6.800000000000,   0.10800,
,,,6.820000000000,   0.11200,
,,,6.840000000000,   0.11200,
,,,6.860000000000,   0.11600,
,,,6.880000000000,   0.10800,
,,,6.900000000000,   0.10000,
,,,6.920000000000,   0.10800,
,,,6.940000000000,   0.10000,
,,,6.960000000000,   0.11200,
,,,6.980000000000,   0.10800,
,,,7.000000000000,   0.11200,
,,,7.020000000000,   0.10400,
,,,7.040000000000,   0.10400,
,,,7.060000000000,   0.09600,
,,,7.080000000000,   0.11600,
,,,7.100000000000,   0.10800,
,,,7.120000000000,   0.10000,
,,,7.140000000000,   0.11200,
,,,7.160000000000,   0.10400,
,,,7.180000000000,   0.10000,
,,,7.200000000000,   0.10000,
,,,7.220000000000,   0.09600,
,,,7.240000000000,   0.11200,
,,,7.260000000000,   0.10800,
,,,7.280000000000,   0.10400,
,,,7.300000000000,   0.10400,
,,,7.320000000000,   0.10400,
,,,7.340000000000,   0.10800,
,,,7.360000000000,   0.10000,
,,,7.380000000000,   0.10800,
,,,7.400000000000,   0.10400,
,,,7.420000000000,   0.10800,
,,,7.440000000000,   0.10400,
,,,7.460000000000,   0.10800,
,,,7.480000000000,   0.10000,
,,,7.500000000000,   0.11200,
,,,7.520000000000,   0.10400,
,,,7.540000000000,   0.10800,
,,,7.560000000000,   0.11200,
,,,7.580000000000,   0.09600,
,,,7.600000000000,   0.10400,
,,,7.620000000000,   0.10800,
,,,7.640000000000,   0.09600,
,,,7.660000000000,   0.10000,
,,,7.680000000000,   0.10000,
,,,7.700000000000,   0.09600,
,,,7.720000000000,   0.11600,
,,,7.740000000000,   0.11200,
,,,7.760000000000,   0.11600,
,,,7.780000000000,   0.11200,
,,,7.800000000000,   0.12000,
,,,7.820000000000,   0.10800,
,,,7.840000000000,   0.10400,
,,,7.860000000000,   0.10800,
,,,7.880000000000,   0.11600,
,,,7.900000000000,   0.11600,
,,,7.920000000000,   0.11600,
,,,7.940000000000,   0.10000,
,,,7.960000000000,   0.12800,
,,,7.980000000000,   0.11200,
,,,8.000000000000,   0.09600,
,,,8.020000000000,   0.10800,
,,,8.040000000000,   0.11600,
,,,8.060000000000,   0.11600,
,,,8.080000000000,   0.11200,
,,,8.100000000000,   0.11600,
,,,8.120000000000,   0.10000,
,,,8.140000000000,   0.11200,
,,,8.160000000000,   0.10800,
,,,8.180000000000,   0.10400,
,,,8.200000000000,   0.10400,
,,,8.220000000000,   0.10800,
,,,8.240000000000,   0.11200,
,,,8.260000000000,   0.10000,
,,,8.280000000000,   0.10800,
,,,8.300000000000,   0.11200,
,,,8.320000000000,   0.12400,
,,,8.340000000000,   0.11600,
,,,8.360000000000,   0.11600,
,,,8.380000000000,   0.10400,
,,,8.400000000000,   0.10400,
,,,8.420000000000,   0.11200,
,,,8.440000000000,   0.10400,
,,,8.460000000000,   0.10400,
,,,8.480000000000,   0.12000,
,,,8.500000000000,   0.10400,
,,,8.520000000000,   0.11600,
,,,8.540000000000,   0.10800,
,,,8.560000000000,   0.12000,
,,,8.580000000000,   0.10800,
,,,8.600000000000,   0.11600,
,,,8.620000000000,   0.11200,
,,,8.640000000000,   0.11600,
,,,8.660000000000,   0.10800,
,,,8.680000000000,   0.10000,
,,,8.700000000000,   0.10000,
,,,8.720000000000,   0.11200,
,,,8.740000000000,   0.10400,
,,,8.760000000000,   0.11600,
,,,8.780000000000,   0.11200,
,,,8.800000000000,   0.11600,
,,,8.820000000000,   0.11200,
,,,8.840000000000,   0.10800,
,,,8.860000000000,   0.10800,
,,,8.880000000000,   0.10800,
,,,8.900000000000,   0.09600,
,,,8.920000000000,   0.10000,
,,,8.940000000000,   0.11600,
,,,8.960000000000,   0.11600,
,,,8.980000000000,   0.10800,
,,,9.000000000000,   0.12000,
,,,9.020000000000,   0.11600,
,,,9.040000000000,   0.11200,
,,,9.060000000000,   0.10000,
,,,9.080000000000,   0.10000,
,,,9.100000000000,   0.11200,
,,,9.120000000000,   0.10400,
,,,9.140000000000,   0.10800,
,,,9.160000000000,   0.11200,
,,,9.180000000000,   0.11200,
,,,9.200000000000,   0.11200,
,,,9.220000000000,   0.10000,
,,,9.240000000000,   0.10000,
,,,9.260000000000,   0.10400,
,,,9.280000000000,   0.10400,
,,,9.300000000000,   0.10000,
,,,9.320000000000,   0.10800,
,,,9.340000000000,   0.11200,
,,,9.360000000000,   0.10400,
,,,9.380000000000,   0.10800,
,,,9.400000000000,   0.12000,
,,,9.420000000000,   0.11600,
,,,9.440000000000,   0.10800,
,,,9.460000000000,   0.10000,
,,,9.480000000000,   0.11200,
,,,9.500000000000,   0.10800,
,,,9.520000000000,   0.10400,
,,,9.540000000000,   0.10800,
,,,9.560000000000,   0.11200,
,,,9.580000000000,   0.10000,
,,,9.600000000000,   0.10800,
,,,9.620000000000,   0.10400,
,,,9.640000000000,   0.10000,
,,,9.660000000000,   0.11600,
,,,9.680000000000,   0.10000,
,,,9.700000000000,   0.10800,
,,,9.720000000000,   0.11600,
,,,9.740000000000,   0.10800,
,,,9.760000000000,   0.11200,
,,,9.780000000000,   0.11600,
,,,9.800000000000,   0.11200,
,,,9.820000000000,   0.11200,
,,,9.840000000000,   0.10000,
,,,9.860000000000,   0.10800,
,,,9.880000000000,   0.11200,
,,,9.900000000000,   0.10800,
,,,9.920000000000,   0.12800,
,,,9.940000000000,   0.10800,
,,,9.960000000000,   0.11200,
,,,9.980000000000,   0.10800,
,,,10.000000000000,   0.10800,
,,,10.020000000000,   0.10800,
,,,10.040000000000,   0.10400,
,,,10.060000000000,   0.10400,
,,,10.080000000000,   0.10000,
,,,10.100000000000,   0.11200,
,,,10.120000000000,   0.10800,
,,,10.140000000000,   0.12000,
,,,10.160000000000,   0.12400,
,,,10.180000000000,   0.12400,
,,,10.200000000000,   0.12800,
,,,10.220000000000,   0.13600,
,,,10.240000000000,   0.14800,
,,,10.260000000000,   0.14400,
,,,10.280000000000,   0.14800,
,,,10.300000000000,   0.17200,
,,,10.320000000000,   0.17600,
,,,10.340000000000,   0.17200,
,,,10.360000000000,   0.17200,
,,,10.380000000000,   0.17200,
,,,10.400000000000,   0.18000,
,,,10.420000000000,   0.19600,
,,,10.440000000000,   0.19200,
,,,10.460000000000,   0.20000,
,,,10.480000000000,   0.18400,
,,,10.500000000000,   0.20800,
,,,10.520000000000,   0.20400,
,,,10.540000000000,   0.20400,
,,,10.560000000000,   0.20800,
,,,10.580000000000,   0.20400,
,,,10.600000000000,   0.21200,
,,,10.620000000000,   0.21600,
,,,10.640000000000,   0.22400,
,,,10.660000000000,   0.22400,
,,,10.680000000000,   0.22400,
,,,10.700000000000,   0.20000,
,,,10.720000000000,   0.22000,
,,,10.740000000000,   0.25200,
,,,10.760000000000,   0.22800,
,,,10.780000000000,   0.22800,
,,,10.800000000000,   0.22400,
,,,10.820000000000,   0.23600,
,,,10.840000000000,   0.23200,
,,,10.860000000000,   0.23200,
,,,10.880000000000,   0.22000,
,,,10.900000000000,   0.23600,
,,,10.920000000000,   0.24400,
,,,10.940000000000,   0.24000,
,,,10.960000000000,   0.24400,
,,,10.980000000000,   0.20400,
,,,11.000000000000,   0.25200,
,,,11.020000000000,   0.23200,
,,,11.040000000000,   0.27600,
,,,11.060000000000,   0.28400,
,,,11.080000000000,   0.26000,
,,,11.100000000000,   0.27600,
,,,11.120000000000,   0.25600,
,,,11.140000000000,   0.24800,
,,,11.160000000000,   0.26400,
,,,11.180000000000,   0.31200,
,,,11.200000000000,   0.30000,
,,,11.220000000000,   0.25600,
,,,11.240000000000,   0.30400,
,,,11.260000000000,   0.31600,
,,,11.280000000000,   0.28400,
,,,11.300000000000,   0.29600,
,,,11.320000000000,   0.28400,
,,,11.340000000000,   0.29200,
,,,11.360000000000,   0.23600,
,,,11.380000000000,   0.24400,
,,,11.400000000000,   0.27200,
,,,11.420000000000,   0.28000,
,,,11.440000000000,   0.29200,
,,,11.460000000000,   0.30000,
,,,11.480000000000,   0.29200,
,,,11.500000000000,   0.30800,
,,,11.520000000000,   0.31600,
,,,11.540000000000,   0.32000,
,,,11.560000000000,   0.30000,
,,,11.580000000000,   0.34800,
,,,11.600000000000,   0.28800,
,,,11.620000000000,   0.32400,
,,,11.640000000000,   0.34400,
,,,11.660000000000,   0.27600,
,,,11.680000000000,   0.30000,
,,,11.700000000000,   0.34400,
,,,11.720000000000,   0.35200,
,,,11.740000000000,   0.27600,
,,,11.760000000000,   0.30400,
,,,11.780000000000,   0.30000,
,,,11.800000000000,   0.28800,
,,,11.820000000000,   0.32000,
,,,11.840000000000,   0.28000,
,,,11.860000000000,   0.30800,
,,,11.880000000000,   0.36000,
,,,11.900000000000,   0.33600,
,,,11.920000000000,   0.33200,
,,,11.940000000000,   0.32000,
,,,11.960000000000,   0.33600,
,,,11.980000000000,   0.33600,
,,,12.000000000000,   0.37200,
,,,12.020000000000,   0.34000,
,,,12.040000000000,   0.32400,
,,,12.060000000000,   0.35200,
,,,12.080000000000,   0.37600,
,,,12.100000000000,   0.33200,
,,,12.120000000000,   0.34000,
,,,12.140000000000,   0.34400,
,,,12.160000000000,   0.30800,
,,,12.180000000000,   0.32800,
,,,12.200000000000,   0.30800,
,,,12.220000000000,   0.33200,
,,,12.240000000000,   0.37200,
,,,12.260000000000,   0.34400,
,,,12.280000000000,   0.33200,
,,,12.300000000000,   0.32400,
,,,12.320000000000,   0.37600,
,,,12.340000000000,   0.35200,
,,,12.360000000000,   0.35200,
,,,12.380000000000,   0.32800,
,,,12.400000000000,   0.32000,
,,,12.420000000000,   0.31600,
,,,12.440000000000,   0.33200,
,,,12.460000000000,   0.36400,
,,,12.480000000000,   0.34400,
,,,12.500000000000,   0.34000,
,,,12.520000000000,   0.30800,
,,,12.540000000000,   0.30800,
,,,12.560000000000,   0.32400,
,,,12.580000000000,   0.34000,
,,,12.600000000000,   0.33600,
,,,12.620000000000,   0.30800,
,,,12.640000000000,   0.32800,
,,,12.660000000000,   0.37200,
,,,12.680000000000,   0.36000,
,,,12.700000000000,   0.30000,
,,,12.720000000000,   0.33200,
,,,12.740000000000,   0.36800,
,,,12.760000000000,   0.32400,
,,,12.780000000000,   0.37200,
,,,12.800000000000,   0.34000,
,,,12.820000000000,   0.36800,
,,,12.840000000000,   0.32400,
,,,12.860000000000,   0.33600,
,,,12.880000000000,   0.34000,
,,,12.900000000000,   0.34800,
,,,12.920000000000,   0.33600,
,,,12.940000000000,   0.34000,
,,,12.960000000000,   0.38800,
