ipy_notebooks/GC/20161117/F0011CH1.CSV

Record Length,2.500000e+03,,   0.000000000000,   1.29600,
Sample Interval,1.000000e-02,,   0.010000000000,   1.28800,
Trigger Point,-0.000000000000e+00,,   0.020000000000,   1.28800,
,,,   0.030000000000,   1.30400,
,,,   0.040000000000,   1.31200,
,,,   0.050000000000,   1.30400,
Source,CH1,,   0.060000000000,   1.28800,
Vertical Units,V,,   0.070000000000,   1.29600,
Vertical Scale,2.000000e-01,,   0.080000000000,   1.31200,
Vertical Offset,-1.320000e+00,,   0.090000000000,   1.31200,
Horizontal Units,s,,   0.100000000000,   1.28800,
Horizontal Scale,2.500000e+00,,   0.110000000000,   1.29600,
Pt Fmt,Y,,   0.120000000000,   1.31200,
Yzero,0.000000e+00,,   0.130000000000,   1.29600,
Probe Atten,1.000000e+00,,   0.140000000000,   1.28800,
Model Number,TBS1072B-EDU,,   0.150000000000,   1.30400,
Serial Number,C010859,,   0.160000000000,   1.31200,
Firmware Version,FV:v4.06,,   0.170000000000,   1.31200,
,,,0.180000000000,   1.27200,
,,,0.190000000000,   1.28800,
,,,0.200000000000,   1.31200,
,,,0.210000000000,   1.30400,
,,,0.220000000000,   1.28000,
,,,0.230000000000,   1.28800,
,,,0.240000000000,   1.31200,
,,,0.250000000000,   1.31200,
,,,0.260000000000,   1.29600,
,,,0.270000000000,   1.31200,
,,,0.280000000000,   1.30400,
,,,0.290000000000,   1.29600,
,,,0.300000000000,   1.31200,
,,,0.310000000000,   1.30400,
,,,0.320000000000,   1.29600,
,,,0.330000000000,   1.28800,
,,,0.340000000000,   1.29600,
,,,0.350000000000,   1.29600,
,,,0.360000000000,   1.31200,
,,,0.370000000000,   1.31200,
,,,0.380000000000,   1.28800,
,,,0.390000000000,   1.29600,
,,,0.400000000000,   1.30400,
,,,0.410000000000,   1.31200,
,,,0.420000000000,   1.30400,
,,,0.430000000000,   1.29600,
,,,0.440000000000,   1.29600,
,,,0.450000000000,   1.30400,
,,,0.460000000000,   1.29600,
,,,0.470000000000,   1.28800,
,,,0.480000000000,   1.30400,
,,,0.490000000000,   1.32000,
,,,0.500000000000,   1.29600,
,,,0.510000000000,   1.31200,
,,,0.520000000000,   1.29600,
,,,0.530000000000,   1.32000,
,,,0.540000000000,   1.30400,
,,,0.550000000000,   1.30400,
,,,0.560000000000,   1.30400,
,,,0.570000000000,   1.29600,
,,,0.580000000000,   1.29600,
,,,0.590000000000,   1.29600,
,,,0.600000000000,   1.31200,
,,,0.610000000000,   1.30400,
,,,0.620000000000,   1.31200,
,,,0.630000000000,   1.28800,
,,,0.640000000000,   1.29600,
,,,0.650000000000,   1.30400,
,,,0.660000000000,   1.31200,
,,,0.670000000000,   1.31200,
,,,0.680000000000,   1.29600,
,,,0.690000000000,   1.30400,
,,,0.700000000000,   1.30400,
,,,0.710000000000,   1.28800,
,,,0.720000000000,   1.30400,
,,,0.730000000000,   1.31200,
,,,0.740000000000,   1.29600,
,,,0.750000000000,   1.28800,
,,,0.760000000000,   1.28800,
,,,0.770000000000,   1.31200,
,,,0.780000000000,   1.31200,
,,,0.790000000000,   1.30400,
,,,0.800000000000,   1.29600,
,,,0.810000000000,   1.31200,
,,,0.820000000000,   1.30400,
,,,0.830000000000,   1.30400,
,,,0.840000000000,   1.29600,
,,,0.850000000000,   1.31200,
,,,0.860000000000,   1.29600,
,,,0.870000000000,   1.29600,
,,,0.880000000000,   1.28800,
,,,0.890000000000,   1.30400,
,,,0.900000000000,   1.30400,
,,,0.910000000000,   1.31200,
,,,0.920000000000,   1.28800,
,,,0.930000000000,   1.28800,
,,,0.940000000000,   1.29600,
,,,0.950000000000,   1.29600,
,,,0.960000000000,   1.28800,
,,,0.970000000000,   1.29600,
,,,0.980000000000,   1.31200,
,,,0.990000000000,   1.31200,
,,,1.000000000000,   1.28800,
,,,1.010000000000,   1.29600,
,,,1.020000000000,   1.30400,
,,,1.030000000000,   1.31200,
,,,1.040000000000,   1.30400,
,,,1.050000000000,   1.29600,
,,,1.060000000000,   1.30400,
,,,1.070000000000,   1.30400,
,,,1.080000000000,   1.30400,
,,,1.090000000000,   1.28800,
,,,1.100000000000,   1.30400,
,,,1.110000000000,   1.29600,
,,,1.120000000000,   1.28800,
,,,1.130000000000,   1.29600,
,,,1.140000000000,   1.29600,
,,,1.150000000000,   1.31200,
,,,1.160000000000,   1.28800,
,,,1.170000000000,   1.28800,
,,,1.180000000000,   1.29600,
,,,1.190000000000,   1.29600,
,,,1.200000000000,   1.30400,
,,,1.210000000000,   1.28800,
,,,1.220000000000,   1.29600,
,,,1.230000000000,   1.31200,
,,,1.240000000000,   1.28800,
,,,1.250000000000,   1.28000,
,,,1.260000000000,   1.30400,
,,,1.270000000000,   1.31200,
,,,1.280000000000,   1.29600,
,,,1.290000000000,   1.29600,
,,,1.300000000000,   1.28800,
,,,1.310000000000,   1.32000,
,,,1.320000000000,   1.28800,
,,,1.330000000000,   1.29600,
,,,1.340000000000,   1.28800,
,,,1.350000000000,   1.30400,
,,,1.360000000000,   1.29600,
,,,1.370000000000,   1.28800,
,,,1.380000000000,   1.29600,
,,,1.390000000000,   1.30400,
,,,1.400000000000,   1.29600,
,,,1.410000000000,   1.29600,
,,,1.420000000000,   1.28800,
,,,1.430000000000,   1.31200,
,,,1.440000000000,   1.31200,
,,,1.450000000000,   1.31200,
,,,1.460000000000,   1.29600,
,,,1.470000000000,   1.32000,
,,,1.480000000000,   1.32000,
,,,1.490000000000,   1.30400,
,,,1.500000000000,   1.28800,
,,,1.510000000000,   1.30400,
,,,1.520000000000,   1.31200,
,,,1.530000000000,   1.30400,
,,,1.540000000000,   1.28800,
,,,1.550000000000,   1.29600,
,,,1.560000000000,   1.31200,
,,,1.570000000000,   1.28800,
,,,1.580000000000,   1.29600,
,,,1.590000000000,   1.31200,
,,,1.600000000000,   1.31200,
,,,1.610000000000,   1.29600,
,,,1.620000000000,   1.29600,
,,,1.630000000000,   1.29600,
,,,1.640000000000,   1.29600,
,,,1.650000000000,   1.29600,
,,,1.660000000000,   1.28800,
,,,1.670000000000,   1.28000,
,,,1.680000000000,   1.29600,
,,,1.690000000000,   1.32000,
,,,1.700000000000,   1.28000,
,,,1.710000000000,   1.29600,
,,,1.720000000000,   1.32000,
,,,1.730000000000,   1.31200,
,,,1.740000000000,   1.28800,
,,,1.750000000000,   1.30400,
,,,1.760000000000,   1.32000,
,,,1.770000000000,   1.32000,
,,,1.780000000000,   1.28800,
,,,1.790000000000,   1.29600,
,,,1.800000000000,   1.31200,
,,,1.810000000000,   1.31200,
,,,1.820000000000,   1.31200,
,,,1.830000000000,   1.28800,
,,,1.840000000000,   1.30400,
,,,1.850000000000,   1.32000,
,,,1.860000000000,   1.29600,
,,,1.870000000000,   1.30400,
,,,1.880000000000,   1.31200,
,,,1.890000000000,   1.31200,
,,,1.900000000000,   1.31200,
,,,1.910000000000,   1.31200,
,,,1.920000000000,   1.32800,
,,,1.930000000000,   1.31200,
,,,1.940000000000,   1.31200,
,,,1.950000000000,   1.28800,
,,,1.960000000000,   1.31200,
,,,1.970000000000,   1.32000,
,,,1.980000000000,   1.32000,
,,,1.990000000000,   1.29600,
,,,2.000000000000,   1.29600,
,,,2.010000000000,   1.31200,
,,,2.020000000000,   1.32800,
,,,2.030000000000,   1.31200,
,,,2.040000000000,   1.31200,
,,,2.050000000000,   1.32000,
,,,2.060000000000,   1.31200,
,,,2.070000000000,   1.28800,
,,,2.080000000000,   1.31200,
,,,2.090000000000,   1.32000,
,,,2.100000000000,   1.32800,
,,,2.110000000000,   1.30400,
,,,2.120000000000,   1.29600,
,,,2.130000000000,   1.32800,
,,,2.140000000000,   1.32800,
,,,2.150000000000,   1.30400,
,,,2.160000000000,   1.30400,
,,,2.170000000000,   1.32000,
,,,2.180000000000,   1.31200,
,,,2.190000000000,   1.32000,
,,,2.200000000000,   1.30400,
,,,2.210000000000,   1.32800,
,,,2.220000000000,   1.31200,
,,,2.230000000000,   1.30400,
,,,2.240000000000,   1.30400,
,,,2.250000000000,   1.30400,
,,,2.260000000000,   1.32800,
,,,2.270000000000,   1.32000,
,,,2.280000000000,   1.29600,
,,,2.290000000000,   1.28800,
,,,2.300000000000,   1.32000,
,,,2.310000000000,   1.32000,
,,,2.320000000000,   1.29600,
,,,2.330000000000,   1.30400,
,,,2.340000000000,   1.32000,
,,,2.350000000000,   1.30400,
,,,2.360000000000,   1.31200,
,,,2.370000000000,   1.31200,
,,,2.380000000000,   1.32800,
,,,2.390000000000,   1.31200,
,,,2.400000000000,   1.32000,
,,,2.410000000000,   1.30400,
,,,2.420000000000,   1.32000,
,,,2.430000000000,   1.31200,
,,,2.440000000000,   1.29600,
,,,2.450000000000,   1.31200,
,,,2.460000000000,   1.31200,
,,,2.470000000000,   1.31200,
,,,2.480000000000,   1.29600,
,,,2.490000000000,   1.29600,
,,,2.500000000000,   1.31200,
,,,2.510000000000,   1.32000,
,,,2.520000000000,   1.28800,
,,,2.530000000000,   1.28800,
,,,2.540000000000,   1.32000,
,,,2.550000000000,   1.30400,
,,,2.560000000000,   1.29600,
,,,2.570000000000,   1.28000,
,,,2.580000000000,   1.29600,
,,,2.590000000000,   1.31200,
,,,2.600000000000,   1.29600,
,,,2.610000000000,   1.29600,
,,,2.620000000000,   1.31200,
,,,2.630000000000,   1.31200,
,,,2.640000000000,   1.28800,
,,,2.650000000000,   1.31200,
,,,2.660000000000,   1.31200,
,,,2.670000000000,   1.31200,
,,,2.680000000000,   1.30400,
,,,2.690000000000,   1.29600,
,,,2.700000000000,   1.31200,
,,,2.710000000000,   1.31200,
,,,2.720000000000,   1.31200,
,,,2.730000000000,   1.28800,
,,,2.740000000000,   1.28800,
,,,2.750000000000,   1.30400,
,,,2.760000000000,   1.30400,
,,,2.770000000000,   1.29600,
,,,2.780000000000,   1.30400,
,,,2.790000000000,   1.30400,
,,,2.800000000000,   1.29600,
,,,2.810000000000,   1.30400,
,,,2.820000000000,   1.28800,
,,,2.830000000000,   1.31200,
,,,2.840000000000,   1.31200,
,,,2.850000000000,   1.29600,
,,,2.860000000000,   1.28800,
,,,2.870000000000,   1.32000,
,,,2.880000000000,   1.31200,
,,,2.890000000000,   1.29600,
,,,2.900000000000,   1.30400,
,,,2.910000000000,   1.29600,
,,,2.920000000000,   1.29600,
,,,2.930000000000,   1.28800,
,,,2.940000000000,   1.28800,
,,,2.950000000000,   1.30400,
,,,2.960000000000,   1.30400,
,,,2.970000000000,   1.28800,
,,,2.980000000000,   1.28800,
,,,2.990000000000,   1.28000,
,,,3.000000000000,   1.30400,
,,,3.010000000000,   1.29600,
,,,3.020000000000,   1.30400,
,,,3.030000000000,   1.29600,
,,,3.040000000000,   1.30400,
,,,3.050000000000,   1.30400,
,,,3.060000000000,   1.28800,
,,,3.070000000000,   1.30400,
,,,3.080000000000,   1.30400,
,,,3.090000000000,   1.30400,
,,,3.100000000000,   1.28800,
,,,3.110000000000,   1.28800,
,,,3.120000000000,   1.28800,
,,,3.130000000000,   1.29600,
,,,3.140000000000,   1.28800,
,,,3.150000000000,   1.28800,
,,,3.160000000000,   1.30400,
,,,3.170000000000,   1.29600,
,,,3.180000000000,   1.30400,
,,,3.190000000000,   1.32000,
,,,3.200000000000,   1.32800,
,,,3.210000000000,   1.32000,
,,,3.220000000000,   1.31200,
,,,3.230000000000,   1.31200,
,,,3.240000000000,   1.32800,
,,,3.250000000000,   1.32800,
,,,3.260000000000,   1.31200,
,,,3.270000000000,   1.31200,
,,,3.280000000000,   1.31200,
,,,3.290000000000,   1.31200,
,,,3.300000000000,   1.31200,
,,,3.310000000000,   1.30400,
,,,3.320000000000,   1.30400,
,,,3.330000000000,   1.29600,
,,,3.340000000000,   1.29600,
,,,3.350000000000,   1.28000,
,,,3.360000000000,   1.28800,
,,,3.370000000000,   1.31200,
,,,3.380000000000,   1.30400,
,,,3.390000000000,   1.28000,
,,,3.400000000000,   1.30400,
,,,3.410000000000,   1.32800,
,,,3.420000000000,   1.30400,
,,,3.430000000000,   1.30400,
,,,3.440000000000,   1.32000,
,,,3.450000000000,   1.32800,
,,,3.460000000000,   1.30400,
,,,3.470000000000,   1.31200,
,,,3.480000000000,   1.31200,
,,,3.490000000000,   1.32800,
,,,3.500000000000,   1.32000,
,,,3.510000000000,   1.30400,
,,,3.520000000000,   1.30400,
,,,3.530000000000,   1.31200,
,,,3.540000000000,   1.31200,
,,,3.550000000000,   1.28800,
,,,3.560000000000,   1.28000,
,,,3.570000000000,   1.28800,
,,,3.580000000000,   1.30400,
,,,3.590000000000,   1.29600,
,,,3.600000000000,   1.28800,
,,,3.610000000000,   1.31200,
,,,3.620000000000,   1.31200,
,,,3.630000000000,   1.30400,
,,,3.640000000000,   1.28800,
,,,3.650000000000,   1.32000,
,,,3.660000000000,   1.32800,
,,,3.670000000000,   1.30400,
,,,3.680000000000,   1.30400,
,,,3.690000000000,   1.31200,
,,,3.700000000000,   1.32800,
,,,3.710000000000,   1.29600,
,,,3.720000000000,   1.29600,
,,,3.730000000000,   1.30400,
,,,3.740000000000,   1.30400,
,,,3.750000000000,   1.29600,
,,,3.760000000000,   1.27200,
,,,3.770000000000,   1.30400,
,,,3.780000000000,   1.29600,
,,,3.790000000000,   1.29600,
,,,3.800000000000,   1.28800,
,,,3.810000000000,   1.28800,
,,,3.820000000000,   1.28000,
,,,3.830000000000,   1.28800,
,,,3.840000000000,   1.28800,
,,,3.850000000000,   1.28000,
,,,3.860000000000,   1.30400,
,,,3.870000000000,   1.31200,
,,,3.880000000000,   1.30400,
,,,3.890000000000,   1.30400,
,,,3.900000000000,   1.31200,
,,,3.910000000000,   1.31200,
,,,3.920000000000,   1.29600,
,,,3.930000000000,   1.28800,
,,,3.940000000000,   1.29600,
,,,3.950000000000,   1.29600,
,,,3.960000000000,   1.28000,
,,,3.970000000000,   1.28800,
,,,3.980000000000,   1.28800,
,,,3.990000000000,   1.29600,
,,,4.000000000000,   1.28800,
,,,4.010000000000,   1.28000,
,,,4.020000000000,   1.30400,
,,,4.030000000000,   1.32800,
,,,4.040000000000,   1.32000,
,,,4.050000000000,   1.35200,
,,,4.060000000000,   1.37600,
,,,4.070000000000,   1.40800,
,,,4.080000000000,   1.41600,
,,,4.090000000000,   1.44000,
,,,4.100000000000,   1.44800,
,,,4.110000000000,   1.48800,
,,,4.120000000000,   1.50400,
,,,4.130000000000,   1.52000,
,,,4.140000000000,   1.53600,
,,,4.150000000000,   1.56800,
,,,4.160000000000,   1.56800,
,,,4.170000000000,   1.57600,
,,,4.180000000000,   1.59200,
,,,4.190000000000,   1.61600,
,,,4.200000000000,   1.62400,
,,,4.210000000000,   1.60800,
,,,4.220000000000,   1.61600,
,,,4.230000000000,   1.63200,
,,,4.240000000000,   1.63200,
,,,4.250000000000,   1.63200,
,,,4.260000000000,   1.66400,
,,,4.270000000000,   1.67200,
,,,4.280000000000,   1.67200,
,,,4.290000000000,   1.65600,
,,,4.300000000000,   1.66400,
,,,4.310000000000,   1.66400,
,,,4.320000000000,   1.68000,
,,,4.330000000000,   1.66400,
,,,4.340000000000,   1.65600,
,,,4.350000000000,   1.66400,
,,,4.360000000000,   1.67200,
,,,4.370000000000,   1.64000,
,,,4.380000000000,   1.64800,
,,,4.390000000000,   1.66400,
,,,4.400000000000,   1.64800,
,,,4.410000000000,   1.62400,
,,,4.420000000000,   1.62400,
,,,4.430000000000,   1.61600,
,,,4.440000000000,   1.63200,
,,,4.450000000000,   1.62400,
,,,4.460000000000,   1.60800,
,,,4.470000000000,   1.60800,
,,,4.480000000000,   1.63200,
,,,4.490000000000,   1.61600,
,,,4.500000000000,   1.60800,
,,,4.510000000000,   1.62400,
,,,4.520000000000,   1.62400,
,,,4.530000000000,   1.61600,
,,,4.540000000000,   1.60800,
,,,4.550000000000,   1.60800,
,,,4.560000000000,   1.60800,
,,,4.570000000000,   1.60800,
,,,4.580000000000,   1.58400,
,,,4.590000000000,   1.58400,
,,,4.600000000000,   1.57600,
,,,4.610000000000,   1.57600,
,,,4.620000000000,   1.56000,
,,,4.630000000000,   1.56000,
,,,4.640000000000,   1.56000,
,,,4.650000000000,   1.56800,
,,,4.660000000000,   1.56000,
,,,4.670000000000,   1.55200,
,,,4.680000000000,   1.56000,
,,,4.690000000000,   1.56000,
,,,4.700000000000,   1.54400,
,,,4.710000000000,   1.53600,
,,,4.720000000000,   1.55200,
,,,4.730000000000,   1.55200,
,,,4.740000000000,   1.52000,
,,,4.750000000000,   1.52800,
,,,4.760000000000,   1.53600,
,,,4.770000000000,   1.52800,
,,,4.780000000000,   1.52000,
,,,4.790000000000,   1.50400,
,,,4.800000000000,   1.52800,
,,,4.810000000000,   1.51200,
,,,4.820000000000,   1.50400,
,,,4.830000000000,   1.48800,
,,,4.840000000000,   1.51200,
,,,4.850000000000,   1.50400,
,,,4.860000000000,   1.49600,
,,,4.870000000000,   1.50400,
,,,4.880000000000,   1.50400,
,,,4.890000000000,   1.50400,
,,,4.900000000000,   1.50400,
,,,4.910000000000,   1.49600,
,,,4.920000000000,   1.49600,
,,,4.930000000000,   1.50400,
,,,4.940000000000,   1.51200,
,,,4.950000000000,   1.50400,
,,,4.960000000000,   1.48800,
,,,4.970000000000,   1.49600,
,,,4.980000000000,   1.50400,
,,,4.990000000000,   1.47200,
,,,5.000000000000,   1.48000,
,,,5.010000000000,   1.48000,
,,,5.020000000000,   1.48800,
,,,5.030000000000,   1.46400,
,,,5.040000000000,   1.47200,
,,,5.050000000000,   1.48000,
,,,5.060000000000,   1.47200,
,,,5.070000000000,   1.45600,
,,,5.080000000000,   1.46400,
,,,5.090000000000,   1.47200,
,,,5.100000000000,   1.44800,
,,,5.110000000000,   1.44800,
,,,5.120000000000,   1.46400,
,,,5.130000000000,   1.44000,
,,,5.140000000000,   1.45600,
,,,5.150000000000,   1.43200,
,,,5.160000000000,   1.43200,
,,,5.170000000000,   1.44000,
,,,5.180000000000,   1.44000,
,,,5.190000000000,   1.43200,
,,,5.200000000000,   1.40800,
,,,5.210000000000,   1.42400,
,,,5.220000000000,   1.42400,
,,,5.230000000000,   1.41600,
,,,5.240000000000,   1.40000,
,,,5.250000000000,   1.39200,
,,,5.260000000000,   1.40800,
,,,5.270000000000,   1.40000,
,,,5.280000000000,   1.37600,
,,,5.290000000000,   1.37600,
,,,5.300000000000,   1.40000,
,,,5.310000000000,   1.39200,
,,,5.320000000000,   1.38400,
,,,5.330000000000,   1.36800,
,,,5.340000000000,   1.38400,
,,,5.350000000000,   1.36000,
,,,5.360000000000,   1.36000,
,,,5.370000000000,   1.36000,
,,,5.380000000000,   1.36000,
,,,5.390000000000,   1.35200,
,,,5.400000000000,   1.33600,
,,,5.410000000000,   1.32000,
,,,5.420000000000,   1.32000,
,,,5.430000000000,   1.34400,
,,,5.440000000000,   1.32000,
,,,5.450000000000,   1.30400,
,,,5.460000000000,   1.31200,
,,,5.470000000000,   1.32000,
,,,5.480000000000,   1.29600,
,,,5.490000000000,   1.29600,
,,,5.500000000000,   1.29600,
,,,5.510000000000,   1.29600,
,,,5.520000000000,   1.28000,
,,,5.530000000000,   1.28000,
,,,5.540000000000,   1.28800,
,,,5.550000000000,   1.28000,
,,,5.560000000000,   1.25600,
,,,5.570000000000,   1.27200,
,,,5.580000000000,   1.26400,
,,,5.590000000000,   1.25600,
,,,5.600000000000,   1.24000,
,,,5.610000000000,   1.24000,
,,,5.620000000000,   1.24000,
,,,5.630000000000,   1.22400,
,,,5.640000000000,   1.23200,
,,,5.650000000000,   1.20800,
,,,5.660000000000,   1.21600,
,,,5.670000000000,   1.20800,
,,,5.680000000000,   1.21600,
,,,5.690000000000,   1.20800,
,,,5.700000000000,   1.20800,
,,,5.710000000000,   1.18400,
,,,5.720000000000,   1.19200,
,,,5.730000000000,   1.18400,
,,,5.740000000000,   1.17600,
,,,5.750000000000,   1.18400,
,,,5.760000000000,   1.16800,
,,,5.770000000000,   1.14400,
,,,5.780000000000,   1.15200,
,,,5.790000000000,   1.15200,
,,,5.800000000000,   1.15200,
,,,5.810000000000,   1.13600,
,,,5.820000000000,   1.14400,
,,,5.830000000000,   1.14400,
,,,5.840000000000,   1.12800,
,,,5.850000000000,   1.11200,
,,,5.860000000000,   1.10400,
,,,5.870000000000,   1.13600,
,,,5.880000000000,   1.11200,
,,,5.890000000000,   1.08800,
,,,5.900000000000,   1.09600,
,,,5.910000000000,   1.09600,
,,,5.920000000000,   1.10400,
,,,5.930000000000,   1.08800,
,,,5.940000000000,   1.08000,
,,,5.950000000000,   1.08000,
,,,5.960000000000,   1.08000,
,,,5.970000000000,   1.08800,
,,,5.980000000000,   1.06400,
,,,5.990000000000,   1.07200,
,,,6.000000000000,   1.07200,
,,,6.010000000000,   1.05600,
,,,6.020000000000,   1.04000,
,,,6.030000000000,   1.04800,
,,,6.040000000000,   1.04000,
,,,6.050000000000,   1.04000,
,,,6.060000000000,   1.01600,
,,,6.070000000000,   1.01600,
,,,6.080000000000,   1.02400,
,,,6.090000000000,   1.01600,
,,,6.100000000000,   1.00800,
,,,6.110000000000,   0.99200,
,,,6.120000000000,   1.01600,
,,,6.130000000000,   0.99200,
,,,6.140000000000,   1.00000,
,,,6.150000000000,   0.98400,
,,,6.160000000000,   0.98400,
,,,6.170000000000,   0.99200,
,,,6.180000000000,   0.98400,
,,,6.190000000000,   0.96000,
,,,6.200000000000,   0.98400,
,,,6.210000000000,   0.96800,
,,,6.220000000000,   0.96800,
,,,6.230000000000,   0.94400,
,,,6.240000000000,   0.96000,
,,,6.250000000000,   0.95200,
,,,6.260000000000,   0.96000,
,,,6.270000000000,   0.93600,
,,,6.280000000000,   0.93600,
,,,6.290000000000,   0.93600,
,,,6.300000000000,   0.94400,
,,,6.310000000000,   0.92000,
,,,6.320000000000,   0.92800,
,,,6.330000000000,   0.92000,
,,,6.340000000000,   0.92800,
,,,6.350000000000,   0.92000,
,,,6.360000000000,   0.91200,
,,,6.370000000000,   0.92000,
,,,6.380000000000,   0.92000,
,,,6.390000000000,   0.89600,
,,,6.400000000000,   0.90400,
,,,6.410000000000,   0.89600,
,,,6.420000000000,   0.90400,
,,,6.430000000000,   0.89600,
,,,6.440000000000,   0.88000,
,,,6.450000000000,   0.88000,
,,,6.460000000000,   0.87200,
,,,6.470000000000,   0.88000,
,,,6.480000000000,   0.85600,
,,,6.490000000000,   0.86400,
,,,6.500000000000,   0.86400,
,,,6.510000000000,   0.84800,
,,,6.520000000000,   0.84000,
,,,6.530000000000,   0.84800,
