ipy_notebooks/20161031/ALL0012/F0012CH1.CSV

Record Length,2.500000e+03,,   0.000000000000,   0.11360,
Sample Interval,2.000000e-02,,   0.020000000000,   0.10960,
Trigger Point,-0.000000000000e+00,,   0.040000000000,   0.10800,
,,,   0.060000000000,   0.11600,
,,,   0.080000000000,   0.10960,
,,,   0.100000000000,   0.10960,
Source,CH1,,   0.120000000000,   0.11360,
Vertical Units,V,,   0.140000000000,   0.10960,
Vertical Scale,2.000000e-02,,   0.160000000000,   0.11680,
Vertical Offset,-1.424000e-01,,   0.180000000000,   0.11360,
Horizontal Units,s,,   0.200000000000,   0.12400,
Horizontal Scale,5.000000e+00,,   0.220000000000,   0.12000,
Pt Fmt,Y,,   0.240000000000,   0.10960,
Yzero,0.000000e+00,,   0.260000000000,   0.12080,
Probe Atten,1.000000e+00,,   0.280000000000,   0.11120,
Model Number,TBS1072B-EDU,,   0.300000000000,   0.11280,
Serial Number,C010859,,   0.320000000000,   0.11360,
Firmware Version,FV:v4.06,,   0.340000000000,   0.11920,
,,,0.360000000000,   0.12160,
,,,0.380000000000,   0.10720,
,,,0.400000000000,   0.10720,
,,,0.420000000000,   0.11280,
,,,0.440000000000,   0.12000,
,,,0.460000000000,   0.12160,
,,,0.480000000000,   0.12000,
,,,0.500000000000,   0.12480,
,,,0.520000000000,   0.11200,
,,,0.540000000000,   0.11920,
,,,0.560000000000,   0.11360,
,,,0.580000000000,   0.12080,
,,,0.600000000000,   0.11840,
,,,0.620000000000,   0.12000,
,,,0.640000000000,   0.11280,
,,,0.660000000000,   0.10640,
,,,0.680000000000,   0.11600,
,,,0.700000000000,   0.10880,
,,,0.720000000000,   0.10720,
,,,0.740000000000,   0.10720,
,,,0.760000000000,   0.11040,
,,,0.780000000000,   0.12080,
,,,0.800000000000,   0.11520,
,,,0.820000000000,   0.12080,
,,,0.840000000000,   0.10880,
,,,0.860000000000,   0.10720,
,,,0.880000000000,   0.11520,
,,,0.900000000000,   0.11040,
,,,0.920000000000,   0.11360,
,,,0.940000000000,   0.12000,
,,,0.960000000000,   0.12240,
,,,0.980000000000,   0.10720,
,,,1.000000000000,   0.10960,
,,,1.020000000000,   0.11440,
,,,1.040000000000,   0.12080,
,,,1.060000000000,   0.10640,
,,,1.080000000000,   0.10720,
,,,1.100000000000,   0.10960,
,,,1.120000000000,   0.10560,
,,,1.140000000000,   0.10720,
,,,1.160000000000,   0.11760,
,,,1.180000000000,   0.11680,
,,,1.200000000000,   0.11760,
,,,1.220000000000,   0.10800,
,,,1.240000000000,   0.11520,
,,,1.260000000000,   0.11200,
,,,1.280000000000,   0.11760,
,,,1.300000000000,   0.11200,
,,,1.320000000000,   0.10400,
,,,1.340000000000,   0.11840,
,,,1.360000000000,   0.11280,
,,,1.380000000000,   0.12240,
,,,1.400000000000,   0.11200,
,,,1.420000000000,   0.12320,
,,,1.440000000000,   0.11760,
,,,1.460000000000,   0.11200,
,,,1.480000000000,   0.12080,
,,,1.500000000000,   0.12000,
,,,1.520000000000,   0.10960,
,,,1.540000000000,   0.12160,
,,,1.560000000000,   0.11840,
,,,1.580000000000,   0.11840,
,,,1.600000000000,   0.11360,
,,,1.620000000000,   0.11680,
,,,1.640000000000,   0.10960,
,,,1.660000000000,   0.11520,
,,,1.680000000000,   0.11760,
,,,1.700000000000,   0.11920,
,,,1.720000000000,   0.11360,
,,,1.740000000000,   0.10800,
,,,1.760000000000,   0.10320,
,,,1.780000000000,   0.12080,
,,,1.800000000000,   0.10800,
,,,1.820000000000,   0.12160,
,,,1.840000000000,   0.10560,
,,,1.860000000000,   0.11840,
,,,1.880000000000,   0.11680,
,,,1.900000000000,   0.11920,
,,,1.920000000000,   0.10400,
,,,1.940000000000,   0.11200,
,,,1.960000000000,   0.10720,
,,,1.980000000000,   0.10640,
,,,2.000000000000,   0.11920,
,,,2.020000000000,   0.11920,
,,,2.040000000000,   0.12320,
,,,2.060000000000,   0.11360,
,,,2.080000000000,   0.12240,
,,,2.100000000000,   0.10960,
,,,2.120000000000,   0.11120,
,,,2.140000000000,   0.10720,
,,,2.160000000000,   0.11840,
,,,2.180000000000,   0.10240,
,,,2.200000000000,   0.10880,
,,,2.220000000000,   0.11840,
,,,2.240000000000,   0.11920,
,,,2.260000000000,   0.12080,
,,,2.280000000000,   0.10720,
,,,2.300000000000,   0.11920,
,,,2.320000000000,   0.12240,
,,,2.340000000000,   0.10400,
,,,2.360000000000,   0.11600,
,,,2.380000000000,   0.10960,
,,,2.400000000000,   0.11680,
,,,2.420000000000,   0.11840,
,,,2.440000000000,   0.11200,
,,,2.460000000000,   0.10880,
,,,2.480000000000,   0.11200,
,,,2.500000000000,   0.11360,
,,,2.520000000000,   0.10560,
,,,2.540000000000,   0.11760,
,,,2.560000000000,   0.11040,
,,,2.580000000000,   0.10960,
,,,2.600000000000,   0.12080,
,,,2.620000000000,   0.11920,
,,,2.640000000000,   0.12000,
,,,2.660000000000,   0.10320,
,,,2.680000000000,   0.10880,
,,,2.700000000000,   0.11360,
,,,2.720000000000,   0.11360,
,,,2.740000000000,   0.10320,
,,,2.760000000000,   0.11040,
,,,2.780000000000,   0.11120,
,,,2.800000000000,   0.11360,
,,,2.820000000000,   0.12080,
,,,2.840000000000,   0.11600,
,,,2.860000000000,   0.11840,
,,,2.880000000000,   0.12000,
,,,2.900000000000,   0.12080,
,,,2.920000000000,   0.11840,
,,,2.940000000000,   0.12000,
,,,2.960000000000,   0.10800,
,,,2.980000000000,   0.10960,
,,,3.000000000000,   0.10800,
,,,3.020000000000,   0.11360,
,,,3.040000000000,   0.12000,
,,,3.060000000000,   0.10800,
,,,3.080000000000,   0.11280,
,,,3.100000000000,   0.11920,
,,,3.120000000000,   0.10880,
,,,3.140000000000,   0.11920,
,,,3.160000000000,   0.10880,
,,,3.180000000000,   0.11200,
,,,3.200000000000,   0.10720,
,,,3.220000000000,   0.11840,
,,,3.240000000000,   0.11840,
,,,3.260000000000,   0.11600,
,,,3.280000000000,   0.12320,
,,,3.300000000000,   0.12000,
,,,3.320000000000,   0.11840,
,,,3.340000000000,   0.11920,
,,,3.360000000000,   0.11600,
,,,3.380000000000,   0.11360,
,,,3.400000000000,   0.11840,
,,,3.420000000000,   0.10640,
,,,3.440000000000,   0.11280,
,,,3.460000000000,   0.10640,
,,,3.480000000000,   0.11760,
,,,3.500000000000,   0.11520,
,,,3.520000000000,   0.11280,
,,,3.540000000000,   0.12000,
,,,3.560000000000,   0.11280,
,,,3.580000000000,   0.10560,
,,,3.600000000000,   0.12080,
,,,3.620000000000,   0.12160,
,,,3.640000000000,   0.11600,
,,,3.660000000000,   0.12080,
,,,3.680000000000,   0.10720,
,,,3.700000000000,   0.11040,
,,,3.720000000000,   0.12160,
,,,3.740000000000,   0.10880,
,,,3.760000000000,   0.11840,
,,,3.780000000000,   0.10560,
,,,3.800000000000,   0.12080,
,,,3.820000000000,   0.12240,
,,,3.840000000000,   0.11280,
,,,3.860000000000,   0.11600,
,,,3.880000000000,   0.12080,
,,,3.900000000000,   0.11440,
,,,3.920000000000,   0.10720,
,,,3.940000000000,   0.11440,
,,,3.960000000000,   0.10720,
,,,3.980000000000,   0.12320,
,,,4.000000000000,   0.12080,
,,,4.020000000000,   0.10720,
,,,4.040000000000,   0.11440,
,,,4.060000000000,   0.11760,
,,,4.080000000000,   0.11680,
,,,4.100000000000,   0.10880,
,,,4.120000000000,   0.10800,
,,,4.140000000000,   0.11680,
,,,4.160000000000,   0.10960,
,,,4.180000000000,   0.10800,
,,,4.200000000000,   0.11520,
,,,4.220000000000,   0.12240,
,,,4.240000000000,   0.10960,
,,,4.260000000000,   0.11680,
,,,4.280000000000,   0.11280,
,,,4.300000000000,   0.11120,
,,,4.320000000000,   0.10960,
,,,4.340000000000,   0.11280,
,,,4.360000000000,   0.10640,
,,,4.380000000000,   0.10720,
,,,4.400000000000,   0.11680,
,,,4.420000000000,   0.11840,
,,,4.440000000000,   0.11920,
,,,4.460000000000,   0.11680,
,,,4.480000000000,   0.12000,
,,,4.500000000000,   0.11200,
,,,4.520000000000,   0.10160,
,,,4.540000000000,   0.12080,
,,,4.560000000000,   0.10640,
,,,4.580000000000,   0.11920,
,,,4.600000000000,   0.11360,
,,,4.620000000000,   0.11600,
,,,4.640000000000,   0.11680,
,,,4.660000000000,   0.10800,
,,,4.680000000000,   0.11360,
,,,4.700000000000,   0.11280,
,,,4.720000000000,   0.10880,
,,,4.740000000000,   0.10800,
,,,4.760000000000,   0.11440,
,,,4.780000000000,   0.11680,
,,,4.800000000000,   0.11200,
,,,4.820000000000,   0.11280,
,,,4.840000000000,   0.11840,
,,,4.860000000000,   0.11840,
,,,4.880000000000,   0.11200,
,,,4.900000000000,   0.11840,
,,,4.920000000000,   0.12080,
,,,4.940000000000,   0.11600,
,,,4.960000000000,   0.11840,
,,,4.980000000000,   0.12240,
,,,5.000000000000,   0.10480,
,,,5.020000000000,   0.11920,
,,,5.040000000000,   0.11680,
,,,5.060000000000,   0.12160,
,,,5.080000000000,   0.11600,
,,,5.100000000000,   0.11760,
,,,5.120000000000,   0.11920,
,,,5.140000000000,   0.11920,
,,,5.160000000000,   0.11600,
,,,5.180000000000,   0.11760,
,,,5.200000000000,   0.10800,
,,,5.220000000000,   0.11200,
,,,5.240000000000,   0.11920,
,,,5.260000000000,   0.11840,
,,,5.280000000000,   0.11680,
,,,5.300000000000,   0.12080,
,,,5.320000000000,   0.10800,
,,,5.340000000000,   0.11680,
,,,5.360000000000,   0.11840,
,,,5.380000000000,   0.11600,
,,,5.400000000000,   0.10720,
,,,5.420000000000,   0.11600,
,,,5.440000000000,   0.10400,
,,,5.460000000000,   0.11200,
,,,5.480000000000,   0.11600,
,,,5.500000000000,   0.10320,
,,,5.520000000000,   0.10960,
,,,5.540000000000,   0.10960,
,,,5.560000000000,   0.10640,
,,,5.580000000000,   0.11840,
,,,5.600000000000,   0.12160,
,,,5.620000000000,   0.12000,
,,,5.640000000000,   0.10720,
,,,5.660000000000,   0.12320,
,,,5.680000000000,   0.11520,
,,,5.700000000000,   0.11200,
,,,5.720000000000,   0.10720,
,,,5.740000000000,   0.11840,
,,,5.760000000000,   0.12160,
,,,5.780000000000,   0.10800,
,,,5.800000000000,   0.10480,
,,,5.820000000000,   0.11840,
,,,5.840000000000,   0.10480,
,,,5.860000000000,   0.10560,
,,,5.880000000000,   0.12080,
,,,5.900000000000,   0.10480,
,,,5.920000000000,   0.11040,
,,,5.940000000000,   0.10960,
,,,5.960000000000,   0.10400,
,,,5.980000000000,   0.11840,
,,,6.000000000000,   0.10880,
,,,6.020000000000,   0.10960,
,,,6.040000000000,   0.10560,
,,,6.060000000000,   0.12000,
,,,6.080000000000,   0.10560,
,,,6.100000000000,   0.11200,
,,,6.120000000000,   0.10640,
,,,6.140000000000,   0.11840,
,,,6.160000000000,   0.10400,
,,,6.180000000000,   0.11520,
,,,6.200000000000,   0.10720,
,,,6.220000000000,   0.10800,
,,,6.240000000000,   0.10320,
,,,6.260000000000,   0.11840,
,,,6.280000000000,   0.11200,
,,,6.300000000000,   0.11440,
,,,6.320000000000,   0.11520,
,,,6.340000000000,   0.11680,
,,,6.360000000000,   0.10720,
,,,6.380000000000,   0.10640,
,,,6.400000000000,   0.11360,
,,,6.420000000000,   0.12080,
,,,6.440000000000,   0.11200,
,,,6.460000000000,   0.10640,
,,,6.480000000000,   0.10720,
,,,6.500000000000,   0.10480,
,,,6.520000000000,   0.10240,
,,,6.540000000000,   0.11360,
,,,6.560000000000,   0.10560,
,,,6.580000000000,   0.12320,
,,,6.600000000000,   0.11600,
,,,6.620000000000,   0.10880,
,,,6.640000000000,   0.11200,
,,,6.660000000000,   0.11760,
,,,6.680000000000,   0.11200,
,,,6.700000000000,   0.10800,
,,,6.720000000000,   0.10640,
,,,6.740000000000,   0.12080,
,,,6.760000000000,   0.11600,
,,,6.780000000000,   0.10480,
,,,6.800000000000,   0.10800,
,,,6.820000000000,   0.12080,
,,,6.840000000000,   0.11840,
,,,6.860000000000,   0.11840,
,,,6.880000000000,   0.10640,
,,,6.900000000000,   0.11840,
,,,6.920000000000,   0.10800,
,,,6.940000000000,   0.12000,
,,,6.960000000000,   0.11920,
,,,6.980000000000,   0.11520,
,,,7.000000000000,   0.10400,
,,,7.020000000000,   0.10560,
,,,7.040000000000,   0.11280,
,,,7.060000000000,   0.10720,
,,,7.080000000000,   0.10560,
,,,7.100000000000,   0.11120,
,,,7.120000000000,   0.11120,
,,,7.140000000000,   0.11600,
,,,7.160000000000,   0.11200,
,,,7.180000000000,   0.11360,
,,,7.200000000000,   0.10960,
,,,7.220000000000,   0.11760,
,,,7.240000000000,   0.11280,
,,,7.260000000000,   0.11520,
,,,7.280000000000,   0.11120,
,,,7.300000000000,   0.12080,
,,,7.320000000000,   0.10720,
,,,7.340000000000,   0.11200,
,,,7.360000000000,   0.11200,
,,,7.380000000000,   0.10480,
,,,7.400000000000,   0.11280,
,,,7.420000000000,   0.10480,
,,,7.440000000000,   0.12080,
,,,7.460000000000,   0.10720,
,,,7.480000000000,   0.10880,
,,,7.500000000000,   0.11200,
,,,7.520000000000,   0.12080,
,,,7.540000000000,   0.12080,
,,,7.560000000000,   0.10480,
,,,7.580000000000,   0.10800,
,,,7.600000000000,   0.11760,
,,,7.620000000000,   0.10800,
,,,7.640000000000,   0.11360,
,,,7.660000000000,   0.11040,
,,,7.680000000000,   0.11120,
,,,7.700000000000,   0.12240,
,,,7.720000000000,   0.12000,
,,,7.740000000000,   0.12240,
,,,7.760000000000,   0.12400,
,,,7.780000000000,   0.10560,
,,,7.800000000000,   0.11360,
,,,7.820000000000,   0.10960,
,,,7.840000000000,   0.12080,
,,,7.860000000000,   0.11600,
,,,7.880000000000,   0.12320,
,,,7.900000000000,   0.11360,
,,,7.920000000000,   0.10560,
,,,7.940000000000,   0.11280,
,,,7.960000000000,   0.12800,
,,,7.980000000000,   0.11760,
,,,8.000000000000,   0.11360,
,,,8.020000000000,   0.11680,
,,,8.040000000000,   0.12400,
,,,8.060000000000,   0.11440,
,,,8.080000000000,   0.10960,
,,,8.100000000000,   0.11680,
,,,8.120000000000,   0.11040,
,,,8.140000000000,   0.11360,
,,,8.160000000000,   0.11760,
,,,8.180000000000,   0.12000,
,,,8.200000000000,   0.10880,
,,,8.220000000000,   0.11360,
,,,8.240000000000,   0.11680,
,,,8.260000000000,   0.13040,
,,,8.280000000000,   0.11200,
,,,8.300000000000,   0.11040,
,,,8.320000000000,   0.11520,
,,,8.340000000000,   0.12080,
,,,8.360000000000,   0.12800,
,,,8.380000000000,   0.12480,
,,,8.400000000000,   0.11200,
,,,8.420000000000,   0.12720,
,,,8.440000000000,   0.13040,
,,,8.460000000000,   0.12080,
,,,8.480000000000,   0.11200,
,,,8.500000000000,   0.11280,
,,,8.520000000000,   0.12640,
,,,8.540000000000,   0.11840,
,,,8.560000000000,   0.12320,
,,,8.580000000000,   0.11920,
,,,8.600000000000,   0.11280,
,,,8.620000000000,   0.12000,
,,,8.640000000000,   0.12240,
,,,8.660000000000,   0.11840,
,,,8.680000000000,   0.10960,
,,,8.700000000000,   0.11760,
,,,8.720000000000,   0.11280,
,,,8.740000000000,   0.11040,
,,,8.760000000000,   0.12960,
,,,8.780000000000,   0.12320,
,,,8.800000000000,   0.12880,
,,,8.820000000000,   0.13040,
,,,8.840000000000,   0.11520,
,,,8.860000000000,   0.11280,
,,,8.880000000000,   0.09520,
,,,8.900000000000,   0.11920,
,,,8.920000000000,   0.11840,
,,,8.940000000000,   0.11520,
,,,8.960000000000,   0.11120,
,,,8.980000000000,   0.12720,
,,,9.000000000000,   0.12720,
,,,9.020000000000,   0.11520,
,,,9.040000000000,   0.12800,
,,,9.060000000000,   0.12800,
,,,9.080000000000,   0.11200,
,,,9.100000000000,   0.12080,
,,,9.120000000000,   0.12800,
,,,9.140000000000,   0.12560,
,,,9.160000000000,   0.12560,
,,,9.180000000000,   0.11760,
,,,9.200000000000,   0.11760,
,,,9.220000000000,   0.12400,
,,,9.240000000000,   0.12560,
,,,9.260000000000,   0.12880,
,,,9.280000000000,   0.12880,
,,,9.300000000000,   0.11040,
,,,9.320000000000,   0.12800,
,,,9.340000000000,   0.11760,
,,,9.360000000000,   0.11920,
,,,9.380000000000,   0.13040,
,,,9.400000000000,   0.11360,
,,,9.420000000000,   0.13040,
,,,9.440000000000,   0.12640,
,,,9.460000000000,   0.12320,
,,,9.480000000000,   0.11920,
,,,9.500000000000,   0.12720,
,,,9.520000000000,   0.12640,
,,,9.540000000000,   0.12080,
,,,9.560000000000,   0.11840,
,,,9.580000000000,   0.12480,
,,,9.600000000000,   0.11600,
,,,9.620000000000,   0.12240,
,,,9.640000000000,   0.11920,
,,,9.660000000000,   0.12960,
,,,9.680000000000,   0.10960,
,,,9.700000000000,   0.12960,
,,,9.720000000000,   0.10960,
,,,9.740000000000,   0.12080,
,,,9.760000000000,   0.12960,
,,,9.780000000000,   0.11840,
,,,9.800000000000,   0.13280,
,,,9.820000000000,   0.11440,
,,,9.840000000000,   0.10960,
,,,9.860000000000,   0.11360,
,,,9.880000000000,   0.11840,
,,,9.900000000000,   0.12800,
,,,9.920000000000,   0.12480,
,,,9.940000000000,   0.12320,
,,,9.960000000000,   0.11920,
,,,9.980000000000,   0.12720,
,,,10.000000000000,   0.12720,
,,,10.020000000000,   0.12560,
,,,10.040000000000,   0.12960,
,,,10.060000000000,   0.11680,
,,,10.080000000000,   0.11840,
,,,10.100000000000,   0.12240,
,,,10.120000000000,   0.12160,
,,,10.140000000000,   0.12640,
,,,10.160000000000,   0.11840,
,,,10.180000000000,   0.11840,
,,,10.200000000000,   0.11600,
,,,10.220000000000,   0.12960,
,,,10.240000000000,   0.11200,
,,,10.260000000000,   0.11600,
,,,10.280000000000,   0.11680,
,,,10.300000000000,   0.12640,
,,,10.320000000000,   0.11440,
,,,10.340000000000,   0.11280,
,,,10.360000000000,   0.13040,
,,,10.380000000000,   0.11200,
,,,10.400000000000,   0.12320,
,,,10.420000000000,   0.11360,
,,,10.440000000000,   0.10960,
,,,10.460000000000,   0.13040,
,,,10.480000000000,   0.11440,
,,,10.500000000000,   0.11840,
,,,10.520000000000,   0.12160,
,,,10.540000000000,   0.11760,
,,,10.560000000000,   0.12720,
,,,10.580000000000,   0.12240,
,,,10.600000000000,   0.11520,
,,,10.620000000000,   0.12720,
,,,10.640000000000,   0.13360,
,,,10.660000000000,   0.12240,
,,,10.680000000000,   0.13040,
,,,10.700000000000,   0.12800,
,,,10.720000000000,   0.11840,
,,,10.740000000000,   0.11120,
,,,10.760000000000,   0.11440,
,,,10.780000000000,   0.11040,
,,,10.800000000000,   0.11840,
,,,10.820000000000,   0.12960,
,,,10.840000000000,   0.11600,
,,,10.860000000000,   0.12720,
,,,10.880000000000,   0.12960,
,,,10.900000000000,   0.12400,
,,,10.920000000000,   0.12400,
,,,10.940000000000,   0.11920,
,,,10.960000000000,   0.12640,
,,,10.980000000000,   0.12400,
,,,11.000000000000,   0.11520,
,,,11.020000000000,   0.12000,
,,,11.040000000000,   0.11680,
,,,11.060000000000,   0.11520,
,,,11.080000000000,   0.12240,
,,,11.100000000000,   0.12000,
,,,11.120000000000,   0.12000,
,,,11.140000000000,   0.12080,
,,,11.160000000000,   0.11600,
,,,11.180000000000,   0.12960,
,,,11.200000000000,   0.12000,
,,,11.220000000000,   0.12720,
,,,11.240000000000,   0.12640,
,,,11.260000000000,   0.11760,
,,,11.280000000000,   0.11120,
,,,11.300000000000,   0.11040,
,,,11.320000000000,   0.11840,
,,,11.340000000000,   0.12560,
,,,11.360000000000,   0.10960,
,,,11.380000000000,   0.10640,
,,,11.400000000000,   0.12080,
,,,11.420000000000,   0.11360,
,,,11.440000000000,   0.12640,
,,,11.460000000000,   0.11840,
,,,11.480000000000,   0.12560,
,,,11.500000000000,   0.12400,
,,,11.520000000000,   0.12720,
,,,11.540000000000,   0.12800,
,,,11.560000000000,   0.12480,
,,,11.580000000000,   0.11040,
,,,11.600000000000,   0.11280,
,,,11.620000000000,   0.11920,
,,,11.640000000000,   0.11840,
,,,11.660000000000,   0.12960,
,,,11.680000000000,   0.10880,
,,,11.700000000000,   0.12000,
,,,11.720000000000,   0.11120,
,,,11.740000000000,   0.12240,
,,,11.760000000000,   0.11200,
,,,11.780000000000,   0.12480,
,,,11.800000000000,   0.10960,
,,,11.820000000000,   0.12160,
,,,11.840000000000,   0.12560,
,,,11.860000000000,   0.12000,
,,,11.880000000000,   0.12080,
,,,11.900000000000,   0.11680,
,,,11.920000000000,   0.10960,
,,,11.940000000000,   0.12320,
,,,11.960000000000,   0.11360,
,,,11.980000000000,   0.11360,
,,,12.000000000000,   0.10960,
,,,12.020000000000,   0.11360,
,,,12.040000000000,   0.12240,
,,,12.060000000000,   0.12080,
,,,12.080000000000,   0.11200,
,,,12.100000000000,   0.12480,
,,,12.120000000000,   0.11120,
,,,12.140000000000,   0.11600,
,,,12.160000000000,   0.12400,
,,,12.180000000000,   0.11360,
,,,12.200000000000,   0.12800,
,,,12.220000000000,   0.11760,
,,,12.240000000000,   0.12240,
,,,12.260000000000,   0.11040,
,,,12.280000000000,   0.11360,
,,,12.300000000000,   0.12480,
,,,12.320000000000,   0.12240,
,,,12.340000000000,   0.12000,
,,,12.360000000000,   0.11520,
,,,12.380000000000,   0.12400,
,,,12.400000000000,   0.12080,
,,,12.420000000000,   0.12160,
,,,12.440000000000,   0.12400,
,,,12.460000000000,   0.11440,
,,,12.480000000000,   0.11840,
,,,12.500000000000,   0.11840,
,,,12.520000000000,   0.12320,
,,,12.540000000000,   0.11040,
,,,12.560000000000,   0.11040,
,,,12.580000000000,   0.12000,
,,,12.600000000000,   0.11040,
,,,12.620000000000,   0.11920,
,,,12.640000000000,   0.11520,
,,,12.660000000000,   0.11040,
,,,12.680000000000,   0.11600,
,,,12.700000000000,   0.12240,
,,,12.720000000000,   0.11600,
,,,12.740000000000,   0.11040,
,,,12.760000000000,   0.11120,
,,,12.780000000000,   0.12720,
,,,12.800000000000,   0.12240,
,,,12.820000000000,   0.12640,
,,,12.840000000000,   0.11200,
,,,12.860000000000,   0.12080,
,,,12.880000000000,   0.11040,
,,,12.900000000000,   0.12480,
,,,12.920000000000,   0.11600,
,,,12.940000000000,   0.11440,
,,,12.960000000000,   0.11680,
